<?xml version="1.0" encoding="utf-8"?>
<!-- Generator: Adobe Illustrator 15.1.0, SVG Export Plug-In . SVG Version: 6.00 Build 0)  -->
<!DOCTYPE svg PUBLIC "-//W3C//DTD SVG 1.1//EN" "http://www.w3.org/Graphics/SVG/1.1/DTD/svg11.dtd">
<svg version="1.1" id="Layer_1" xmlns="http://www.w3.org/2000/svg" xmlns:xlink="http://www.w3.org/1999/xlink" x="0px" y="0px"
	 width="16px" height="35px" viewBox="0 0 16 35" enable-background="new 0 0 16 35" xml:space="preserve">
<polyline display="none" fill="none" stroke="#000000" stroke-miterlimit="10" points="8.461,2.878 13.715,8.132 8.461,13.382 "/>
<g>
	<rect x="0.841" y="16.687" fill="#823200" width="14.299" height="1"/>
</g>
<g>
	<rect y="16.687" fill="#823200" width="1" height="18.313"/>
</g>
<g display="none">
	<polygon display="inline" points="10.691,4.901 10.152,5.48 13.005,8.131 10.152,10.783 10.691,11.364 14.167,8.131 	"/>
</g>
<line display="none" fill="none" stroke="#000000" stroke-miterlimit="10" x1="13.311" y1="8.482" x2="0.812" y2="8.482"/>
<rect x="10.646" y="14.51" fill="#823200" width="5.354" height="5.354"/>
</svg>
