<?xml version="1.0" encoding="utf-8"?>
<!-- Generator: Adobe Illustrator 15.1.0, SVG Export Plug-In . SVG Version: 6.00 Build 0)  -->
<!DOCTYPE svg PUBLIC "-//W3C//DTD SVG 1.1//EN" "http://www.w3.org/Graphics/SVG/1.1/DTD/svg11.dtd">
<svg version="1.1" id="Livello_1" xmlns="http://www.w3.org/2000/svg" xmlns:xlink="http://www.w3.org/1999/xlink" x="0px" y="0px"
	 width="50px" height="50px" viewBox="0 0 50 50" enable-background="new 0 0 50 50" xml:space="preserve">
<g id="Livello_1_1_">
</g>
<g>
	<path d="M32.777,27.779c4.297-4.296,4.295-11.26,0-15.557c-4.295-4.295-11.26-4.297-15.557,0c-4.296,4.297-4.295,11.262,0,15.557
		C21.518,32.075,28.482,32.075,32.777,27.779z M29.95,24.951c-2.734,2.732-7.166,2.732-9.899,0c-2.732-2.732-2.734-7.166,0-9.898
		c2.733-2.733,7.166-2.733,9.899,0C32.684,17.785,32.684,22.217,29.95,24.951z"/>
	<path d="M45.414,40.414c-0.781,0.781-2.047,0.781-2.828,0L30.5,28.33c-0.781-0.779-0.781-2.047,0-2.828l0,0
		c0.781-0.781,2.047-0.781,2.829,0l12.085,12.086C46.195,38.368,46.195,39.635,45.414,40.414L45.414,40.414z"/>
	<g id="arrow_x5F_left_1_">
		<polygon points="12,13 4,20.002 12,27 		"/>
	</g>
</g>
<path d="M50,50H0V0h50V50z M2,48h46V2H2V48z"/>
</svg>
