<?xml version="1.0" encoding="utf-8"?>
<!-- Generator: Adobe Illustrator 17.0.0, SVG Export Plug-In . SVG Version: 6.00 Build 0)  -->
<!DOCTYPE svg PUBLIC "-//W3C//DTD SVG 1.1//EN" "http://www.w3.org/Graphics/SVG/1.1/DTD/svg11.dtd">
<svg version="1.1" id="Layer_1" xmlns="http://www.w3.org/2000/svg" xmlns:xlink="http://www.w3.org/1999/xlink" x="0px" y="0px"
	 width="50px" height="50px" viewBox="0 0 50 50" enable-background="new 0 0 50 50" xml:space="preserve">
<rect fill="none" width="50" height="50"/>
<g>
	
		<linearGradient id="SVGID_1_" gradientUnits="userSpaceOnUse" x1="16" y1="9.6646" x2="16" y2="25.8345" gradientTransform="matrix(4.489659e-11 1 -1 4.489659e-11 50 0)">
		<stop  offset="0" style="stop-color:#464646"/>
		<stop  offset="1" style="stop-color:#8C8C8C"/>
	</linearGradient>
	<path fill="url(#SVGID_1_)" d="M27,9v14h14V9H27z M38,12v8h-8v-8H38z"/>
	
		<linearGradient id="SVGID_2_" gradientUnits="userSpaceOnUse" x1="42.0601" y1="836.606" x2="42.0601" y2="853.5217" gradientTransform="matrix(4.489659e-11 1 -1 4.489659e-11 877.4414 -8.0601)">
		<stop  offset="0" style="stop-color:#464646"/>
		<stop  offset="1" style="stop-color:#8C8C8C"/>
	</linearGradient>
	<rect x="27" y="27" fill="url(#SVGID_2_)" width="14" height="14"/>
	
		<linearGradient id="SVGID_3_" gradientUnits="userSpaceOnUse" x1="16" y1="26.8315" x2="16" y2="43.1791" gradientTransform="matrix(4.489659e-11 1 -1 4.489659e-11 50 0)">
		<stop  offset="0" style="stop-color:#464646"/>
		<stop  offset="1" style="stop-color:#8C8C8C"/>
	</linearGradient>
	<path fill="url(#SVGID_3_)" d="M9,9v14h14V9H9z M20,12v8h-8v-8H20z"/>
	
		<linearGradient id="SVGID_4_" gradientUnits="userSpaceOnUse" x1="34" y1="27.3315" x2="34" y2="42.6736" gradientTransform="matrix(4.489659e-11 1 -1 4.489659e-11 50 0)">
		<stop  offset="0" style="stop-color:#464646"/>
		<stop  offset="1" style="stop-color:#8C8C8C"/>
	</linearGradient>
	<path fill="url(#SVGID_4_)" d="M9,27v14h14V27H9z M20,30v8h-8v-8H20z"/>
</g>
<g opacity="0.4">
	<g>
		<path d="M29.5,20.5h9v-9h-9V20.5z M38,12v8h-8v-8H38z"/>
		<path d="M41,9H27v14h14V9z M27.5,22.5v-13h13v13H27.5z"/>
	</g>
	<path d="M41,27H27v14h14V27z M27.5,40.5v-13h13v13H27.5z"/>
	<g>
		<path d="M11.5,20.5h9v-9h-9V20.5z M20,12v8h-8v-8H20z"/>
		<path d="M23,9H9v14h14V9z M9.5,22.5v-13h13v13H9.5z"/>
	</g>
	<g>
		<path d="M11.5,38.5h9v-9h-9V38.5z M20,30v8h-8v-8H20z"/>
		<path d="M23,27H9v14h14V27z M9.5,40.5v-13h13v13H9.5z"/>
	</g>
</g>
<g opacity="0.2">
	<path fill="#FFFFFF" d="M26,8v16h16V8H26z M41,9v14H27V9H41z"/>
	<path fill="#FFFFFF" d="M30,12v8h8v-8H30z M37,13v6h-6v-6H37z"/>
	<path fill="#FFFFFF" d="M42,26H26v16h16V26z M27,41V27h14v14H27z"/>
	<path fill="#FFFFFF" d="M8,8v16h16V8H8z M23,9v14H9V9H23z"/>
	<path fill="#FFFFFF" d="M12,12v8h8v-8H12z M19,13v6h-6v-6H19z"/>
	<path fill="#FFFFFF" d="M8,26v16h16V26H8z M23,27v14H9V27H23z"/>
	<path fill="#FFFFFF" d="M12,30v8h8v-8H12z M19,31v6h-6v-6H19z"/>
</g>
</svg>
