<?xml version="1.0" encoding="utf-8"?>
<!-- Generator: Adobe Illustrator 16.0.0, SVG Export Plug-In . SVG Version: 6.00 Build 0)  -->
<!DOCTYPE svg PUBLIC "-//W3C//DTD SVG 1.1//EN" "http://www.w3.org/Graphics/SVG/1.1/DTD/svg11.dtd">
<svg version="1.1" id="Layer_1" xmlns="http://www.w3.org/2000/svg" xmlns:xlink="http://www.w3.org/1999/xlink" x="0px" y="0px"
	 width="80px" height="80px" viewBox="0 0 80 80" enable-background="new 0 0 80 80" xml:space="preserve">
<path d="M65,0H15v50h50V0z M63.293,1L39.999,24.292L16.706,1H63.293z M15.999,1.708L39.293,25L15.999,48.293V1.708z M16.706,49
	l23.293-23.292L63.293,49H16.706z M64,48.293L40.706,25L63.999,1.707L64,48.293L64,48.293z"/>
<path d="M0,0v80h80V0H0z M79,79H1.001V1H79V79z"/>
<g>
	<path d="M12.014,58.032h7.971v10.021h-2.024v-8.34h-3.924v8.34h-2.023V58.032z"/>
	<path d="M21.591,64.32c0-0.637,0.157-1.256,0.472-1.853s0.76-1.053,1.336-1.366c0.576-0.314,1.22-0.473,1.931-0.473
		c1.098,0,1.999,0.355,2.7,1.07c0.702,0.713,1.053,1.613,1.053,2.703c0,1.099-0.354,2.009-1.063,2.729
		c-0.708,0.724-1.601,1.084-2.676,1.084c-0.666,0-1.3-0.149-1.904-0.45c-0.604-0.302-1.063-0.742-1.377-1.322
		C21.748,65.861,21.591,65.154,21.591,64.32z M23.56,64.424c0,0.721,0.171,1.271,0.513,1.654c0.342,0.383,0.763,0.574,1.265,0.574
		s0.922-0.191,1.261-0.574c0.339-0.383,0.509-0.938,0.509-1.668c0-0.711-0.17-1.258-0.509-1.641
		c-0.339-0.384-0.76-0.574-1.261-0.574s-0.923,0.19-1.265,0.574C23.731,63.152,23.56,63.704,23.56,64.424z"/>
	<path d="M30.457,60.794h2.379l1.805,5.06l1.818-5.06h2.372v7.261h-1.634v-4.779l-1.771,4.779h-1.641l-1.688-4.779v4.779h-1.641
		L30.457,60.794L30.457,60.794z"/>
	<path d="M40.13,64.32c0-0.637,0.157-1.256,0.472-1.853c0.315-0.597,0.76-1.053,1.336-1.366c0.578-0.314,1.222-0.473,1.933-0.473
		c1.098,0,1.998,0.355,2.7,1.07c0.701,0.713,1.053,1.613,1.053,2.703c0,1.099-0.354,2.009-1.062,2.729
		c-0.709,0.724-1.601,1.084-2.677,1.084c-0.666,0-1.3-0.149-1.903-0.45c-0.604-0.302-1.062-0.742-1.377-1.322
		C40.287,65.861,40.13,65.154,40.13,64.32z M42.1,64.424c0,0.721,0.17,1.271,0.512,1.654c0.343,0.383,0.765,0.574,1.266,0.574
		s0.922-0.191,1.262-0.574s0.51-0.938,0.51-1.668c0-0.711-0.17-1.258-0.51-1.641c-0.34-0.384-0.761-0.574-1.262-0.574
		s-0.923,0.19-1.266,0.574C42.27,63.152,42.1,63.704,42.1,64.424z"/>
	<path d="M49.085,60.794h1.771v5.708h2.209v-5.708h1.771v5.708h2.235v-5.708h1.771v5.708h0.786v3.466h-1.552v-1.913h-8.989
		L49.085,60.794L49.085,60.794z"/>
	<path d="M60.979,60.794H62.9v3.015h1.928c0.756,0,1.338,0.056,1.742,0.164c0.406,0.109,0.744,0.346,1.013,0.709
		c0.269,0.36,0.403,0.781,0.403,1.26c0,0.703-0.24,1.229-0.721,1.584c-0.481,0.353-1.203,0.529-2.164,0.529h-4.123V60.794z
		 M62.9,66.837h1.791c0.561,0,0.92-0.091,1.076-0.272c0.157-0.184,0.235-0.398,0.235-0.649c0-0.351-0.136-0.593-0.405-0.726
		c-0.271-0.131-0.755-0.197-1.447-0.197H62.9V66.837z"/>
</g>
</svg>
