<?xml version="1.0" encoding="utf-8"?>
<!-- Generator: Adobe Illustrator 16.0.0, SVG Export Plug-In . SVG Version: 6.00 Build 0)  -->
<!DOCTYPE svg PUBLIC "-//W3C//DTD SVG 1.1//EN" "http://www.w3.org/Graphics/SVG/1.1/DTD/svg11.dtd">
<svg version="1.1" id="Layer_1" xmlns="http://www.w3.org/2000/svg" xmlns:xlink="http://www.w3.org/1999/xlink" x="0px" y="0px"
	 width="50px" height="50px" viewBox="0 0 50 50" enable-background="new 0 0 50 50" xml:space="preserve">
<path d="M0,0v50h50V0H0z M48.293,49H1.706L12.14,38.566l-0.707-0.707L0.999,48.293V1.708L11.432,12.14l0.708-0.708L1.706,1h46.587
	L37.859,11.432l0.707,0.707L48.999,1.707L49,48.293L38.566,37.859l-0.707,0.707L48.293,49z"/>
<g enable-background="new    ">
	<path d="M26.129,18.398v4.875c0.385-0.031,0.677-0.175,0.875-0.43c0.197-0.255,0.471-0.839,0.82-1.75
		c0.458-1.192,0.927-1.953,1.406-2.281c0.474-0.323,1.263-0.484,2.367-0.484c0.052,0,0.164-0.003,0.336-0.008v1.711l-0.336-0.008
		c-0.469,0-0.812,0.059-1.031,0.176s-0.396,0.296-0.531,0.535c-0.136,0.239-0.336,0.731-0.602,1.477
		c-0.141,0.396-0.293,0.727-0.457,0.992s-0.455,0.516-0.871,0.75c0.516,0.151,0.941,0.446,1.277,0.887s0.704,1.063,1.105,1.871
		l1.562,3.141h-2.719l-1.375-2.961c-0.016-0.042-0.061-0.122-0.133-0.242c-0.042-0.078-0.136-0.258-0.281-0.539
		c-0.292-0.547-0.531-0.896-0.719-1.047s-0.42-0.227-0.695-0.227v5.016h-2.258v-5.016c-0.266,0-0.495,0.073-0.688,0.219
		c-0.193,0.146-0.433,0.497-0.719,1.055c-0.162,0.312-0.258,0.492-0.289,0.539c-0.047,0.078-0.091,0.159-0.133,0.242l-1.375,2.961
		h-2.719l1.562-3.141c0.385-0.776,0.749-1.392,1.09-1.848c0.341-0.456,0.774-0.759,1.301-0.91c-0.417-0.234-0.707-0.483-0.871-0.746
		s-0.319-0.595-0.465-0.996c-0.261-0.729-0.457-1.216-0.59-1.461s-0.31-0.427-0.531-0.547c-0.222-0.12-0.582-0.18-1.082-0.18
		c-0.062,0-0.162,0.003-0.297,0.008V18.32c0.172,0.005,0.284,0.008,0.336,0.008c1.12,0,1.917,0.164,2.391,0.492
		c0.469,0.333,0.93,1.091,1.383,2.273c0.354,0.917,0.629,1.501,0.824,1.754s0.485,0.395,0.871,0.426v-4.875H26.129z"/>
</g>
</svg>
