<?xml version="1.0" encoding="utf-8"?>
<!-- Generator: Adobe Illustrator 16.0.0, SVG Export Plug-In . SVG Version: 6.00 Build 0)  -->
<!DOCTYPE svg PUBLIC "-//W3C//DTD SVG 1.1//EN" "http://www.w3.org/Graphics/SVG/1.1/DTD/svg11.dtd">
<svg version="1.1" id="Layer_1" xmlns="http://www.w3.org/2000/svg" xmlns:xlink="http://www.w3.org/1999/xlink" x="0px" y="0px"
	 width="50px" height="50px" viewBox="0 0 50 50" enable-background="new 0 0 50 50" xml:space="preserve">
<path d="M0,0v50h50V0H0z M48.293,49H1.706L12.14,38.566l-0.707-0.707L0.999,48.293V1.708L11.432,12.14l0.708-0.708L1.706,1h46.587
	L37.859,11.432l0.707,0.707L48.999,1.707L49,48.293L38.566,37.859l-0.707,0.707L48.293,49z"/>
<g enable-background="new    ">
	<path d="M20.828,29.852V18.398h3.711c1.406,0,2.322,0.058,2.75,0.172c0.656,0.172,1.205,0.546,1.648,1.121
		c0.442,0.575,0.664,1.319,0.664,2.23c0,0.703-0.128,1.294-0.383,1.773c-0.256,0.479-0.58,0.855-0.973,1.129
		c-0.394,0.273-0.793,0.454-1.199,0.543c-0.553,0.109-1.352,0.164-2.398,0.164h-1.508v4.32H20.828z M23.141,20.336v3.25h1.266
		c0.911,0,1.521-0.06,1.828-0.18c0.307-0.12,0.548-0.308,0.723-0.562c0.174-0.255,0.262-0.552,0.262-0.891
		c0-0.417-0.123-0.761-0.367-1.031c-0.245-0.271-0.555-0.44-0.93-0.508c-0.276-0.052-0.831-0.078-1.664-0.078H23.141z"/>
</g>
</svg>
