<?xml version="1.0" encoding="utf-8"?>
<!-- Generator: Adobe Illustrator 16.0.0, SVG Export Plug-In . SVG Version: 6.00 Build 0)  -->
<!DOCTYPE svg PUBLIC "-//W3C//DTD SVG 1.1//EN" "http://www.w3.org/Graphics/SVG/1.1/DTD/svg11.dtd">
<svg version="1.1" id="Layer_1" xmlns="http://www.w3.org/2000/svg" xmlns:xlink="http://www.w3.org/1999/xlink" x="0px" y="0px"
	 width="80px" height="80px" viewBox="0 0 80 80" enable-background="new 0 0 80 80" xml:space="preserve">
<path d="M65,0H15v50h50V0z M63.293,1L39.999,24.292L16.706,1H63.293z M15.999,1.708L39.293,25L15.999,48.293V1.708z M16.706,49
	l23.293-23.292L63.293,49H16.706z M64,48.293L40.706,25L63.999,1.707L64,48.293L64,48.293z"/>
<path d="M0,0v80h80V0H0z M79,79H1.001V1H79V79z"/>
<g>
	<path d="M19.513,58.032h7.971v10.021H25.46v-8.34h-3.924v8.34h-2.023V58.032z"/>
	<path d="M29.09,64.32c0-0.637,0.157-1.256,0.472-1.853s0.76-1.053,1.336-1.366c0.576-0.314,1.22-0.473,1.931-0.473
		c1.098,0,1.999,0.355,2.7,1.07c0.702,0.713,1.053,1.613,1.053,2.703c0,1.099-0.354,2.009-1.063,2.729
		c-0.708,0.724-1.601,1.084-2.676,1.084c-0.666,0-1.3-0.149-1.904-0.45c-0.604-0.302-1.063-0.742-1.377-1.322
		C29.247,65.861,29.09,65.154,29.09,64.32z M31.059,64.424c0,0.721,0.171,1.271,0.513,1.654c0.342,0.383,0.763,0.574,1.265,0.574
		s0.922-0.191,1.261-0.574c0.339-0.383,0.509-0.938,0.509-1.668c0-0.711-0.17-1.258-0.509-1.641
		c-0.339-0.384-0.76-0.574-1.261-0.574s-0.923,0.19-1.265,0.574C31.23,63.152,31.059,63.704,31.059,64.424z"/>
	<path d="M38.038,60.794h1.846v4.56l2.953-4.56h1.888v7.261h-1.847v-4.643l-2.994,4.643h-1.846V60.794z"/>
	<path d="M53.021,62.939l-1.894,0.343c-0.063-0.378-0.209-0.663-0.435-0.854c-0.227-0.191-0.52-0.287-0.879-0.287
		c-0.479,0-0.859,0.166-1.145,0.495c-0.285,0.331-0.428,0.884-0.428,1.658c0,0.86,0.145,1.47,0.434,1.825
		c0.29,0.355,0.678,0.533,1.166,0.533c0.365,0,0.663-0.104,0.896-0.312c0.232-0.207,0.396-0.562,0.492-1.068l1.887,0.32
		c-0.196,0.866-0.571,1.52-1.129,1.963c-0.557,0.441-1.301,0.662-2.234,0.662c-1.062,0-1.908-0.335-2.54-1.005
		c-0.631-0.67-0.946-1.598-0.946-2.782c0-1.197,0.317-2.132,0.95-2.799c0.634-0.668,1.49-1.002,2.57-1.002
		c0.885,0,1.587,0.189,2.108,0.57C52.42,61.581,52.795,62.161,53.021,62.939z"/>
	<path d="M54.402,60.794h1.914v2.967c0.32-0.036,0.545-0.135,0.678-0.294c0.133-0.158,0.291-0.508,0.479-1.046
		c0.246-0.716,0.516-1.174,0.807-1.374c0.291-0.199,0.675-0.301,1.148-0.301c0.146,0,0.398,0.012,0.76,0.033l0.006,1.271
		c-0.506,0-0.83,0.049-0.971,0.145c-0.141,0.101-0.293,0.397-0.457,0.896c-0.225,0.67-0.545,1.082-0.965,1.237
		c0.605,0.169,1.119,0.695,1.538,1.579c0.022,0.046,0.048,0.094,0.075,0.144l1.072,2.004h-2.063l-0.957-2.1
		c-0.196-0.424-0.366-0.696-0.509-0.816c-0.145-0.121-0.357-0.182-0.641-0.182v3.098h-1.914V60.794L54.402,60.794z"/>
</g>
</svg>
