<?xml version="1.0" encoding="utf-8"?>
<!-- Generator: Adobe Illustrator 16.0.0, SVG Export Plug-In . SVG Version: 6.00 Build 0)  -->
<!DOCTYPE svg PUBLIC "-//W3C//DTD SVG 1.1//EN" "http://www.w3.org/Graphics/SVG/1.1/DTD/svg11.dtd">
<svg version="1.1" id="Layer_1" xmlns="http://www.w3.org/2000/svg" xmlns:xlink="http://www.w3.org/1999/xlink" x="0px" y="0px"
	 width="150px" height="50px" viewBox="0 0 150 50" enable-background="new 0 0 150 50" xml:space="preserve">
<path d="M0,0v50h150V0H0z M49,48.293L25.707,25L49,1.707V48.293z M48.293,49H1.707L25,25.707L48.293,49z M48.293,1L25,24.292
	L1.707,1H48.293z M1,1.708L24.293,25L1,48.293V1.708z M149,49H50V1h99V49z"/>
<g>
	<path d="M65.136,20.043h6.925v8.34h0.882v3.869h-1.682v-2.188h-6.31v2.188H63.27v-3.869h0.848c0.415-0.857,0.688-1.852,0.82-2.984
		s0.198-2.564,0.198-4.297V20.043z M67.064,21.725c0,3.044-0.276,5.264-0.827,6.658h3.808v-6.658H67.064z"/>
	<path d="M74.016,26.332c0-0.639,0.157-1.256,0.472-1.854c0.315-0.597,0.76-1.053,1.336-1.367s1.221-0.471,1.932-0.471
		c1.098,0,1.998,0.355,2.699,1.069c0.702,0.714,1.053,1.614,1.053,2.704c0,1.098-0.354,2.008-1.062,2.73s-1.601,1.084-2.676,1.084
		c-0.666,0-1.301-0.15-1.904-0.451s-1.062-0.742-1.377-1.323C74.173,27.873,74.016,27.166,74.016,26.332z M75.984,26.434
		c0,0.721,0.172,1.271,0.514,1.654s0.763,0.574,1.264,0.574c0.502,0,0.922-0.191,1.262-0.574s0.51-0.938,0.51-1.668
		c0-0.711-0.17-1.258-0.51-1.641s-0.76-0.574-1.262-0.574c-0.501,0-0.922,0.191-1.264,0.574S75.984,25.714,75.984,26.434z"/>
	<path d="M82.938,22.805h6.445v7.26h-1.92v-5.709h-2.605v5.709h-1.92V22.805z"/>
	<path d="M91.023,26.332c0-0.639,0.158-1.256,0.473-1.854c0.314-0.597,0.76-1.053,1.336-1.367s1.221-0.471,1.932-0.471
		c1.098,0,1.998,0.355,2.699,1.069c0.702,0.714,1.053,1.614,1.053,2.704c0,1.098-0.354,2.008-1.062,2.73s-1.601,1.084-2.676,1.084
		c-0.666,0-1.301-0.15-1.904-0.451s-1.062-0.742-1.377-1.323S91.023,27.166,91.023,26.332z M92.992,26.434
		c0,0.721,0.172,1.271,0.514,1.654s0.763,0.574,1.264,0.574c0.502,0,0.922-0.191,1.262-0.574s0.51-0.938,0.51-1.668
		c0-0.711-0.17-1.258-0.51-1.641s-0.76-0.574-1.262-0.574c-0.501,0-0.922,0.191-1.264,0.574S92.992,25.714,92.992,26.434z"/>
	<path d="M100.191,22.805h6.432v7.26h-1.914v-5.701h-2.617v3.26c0,0.83-0.096,1.412-0.287,1.747s-0.404,0.555-0.637,0.659
		c-0.232,0.105-0.605,0.158-1.121,0.158c-0.305,0-0.708-0.041-1.209-0.123v-1.416c0.041,0,0.147,0.005,0.32,0.014
		c0.201,0.014,0.355,0.021,0.465,0.021c0.26,0,0.42-0.086,0.479-0.257c0.06-0.171,0.09-0.646,0.09-1.425V22.805z"/>
	<path d="M108.49,22.805h1.92v2.658h2.748v-2.658h1.928v7.26h-1.928v-3.049h-2.748v3.049h-1.92V22.805z"/>
	<path d="M116.973,22.805h1.846v4.559l2.953-4.559h1.887v7.26h-1.846v-4.643l-2.994,4.643h-1.846V22.805z"/>
	<path d="M124.766,22.805h6.57v1.551h-2.324v5.709h-1.922v-5.709h-2.324V22.805z"/>
	<path d="M131.254,30.064v-1.922h1.92v1.922H131.254z"/>
</g>
</svg>
