<?xml version="1.0" encoding="utf-8"?>
<!-- Generator: Adobe Illustrator 16.0.0, SVG Export Plug-In . SVG Version: 6.00 Build 0)  -->
<!DOCTYPE svg PUBLIC "-//W3C//DTD SVG 1.1//EN" "http://www.w3.org/Graphics/SVG/1.1/DTD/svg11.dtd">
<svg version="1.1" id="Layer_1" xmlns="http://www.w3.org/2000/svg" xmlns:xlink="http://www.w3.org/1999/xlink" x="0px" y="0px"
	 width="80px" height="80px" viewBox="0 0 80 80" enable-background="new 0 0 80 80" xml:space="preserve">
<path d="M65,0H15v50h50V0z M63.293,1L39.999,24.292L16.706,1H63.293z M15.999,1.708L39.293,25L15.999,48.293V1.708z M16.706,49
	l23.293-23.292L63.293,49H16.706z M64,48.293L40.706,25L63.999,1.707L64,48.293L64,48.293z"/>
<path d="M0,0v80h80V0H0z M79,79H1.001V1H79V79z"/>
<g>
	<path d="M17.007,64.54l1.962,0.622c-0.301,1.094-0.801,1.906-1.5,2.438c-0.7,0.53-1.587,0.797-2.663,0.797
		c-1.331,0-2.424-0.455-3.281-1.364c-0.857-0.908-1.285-2.151-1.285-3.729c0-1.668,0.431-2.963,1.292-3.887
		c0.861-0.922,1.994-1.384,3.397-1.384c1.226,0,2.222,0.362,2.987,1.087c0.456,0.429,0.797,1.044,1.025,1.846l-2.003,0.479
		c-0.119-0.52-0.366-0.93-0.742-1.229s-0.833-0.45-1.371-0.45c-0.743,0-1.346,0.266-1.808,0.799s-0.694,1.396-0.694,2.592
		c0,1.267,0.228,2.169,0.684,2.707c0.456,0.537,1.048,0.807,1.777,0.807c0.538,0,1-0.171,1.388-0.514
		C16.56,65.812,16.839,65.273,17.007,64.54z"/>
	<path d="M21.211,60.965h6.433v7.26H25.73v-5.701h-2.618v3.262c0,0.829-0.096,1.41-0.287,1.747
		c-0.191,0.334-0.403,0.555-0.636,0.659c-0.233,0.104-0.606,0.156-1.121,0.156c-0.305,0-0.708-0.041-1.21-0.123v-1.414
		c0.041,0,0.148,0.004,0.321,0.014c0.201,0.014,0.355,0.021,0.465,0.021c0.26,0,0.419-0.087,0.479-0.257
		c0.059-0.172,0.089-0.646,0.089-1.426L21.211,60.965L21.211,60.965z"/>
	<path d="M28.957,64.492c0-0.639,0.157-1.256,0.472-1.854c0.315-0.597,0.76-1.053,1.336-1.367c0.576-0.313,1.22-0.472,1.931-0.472
		c1.098,0,1.999,0.356,2.7,1.07c0.702,0.713,1.053,1.614,1.053,2.703c0,1.099-0.354,2.009-1.063,2.729
		c-0.708,0.723-1.601,1.084-2.676,1.084c-0.666,0-1.3-0.15-1.904-0.451s-1.063-0.742-1.377-1.321
		C29.114,66.033,28.957,65.326,28.957,64.492z M30.925,64.596c0,0.719,0.171,1.271,0.513,1.653s0.763,0.574,1.265,0.574
		s0.922-0.191,1.261-0.574c0.339-0.383,0.509-0.938,0.509-1.668c0-0.711-0.17-1.258-0.509-1.642
		c-0.339-0.383-0.76-0.573-1.261-0.573s-0.923,0.19-1.265,0.573C31.096,63.323,30.925,63.875,30.925,64.596z"/>
	<path d="M37.973,60.965h4.205c0.861,0,1.506,0.157,1.934,0.473c0.43,0.313,0.644,0.787,0.644,1.422c0,0.404-0.116,0.759-0.353,1.06
		c-0.234,0.302-0.528,0.501-0.885,0.603c0.502,0.123,0.875,0.354,1.121,0.689s0.369,0.706,0.369,1.107
		c0,0.564-0.208,1.023-0.623,1.377c-0.414,0.354-1.027,0.529-1.838,0.529h-4.574V60.965z M39.908,63.979h1.236
		c0.599,0,1.029-0.074,1.297-0.226c0.267-0.151,0.398-0.388,0.398-0.711c0-0.306-0.123-0.522-0.372-0.651
		c-0.249-0.132-0.688-0.195-1.323-0.195h-1.236V63.979z M39.908,66.994h1.518c0.547,0,0.945-0.066,1.195-0.198
		c0.251-0.132,0.377-0.369,0.377-0.711c0-0.354-0.145-0.601-0.432-0.735c-0.287-0.134-0.846-0.201-1.674-0.201h-0.985L39.908,66.994
		L39.908,66.994z"/>
	<path d="M47.811,63.18l-1.744-0.313c0.197-0.702,0.533-1.222,1.013-1.56c0.479-0.336,1.188-0.506,2.133-0.506
		c0.856,0,1.495,0.102,1.914,0.305c0.42,0.203,0.715,0.461,0.886,0.771c0.172,0.312,0.258,0.887,0.258,1.721l-0.021,2.241
		c0,0.638,0.031,1.108,0.093,1.411c0.062,0.305,0.177,0.628,0.345,0.975h-1.899c-0.05-0.127-0.111-0.315-0.185-0.566
		c-0.031-0.114-0.055-0.189-0.067-0.227c-0.328,0.319-0.681,0.56-1.054,0.719c-0.373,0.158-0.772,0.238-1.196,0.238
		c-0.747,0-1.336-0.203-1.767-0.607c-0.432-0.405-0.646-0.918-0.646-1.538c0-0.41,0.098-0.775,0.293-1.099
		c0.195-0.319,0.471-0.565,0.824-0.737c0.354-0.171,0.861-0.319,1.527-0.447c0.897-0.169,1.521-0.326,1.866-0.472v-0.191
		c0-0.369-0.092-0.632-0.272-0.79c-0.184-0.155-0.527-0.235-1.033-0.235c-0.342,0-0.607,0.067-0.799,0.203
		C48.084,62.605,47.93,62.843,47.811,63.18z M50.381,64.738c-0.246,0.082-0.637,0.18-1.17,0.294s-0.881,0.226-1.045,0.335
		c-0.251,0.178-0.377,0.402-0.377,0.677c0,0.269,0.102,0.501,0.301,0.697c0.201,0.196,0.456,0.294,0.766,0.294
		c0.348,0,0.679-0.114,0.992-0.342c0.232-0.174,0.385-0.385,0.457-0.637c0.051-0.164,0.076-0.477,0.076-0.937V64.738L50.381,64.738z
		"/>
	<path d="M54.105,60.965h1.791v1.066c0.231-0.364,0.547-0.661,0.942-0.889c0.396-0.229,0.837-0.343,1.32-0.343
		c0.843,0,1.559,0.33,2.146,0.991c0.588,0.661,0.881,1.581,0.881,2.762c0,1.213-0.295,2.154-0.889,2.827
		c-0.592,0.672-1.311,1.009-2.152,1.009c-0.4,0-0.766-0.08-1.09-0.24c-0.326-0.158-0.67-0.433-1.029-0.819v3.657h-1.922V60.965
		H54.105z M56.006,64.473c0,0.814,0.162,1.418,0.486,1.807c0.322,0.392,0.717,0.586,1.182,0.586c0.447,0,0.818-0.18,1.115-0.536
		c0.296-0.358,0.443-0.945,0.443-1.761c0-0.762-0.152-1.326-0.457-1.695c-0.307-0.369-0.685-0.555-1.135-0.555
		c-0.471,0-0.859,0.183-1.17,0.543C56.161,63.225,56.006,63.761,56.006,64.473z"/>
	<path d="M62.754,60.965h1.92v3.016h1.928c0.758,0,1.338,0.055,1.744,0.164c0.405,0.108,0.742,0.345,1.012,0.707
		c0.27,0.361,0.402,0.782,0.402,1.262c0,0.701-0.24,1.229-0.721,1.582s-1.202,0.529-2.164,0.529h-4.121V60.965z M64.674,67.008
		h1.791c0.561,0,0.92-0.091,1.077-0.273c0.157-0.182,0.235-0.397,0.235-0.648c0-0.352-0.135-0.593-0.406-0.725
		c-0.271-0.133-0.753-0.198-1.445-0.198h-1.252V67.008L64.674,67.008z"/>
</g>
</svg>
