<?xml version="1.0" encoding="utf-8"?>
<!-- Generator: Adobe Illustrator 16.0.0, SVG Export Plug-In . SVG Version: 6.00 Build 0)  -->
<!DOCTYPE svg PUBLIC "-//W3C//DTD SVG 1.1//EN" "http://www.w3.org/Graphics/SVG/1.1/DTD/svg11.dtd">
<svg version="1.1" id="Layer_1" xmlns="http://www.w3.org/2000/svg" xmlns:xlink="http://www.w3.org/1999/xlink" x="0px" y="0px"
	 width="80px" height="80px" viewBox="0 0 80 80" enable-background="new 0 0 80 80" xml:space="preserve">
<path d="M65,0H15v50h50V0z M63.293,1L39.999,24.292L16.706,1H63.293z M15.999,1.708L39.293,25L15.999,48.293V1.708z M16.706,49
	l23.293-23.292L63.293,49H16.706z M64,48.293L40.706,25L63.999,1.707L64,48.293L64,48.293z"/>
<path d="M0,0v80h80V0H0z M79,79H1.001V1H79V79z"/>
<g>
	<path d="M4.217,68.286V58.266H6.24v3.943h3.965v-3.943h2.023v10.021h-2.023v-4.382H6.24v4.382H4.217z"/>
	<path d="M15.743,63.241L14,62.927c0.196-0.702,0.533-1.222,1.012-1.559s1.189-0.507,2.133-0.507c0.857,0,1.495,0.103,1.914,0.306
		c0.419,0.202,0.714,0.46,0.885,0.771c0.171,0.312,0.256,0.887,0.256,1.721L20.179,65.9c0,0.638,0.031,1.107,0.092,1.41
		c0.062,0.305,0.177,0.629,0.345,0.976h-1.9c-0.05-0.128-0.112-0.315-0.185-0.567c-0.032-0.113-0.055-0.189-0.068-0.226
		c-0.328,0.319-0.679,0.559-1.053,0.718s-0.772,0.239-1.196,0.239c-0.748,0-1.336-0.203-1.767-0.608
		c-0.431-0.404-0.646-0.918-0.646-1.537c0-0.41,0.098-0.775,0.294-1.099c0.196-0.32,0.471-0.565,0.824-0.738
		c0.353-0.17,0.862-0.319,1.528-0.446c0.898-0.17,1.52-0.326,1.866-0.473v-0.191c0-0.368-0.091-0.631-0.273-0.789
		c-0.182-0.156-0.526-0.235-1.032-0.235c-0.342,0-0.608,0.067-0.8,0.202C16.016,62.668,15.861,62.904,15.743,63.241z M18.313,64.8
		c-0.246,0.082-0.636,0.181-1.169,0.294c-0.533,0.114-0.882,0.227-1.046,0.336c-0.25,0.178-0.376,0.402-0.376,0.676
		c0,0.27,0.1,0.502,0.301,0.697c0.201,0.196,0.456,0.295,0.766,0.295c0.346,0,0.677-0.115,0.991-0.343
		c0.232-0.173,0.385-0.385,0.458-0.636c0.05-0.164,0.075-0.477,0.075-0.938V64.8z"/>
	<path d="M22.039,61.025h1.791v1.066c0.232-0.363,0.547-0.66,0.943-0.889s0.836-0.342,1.319-0.342c0.843,0,1.559,0.33,2.146,0.99
		c0.587,0.662,0.882,1.582,0.882,2.763c0,1.212-0.296,2.153-0.889,2.827c-0.592,0.672-1.31,1.008-2.153,1.008
		c-0.401,0-0.765-0.08-1.09-0.239c-0.325-0.159-0.669-0.433-1.029-0.819v3.656h-1.92V61.025z M23.939,64.533
		c0,0.814,0.162,1.419,0.485,1.808c0.324,0.392,0.718,0.585,1.183,0.585c0.447,0,0.818-0.179,1.114-0.535
		c0.296-0.358,0.444-0.945,0.444-1.762c0-0.761-0.153-1.326-0.458-1.695s-0.684-0.554-1.135-0.554c-0.469,0-0.859,0.183-1.169,0.543
		C24.094,63.286,23.939,63.822,23.939,64.533z"/>
	<path d="M32.081,63.241l-1.743-0.314c0.196-0.702,0.533-1.222,1.012-1.559s1.189-0.507,2.133-0.507
		c0.857,0,1.495,0.103,1.914,0.306c0.419,0.202,0.714,0.46,0.885,0.771c0.171,0.312,0.256,0.887,0.256,1.721L36.517,65.9
		c0,0.638,0.031,1.107,0.092,1.41c0.062,0.305,0.177,0.629,0.345,0.976h-1.9c-0.05-0.128-0.112-0.315-0.185-0.567
		c-0.032-0.113-0.055-0.189-0.068-0.226c-0.328,0.319-0.679,0.559-1.053,0.718s-0.772,0.239-1.196,0.239
		c-0.748,0-1.336-0.203-1.767-0.608c-0.431-0.404-0.646-0.918-0.646-1.537c0-0.41,0.098-0.775,0.294-1.099
		c0.196-0.32,0.471-0.565,0.824-0.738c0.353-0.17,0.862-0.319,1.528-0.446c0.898-0.17,1.52-0.326,1.866-0.473v-0.191
		c0-0.369-0.091-0.631-0.273-0.789c-0.182-0.156-0.526-0.235-1.032-0.235c-0.342,0-0.608,0.067-0.8,0.202
		C32.354,62.668,32.199,62.904,32.081,63.241z M34.651,64.8c-0.246,0.082-0.636,0.181-1.169,0.294
		c-0.533,0.114-0.882,0.227-1.046,0.336c-0.25,0.178-0.376,0.402-0.376,0.676c0,0.27,0.1,0.502,0.301,0.697
		c0.201,0.196,0.456,0.295,0.766,0.295c0.346,0,0.677-0.115,0.991-0.343c0.232-0.173,0.385-0.385,0.458-0.636
		c0.05-0.164,0.075-0.477,0.075-0.938V64.8z"/>
	<path d="M43.879,58.032h1.307c-0.041,0.579-0.192,1.018-0.455,1.315c-0.262,0.299-0.907,0.447-1.938,0.447
		c-0.123,0-0.246-0.002-0.369-0.007h-0.246c-0.611,0-1.107,0.067-1.49,0.202c-0.382,0.134-0.696,0.395-0.939,0.781
		c-0.243,0.388-0.37,1.013-0.379,1.873c0.283-0.533,0.648-0.932,1.097-1.195c0.449-0.266,0.983-0.396,1.604-0.396
		c0.951,0,1.759,0.37,2.42,1.111c0.66,0.74,0.99,1.598,0.99,2.572c0,1.018-0.349,1.89-1.043,2.619
		c-0.693,0.729-1.603,1.094-2.724,1.094c-0.771,0-1.447-0.186-2.031-0.555s-1-0.873-1.251-1.515c-0.25-0.64-0.376-1.7-0.376-3.182
		c0-1.741,0.32-2.992,0.96-3.753c0.64-0.762,1.757-1.143,3.354-1.143h0.971C43.607,58.307,43.788,58.215,43.879,58.032z
		 M40.01,64.711c0,0.661,0.165,1.184,0.496,1.568c0.33,0.386,0.734,0.578,1.213,0.578c0.516,0,0.938-0.199,1.27-0.6
		c0.33-0.398,0.494-0.912,0.494-1.541c0-0.643-0.166-1.16-0.502-1.555c-0.334-0.395-0.748-0.592-1.239-0.592
		c-0.479,0-0.888,0.193-1.226,0.58C40.179,63.54,40.01,64.061,40.01,64.711z"/>
	<path d="M46.635,64.555c0-0.639,0.156-1.257,0.471-1.854c0.315-0.598,0.761-1.053,1.338-1.367c0.576-0.314,1.22-0.473,1.931-0.473
		c1.099,0,1.999,0.356,2.701,1.07c0.7,0.713,1.053,1.614,1.053,2.703c0,1.1-0.354,2.01-1.063,2.73
		c-0.707,0.723-1.601,1.084-2.676,1.084c-0.666,0-1.3-0.15-1.904-0.451c-0.604-0.301-1.062-0.742-1.377-1.322
		C46.791,66.096,46.635,65.389,46.635,64.555z M48.604,64.656c0,0.72,0.17,1.271,0.513,1.654c0.342,0.383,0.764,0.573,1.266,0.573
		c0.501,0,0.923-0.19,1.261-0.573c0.34-0.384,0.51-0.938,0.51-1.668c0-0.711-0.17-1.259-0.51-1.642
		c-0.338-0.383-0.76-0.574-1.261-0.574c-0.502,0-0.924,0.191-1.266,0.574C48.773,63.384,48.604,63.938,48.604,64.656z"/>
	<path d="M54.42,61.025h6.57v1.553h-2.324v5.708h-1.922v-5.708H54.42V61.025z"/>
	<path d="M62.062,61.025h1.914v2.968c0.318-0.036,0.545-0.136,0.678-0.294c0.132-0.159,0.291-0.508,0.479-1.047
		c0.246-0.715,0.516-1.174,0.807-1.373c0.291-0.2,0.674-0.301,1.148-0.301c0.146,0,0.398,0.012,0.758,0.033l0.008,1.271
		c-0.506,0-0.83,0.048-0.971,0.144c-0.142,0.101-0.295,0.398-0.459,0.896c-0.223,0.67-0.544,1.081-0.963,1.237
		c0.605,0.168,1.118,0.694,1.537,1.578c0.023,0.047,0.049,0.094,0.076,0.145l1.072,2.003h-2.064l-0.957-2.099
		c-0.195-0.424-0.365-0.696-0.509-0.817c-0.144-0.12-0.356-0.181-0.64-0.181v3.097h-1.914V61.025z"/>
	<path d="M69.098,61.025h1.846v4.561l2.953-4.561h1.888v7.261h-1.847v-4.642l-2.994,4.642h-1.846V61.025z"/>
</g>
</svg>
