<?xml version="1.0" encoding="utf-8"?>
<!-- Generator: Adobe Illustrator 16.0.0, SVG Export Plug-In . SVG Version: 6.00 Build 0)  -->
<!DOCTYPE svg PUBLIC "-//W3C//DTD SVG 1.1//EN" "http://www.w3.org/Graphics/SVG/1.1/DTD/svg11.dtd">
<svg version="1.1" id="Layer_1" xmlns="http://www.w3.org/2000/svg" xmlns:xlink="http://www.w3.org/1999/xlink" x="0px" y="0px"
	 width="50px" height="50px" viewBox="0 0 50 50" enable-background="new 0 0 50 50" xml:space="preserve">
<path d="M0,0v50h50V0H0z M48.293,49H1.706L12.14,38.566l-0.707-0.707L0.999,48.293V1.708L11.432,12.14l0.708-0.708L1.706,1h46.587
	L37.859,11.432l0.707,0.707L48.999,1.707L49,48.293L38.566,37.859l-0.707,0.707L48.293,49z"/>
<g enable-background="new    ">
	<path d="M23.266,25.641l2.242,0.711c-0.344,1.25-0.916,2.179-1.715,2.785c-0.8,0.606-1.814,0.91-3.043,0.91
		c-1.521,0-2.771-0.52-3.75-1.559c-0.979-1.039-1.469-2.46-1.469-4.262c0-1.906,0.492-3.387,1.477-4.441s2.278-1.582,3.883-1.582
		c1.401,0,2.539,0.414,3.414,1.242c0.521,0.489,0.911,1.192,1.172,2.109l-2.289,0.547c-0.136-0.594-0.418-1.062-0.848-1.406
		s-0.952-0.516-1.566-0.516c-0.849,0-1.538,0.305-2.066,0.914c-0.529,0.609-0.793,1.597-0.793,2.961c0,1.448,0.26,2.479,0.781,3.094
		c0.521,0.614,1.198,0.922,2.031,0.922c0.614,0,1.143-0.195,1.586-0.586C22.755,27.094,23.073,26.479,23.266,25.641z"/>
	<path d="M34.711,24.008l-2.164,0.391c-0.073-0.433-0.238-0.758-0.496-0.977s-0.593-0.328-1.004-0.328
		c-0.547,0-0.983,0.188-1.309,0.566c-0.326,0.378-0.488,1.009-0.488,1.895c0,0.984,0.165,1.68,0.496,2.086
		c0.33,0.406,0.774,0.609,1.332,0.609c0.416,0,0.758-0.118,1.023-0.355s0.453-0.645,0.562-1.223l2.156,0.367
		c-0.225,0.989-0.654,1.737-1.289,2.242c-0.636,0.505-1.487,0.758-2.555,0.758c-1.214,0-2.182-0.383-2.902-1.148
		c-0.722-0.766-1.082-1.825-1.082-3.18c0-1.37,0.361-2.437,1.086-3.199c0.724-0.763,1.703-1.145,2.938-1.145
		c1.01,0,1.813,0.218,2.41,0.652C34.021,22.454,34.45,23.117,34.711,24.008z"/>
</g>
</svg>
