<?xml version="1.0" encoding="utf-8"?>
<!-- Generator: Adobe Illustrator 16.0.0, SVG Export Plug-In . SVG Version: 6.00 Build 0)  -->
<!DOCTYPE svg PUBLIC "-//W3C//DTD SVG 1.1//EN" "http://www.w3.org/Graphics/SVG/1.1/DTD/svg11.dtd">
<svg version="1.1" id="Layer_1" xmlns="http://www.w3.org/2000/svg" xmlns:xlink="http://www.w3.org/1999/xlink" x="0px" y="0px"
	 width="80px" height="80px" viewBox="0 0 80 80" enable-background="new 0 0 80 80" xml:space="preserve">
<path d="M65,0H15v50h50V0z M63.293,1L39.999,24.292L16.706,1H63.293z M15.999,1.708L39.293,25L15.999,48.293V1.708z M16.706,49
	l23.293-23.292L63.293,49H16.706z M64,48.293L40.706,25L63.999,1.707L64,48.293L64,48.293z"/>
<path d="M0,0v80h80V0H0z M79,79H1.001V1H79V79z"/>
<g>
	<path d="M4.063,68.238V58.217h2.023v3.944h3.965v-3.944h2.023v10.021h-2.023v-4.383H6.086v4.383H4.063z"/>
	<path d="M15.589,63.193l-1.743-0.314c0.196-0.702,0.533-1.222,1.012-1.559c0.479-0.338,1.189-0.506,2.133-0.506
		c0.857,0,1.495,0.102,1.914,0.305c0.419,0.201,0.714,0.46,0.885,0.771s0.256,0.885,0.256,1.719l-0.021,2.242
		c0,0.639,0.031,1.108,0.092,1.412c0.062,0.303,0.177,0.627,0.345,0.975h-1.9c-0.05-0.129-0.112-0.316-0.185-0.567
		c-0.032-0.114-0.055-0.188-0.068-0.226c-0.328,0.318-0.679,0.559-1.053,0.718s-0.772,0.239-1.196,0.239
		c-0.748,0-1.336-0.203-1.767-0.608s-0.646-0.918-0.646-1.538c0-0.41,0.098-0.775,0.294-1.098c0.196-0.32,0.471-0.566,0.824-0.738
		c0.353-0.17,0.862-0.318,1.528-0.447c0.898-0.168,1.52-0.326,1.866-0.472v-0.19c0-0.369-0.091-0.633-0.273-0.791
		c-0.182-0.155-0.526-0.234-1.032-0.234c-0.342,0-0.608,0.066-0.8,0.201C15.862,62.62,15.708,62.855,15.589,63.193z M18.159,64.752
		c-0.246,0.082-0.636,0.18-1.169,0.294c-0.533,0.114-0.882,0.226-1.046,0.335c-0.25,0.178-0.376,0.403-0.376,0.678
		c0,0.269,0.1,0.5,0.301,0.696c0.201,0.196,0.456,0.294,0.766,0.294c0.346,0,0.677-0.113,0.991-0.342
		c0.232-0.173,0.385-0.385,0.458-0.637c0.05-0.163,0.075-0.477,0.075-0.937V64.752z"/>
	<path d="M28.27,63.125l-1.894,0.342c-0.064-0.378-0.208-0.662-0.434-0.854s-0.519-0.287-0.878-0.287
		c-0.479,0-0.86,0.165-1.145,0.494c-0.285,0.332-0.427,0.885-0.427,1.658c0,0.861,0.145,1.471,0.434,1.826
		c0.289,0.354,0.678,0.532,1.166,0.532c0.365,0,0.663-0.104,0.896-0.312c0.232-0.207,0.396-0.563,0.492-1.069l1.887,0.321
		c-0.196,0.865-0.572,1.52-1.128,1.962c-0.556,0.442-1.301,0.663-2.235,0.663c-1.062,0-1.908-0.336-2.54-1.006
		c-0.632-0.67-0.948-1.597-0.948-2.781c0-1.198,0.317-2.133,0.95-2.799c0.633-0.668,1.49-1.002,2.57-1.002
		c0.884,0,1.587,0.189,2.109,0.569C27.667,61.766,28.042,62.346,28.27,63.125z"/>
	<path d="M28.864,60.979h6.569v1.553h-2.324v5.708h-1.921v-5.71h-2.324V60.979z"/>
	<path d="M36.527,60.979h1.791v1.066c0.232-0.363,0.547-0.661,0.943-0.889c0.396-0.229,0.836-0.342,1.319-0.342
		c0.843,0,1.559,0.33,2.146,0.99c0.586,0.661,0.881,1.581,0.881,2.762c0,1.213-0.297,2.154-0.889,2.828
		c-0.592,0.672-1.311,1.008-2.152,1.008c-0.401,0-0.766-0.08-1.09-0.239c-0.325-0.159-0.669-0.433-1.029-0.82V71h-1.921
		L36.527,60.979L36.527,60.979z M38.428,64.484c0,0.815,0.162,1.42,0.485,1.809c0.324,0.391,0.718,0.585,1.183,0.585
		c0.447,0,0.818-0.179,1.114-0.536s0.444-0.945,0.444-1.761c0-0.761-0.152-1.326-0.459-1.695c-0.305-0.368-0.684-0.554-1.134-0.554
		c-0.469,0-0.859,0.182-1.169,0.543C38.583,63.238,38.428,63.773,38.428,64.484z"/>
	<path d="M44.689,64.506c0-0.638,0.156-1.256,0.472-1.854c0.315-0.596,0.76-1.053,1.337-1.366c0.576-0.313,1.22-0.472,1.932-0.472
		c1.098,0,1.998,0.355,2.699,1.069s1.053,1.614,1.053,2.703c0,1.099-0.354,2.009-1.062,2.729c-0.709,0.724-1.603,1.084-2.677,1.084
		c-0.666,0-1.301-0.149-1.903-0.45c-0.604-0.302-1.063-0.742-1.378-1.322C44.848,66.047,44.689,65.34,44.689,64.506z M46.658,64.607
		c0,0.721,0.171,1.271,0.513,1.654c0.343,0.383,0.763,0.574,1.265,0.574s0.922-0.191,1.263-0.574
		c0.339-0.383,0.509-0.938,0.509-1.668c0-0.711-0.17-1.258-0.509-1.641c-0.341-0.383-0.761-0.574-1.263-0.574
		s-0.922,0.191-1.265,0.574C46.829,63.336,46.658,63.889,46.658,64.607z"/>
	<path d="M53.639,60.979h1.846v4.561l2.953-4.561h1.887v7.261h-1.846v-4.642l-2.994,4.642h-1.846V60.979z M58.238,58.032h0.937
		c-0.055,0.62-0.272,1.106-0.653,1.46c-0.379,0.354-0.873,0.529-1.479,0.529s-1.1-0.178-1.479-0.529
		c-0.381-0.354-0.6-0.84-0.653-1.46h0.937c0.031,0.323,0.146,0.567,0.342,0.735c0.195,0.166,0.48,0.248,0.854,0.248
		s0.659-0.082,0.854-0.248C58.092,58.602,58.207,58.355,58.238,58.032z"/>
	<path d="M62.217,60.979h1.914v2.967c0.318-0.035,0.545-0.135,0.678-0.293c0.131-0.159,0.291-0.508,0.479-1.047
		c0.246-0.715,0.515-1.174,0.807-1.373c0.293-0.2,0.676-0.301,1.148-0.301c0.146,0,0.398,0.012,0.759,0.033l0.007,1.271
		c-0.506,0-0.828,0.048-0.971,0.144c-0.143,0.101-0.294,0.397-0.458,0.896c-0.224,0.67-0.545,1.082-0.964,1.238
		c0.605,0.168,1.117,0.694,1.537,1.578c0.023,0.047,0.049,0.094,0.076,0.145l1.072,2.003h-2.064l-0.957-2.099
		c-0.194-0.425-0.364-0.697-0.51-0.817c-0.143-0.12-0.354-0.181-0.639-0.181v3.097h-1.914V60.979z"/>
	<path d="M69.251,60.979h1.847v4.561l2.952-4.561h1.888v7.261h-1.847v-4.642l-2.993,4.642h-1.847V60.979z"/>
</g>
</svg>
