<?xml version="1.0" encoding="utf-8"?>
<!-- Generator: Adobe Illustrator 16.0.0, SVG Export Plug-In . SVG Version: 6.00 Build 0)  -->
<!DOCTYPE svg PUBLIC "-//W3C//DTD SVG 1.1//EN" "http://www.w3.org/Graphics/SVG/1.1/DTD/svg11.dtd">
<svg version="1.1" id="Layer_1" xmlns="http://www.w3.org/2000/svg" xmlns:xlink="http://www.w3.org/1999/xlink" x="0px" y="0px"
	 width="150px" height="50px" viewBox="0 0 150 50" enable-background="new 0 0 150 50" xml:space="preserve">
<g>
	<path d="M64.215,29.729V19.708h2.023v3.944h3.965v-3.944h2.023v10.021h-2.023v-4.381h-3.965v4.381H64.215z"/>
	<path d="M75.742,24.685l-1.743-0.314c0.196-0.702,0.533-1.222,1.012-1.559c0.479-0.338,1.189-0.506,2.134-0.506
		c0.856,0,1.496,0.102,1.914,0.305c0.42,0.201,0.715,0.46,0.885,0.771c0.173,0.311,0.258,0.885,0.258,1.719l-0.021,2.242
		c0,0.64,0.03,1.107,0.092,1.412c0.062,0.304,0.178,0.627,0.346,0.976h-1.899c-0.051-0.129-0.11-0.315-0.186-0.566
		c-0.031-0.114-0.056-0.188-0.068-0.227c-0.327,0.317-0.679,0.56-1.053,0.717c-0.374,0.16-0.771,0.24-1.195,0.24
		c-0.748,0-1.336-0.203-1.768-0.607c-0.433-0.405-0.646-0.918-0.646-1.538c0-0.41,0.099-0.774,0.296-1.099
		c0.194-0.319,0.471-0.565,0.823-0.737c0.353-0.17,0.861-0.317,1.527-0.447c0.897-0.168,1.52-0.326,1.864-0.472v-0.19
		c0-0.369-0.09-0.633-0.271-0.791c-0.184-0.154-0.525-0.233-1.032-0.233c-0.342,0-0.606,0.065-0.799,0.2
		C76.014,24.111,75.861,24.347,75.742,24.685z M78.312,26.243c-0.246,0.082-0.638,0.18-1.17,0.294
		c-0.533,0.113-0.884,0.227-1.047,0.335c-0.25,0.178-0.375,0.403-0.375,0.678c0,0.271,0.1,0.5,0.301,0.696
		c0.201,0.195,0.457,0.294,0.767,0.294c0.346,0,0.678-0.113,0.991-0.342c0.229-0.173,0.385-0.386,0.457-0.638
		c0.051-0.162,0.076-0.479,0.076-0.938V26.243z"/>
	<path d="M88.422,24.616l-1.893,0.342c-0.064-0.378-0.209-0.662-0.438-0.854c-0.225-0.192-0.518-0.287-0.876-0.287
		c-0.479,0-0.858,0.165-1.146,0.494c-0.284,0.332-0.426,0.885-0.426,1.658c0,0.86,0.145,1.471,0.434,1.826
		c0.289,0.354,0.678,0.531,1.166,0.531c0.365,0,0.664-0.104,0.896-0.312c0.23-0.207,0.396-0.562,0.49-1.068l1.889,0.32
		c-0.195,0.865-0.572,1.521-1.129,1.963s-1.303,0.662-2.234,0.662c-1.062,0-1.908-0.336-2.54-1.006s-0.948-1.597-0.948-2.779
		c0-1.197,0.316-2.133,0.95-2.799c0.634-0.668,1.489-1.002,2.569-1.002c0.883,0,1.586,0.189,2.107,0.569
		C87.82,23.257,88.195,23.837,88.422,24.616z"/>
	<path d="M89.016,22.47h6.57v1.554h-2.324v5.708H91.34v-5.711h-2.324V22.47L89.016,22.47z"/>
	<path d="M96.68,22.47h1.791v1.066c0.232-0.363,0.547-0.661,0.943-0.889c0.396-0.229,0.836-0.342,1.318-0.342
		c0.844,0,1.559,0.33,2.146,0.99c0.586,0.66,0.881,1.58,0.881,2.762c0,1.213-0.297,2.154-0.889,2.828
		c-0.593,0.672-1.312,1.008-2.152,1.008c-0.399,0-0.766-0.08-1.09-0.238c-0.326-0.158-0.67-0.434-1.028-0.819v3.657h-1.923
		L96.68,22.47L96.68,22.47z M98.58,25.977c0,0.813,0.162,1.42,0.486,1.81c0.322,0.391,0.717,0.585,1.182,0.585
		c0.447,0,0.818-0.18,1.115-0.536c0.295-0.356,0.443-0.944,0.443-1.761c0-0.761-0.152-1.326-0.459-1.695
		c-0.307-0.368-0.686-0.554-1.137-0.554c-0.469,0-0.855,0.182-1.168,0.543C98.736,24.729,98.58,25.265,98.58,25.977z"/>
	<path d="M104.842,25.997c0-0.638,0.156-1.256,0.473-1.854c0.314-0.596,0.762-1.053,1.336-1.366
		c0.576-0.313,1.223-0.472,1.934-0.472c1.1,0,1.998,0.354,2.699,1.068c0.699,0.715,1.053,1.614,1.053,2.703
		c0,1.1-0.354,2.01-1.062,2.729c-0.709,0.725-1.604,1.084-2.678,1.084c-0.666,0-1.301-0.146-1.902-0.449
		c-0.604-0.303-1.062-0.74-1.379-1.32C105,27.538,104.842,26.831,104.842,25.997z M106.811,26.1c0,0.721,0.172,1.271,0.516,1.652
		c0.342,0.384,0.762,0.574,1.264,0.574s0.922-0.19,1.266-0.574c0.34-0.383,0.51-0.938,0.51-1.668c0-0.711-0.17-1.258-0.51-1.641
		c-0.344-0.384-0.764-0.574-1.266-0.574s-0.922,0.19-1.264,0.574C106.982,24.827,106.811,25.38,106.811,26.1z"/>
	<path d="M113.791,22.47h1.846v4.562l2.953-4.562h1.889v7.262h-1.848v-4.645l-2.994,4.645h-1.846V22.47L113.791,22.47z
		 M118.391,19.523h0.938c-0.056,0.62-0.272,1.106-0.654,1.46c-0.379,0.354-0.873,0.529-1.479,0.529c-0.604,0-1.1-0.179-1.479-0.529
		c-0.381-0.354-0.6-0.84-0.652-1.46H116c0.031,0.323,0.146,0.567,0.342,0.735c0.195,0.166,0.48,0.248,0.855,0.248
		c0.373,0,0.658-0.082,0.854-0.248C118.244,20.093,118.359,19.847,118.391,19.523z"/>
	<path d="M122.369,22.47h1.914v2.967c0.318-0.034,0.545-0.135,0.678-0.293c0.131-0.158,0.291-0.508,0.48-1.047
		c0.246-0.715,0.514-1.174,0.807-1.373c0.293-0.199,0.676-0.301,1.148-0.301c0.145,0,0.396,0.012,0.758,0.033l0.008,1.271
		c-0.506,0-0.828,0.048-0.971,0.144c-0.146,0.101-0.295,0.397-0.459,0.896c-0.227,0.67-0.545,1.083-0.963,1.238
		c0.604,0.168,1.113,0.694,1.535,1.578c0.021,0.047,0.051,0.094,0.074,0.146l1.072,2.004h-2.062l-0.957-2.101
		c-0.193-0.425-0.363-0.696-0.512-0.815c-0.145-0.121-0.354-0.183-0.639-0.183v3.099h-1.914L122.369,22.47L122.369,22.47z"/>
	<path d="M129.404,22.47h1.846v4.562l2.953-4.562h1.887v7.262h-1.846v-4.645l-2.994,4.645h-1.846V22.47z"/>
</g>
<path d="M0,0v50h150V0H0z M49,48.293L25.707,25L49,1.707V48.293z M48.293,49H1.707L25,25.707L48.293,49z M48.293,1L25,24.292
	L1.707,1H48.293z M1,1.708L24.293,25L1,48.293V1.708z M149,49H50V1h99V49z"/>
</svg>
