<?xml version="1.0" encoding="utf-8"?>
<!-- Generator: Adobe Illustrator 16.0.0, SVG Export Plug-In . SVG Version: 6.00 Build 0)  -->
<!DOCTYPE svg PUBLIC "-//W3C//DTD SVG 1.1//EN" "http://www.w3.org/Graphics/SVG/1.1/DTD/svg11.dtd">
<svg version="1.1" id="Layer_1" xmlns="http://www.w3.org/2000/svg" xmlns:xlink="http://www.w3.org/1999/xlink" x="0px" y="0px"
	 width="50px" height="50px" viewBox="0 0 50 50" enable-background="new 0 0 50 50" xml:space="preserve">
<path d="M0,0v50h50V0H0z M48.293,49H1.706L12.14,38.566l-0.707-0.707L0.999,48.293V1.708L11.432,12.14l0.708-0.708L1.706,1h46.587
	L37.859,11.432l0.707,0.707L48.999,1.707L49,48.293L38.566,37.859l-0.707,0.707L48.293,49z"/>
<g enable-background="new    ">
	<path d="M20.395,29.852V18.398h2.312v4.508h4.531v-4.508h2.312v11.453h-2.312v-5.008h-4.531v5.008H20.395z"/>
</g>
</svg>
