<?xml version="1.0" encoding="utf-8"?>
<!-- Generator: Adobe Illustrator 16.0.0, SVG Export Plug-In . SVG Version: 6.00 Build 0)  -->
<!DOCTYPE svg PUBLIC "-//W3C//DTD SVG 1.1//EN" "http://www.w3.org/Graphics/SVG/1.1/DTD/svg11.dtd">
<svg version="1.1" id="Layer_1" xmlns="http://www.w3.org/2000/svg" xmlns:xlink="http://www.w3.org/1999/xlink" x="0px" y="0px"
	 width="50px" height="50px" viewBox="0 0 50 50" enable-background="new 0 0 50 50" xml:space="preserve">
<path fill="#231F20" d="M6.547,41.864C11.274,47.035,18.006,50,25.016,50c6.253,0,12.241-2.325,16.86-6.545
	c10.177-9.3,10.892-25.145,1.589-35.32C38.741,2.965,32.01,0,25,0C18.749,0,12.755,2.326,8.139,6.545
	c-4.933,4.504-7.813,10.658-8.113,17.328C-0.273,30.547,2.042,36.936,6.547,41.864z M2.006,23.965
	c0.279-6.143,2.93-11.808,7.471-15.957c4.254-3.886,9.769-6.025,15.526-6.025c6.453,0,12.649,2.731,17,7.492
	c8.562,9.367,7.905,23.957-1.466,32.519c-4.253,3.886-9.768,6.025-15.522,6.025c-6.455,0-12.654-2.73-17.003-7.49
	C3.864,35.989,1.731,30.105,2.006,23.965z"/>
<polygon fill="#231F20" points="11.677,26.5 32.581,26.5 22.225,36.855 24.346,38.977 38.324,25 24.346,11.023 22.225,13.145 
	32.581,23.5 11.677,23.5 "/>
</svg>
