<?xml version="1.0" encoding="utf-8"?>
<!-- Generator: Adobe Illustrator 16.0.0, SVG Export Plug-In . SVG Version: 6.00 Build 0)  -->
<!DOCTYPE svg PUBLIC "-//W3C//DTD SVG 1.1//EN" "http://www.w3.org/Graphics/SVG/1.1/DTD/svg11.dtd">
<svg version="1.1" id="Layer_1" xmlns="http://www.w3.org/2000/svg" xmlns:xlink="http://www.w3.org/1999/xlink" x="0px" y="0px"
	 width="50px" height="50px" viewBox="0 0 50 50" enable-background="new 0 0 50 50" xml:space="preserve">
<path opacity="0.5" fill="#FFFFFF" enable-background="new    " d="M50,38c0,6.627-5.373,12-12,12H12C5.373,50,0,44.627,0,38V12
	C0,5.373,5.373,0,12,0h26c6.627,0,12,5.373,12,12V38z"/>
<path opacity="0.3" enable-background="new    " d="M38,0H12C5.373,0,0,5.373,0,12v26c0,6.627,5.373,12,12,12h26
	c6.627,0,12-5.373,12-12V12C50,5.373,44.627,0,38,0z M49,38c0,6.064-4.936,11-11,11H12C5.935,49,1,44.064,1,38V12
	C1,5.935,5.935,1,12,1h26c6.064,0,11,4.935,11,11V38z"/>
<path fill="#FFFFFF" d="M38,1H12C5.935,1,1,5.935,1,12v26c0,6.064,4.935,11,11,11h26c6.064,0,11-4.936,11-11V12
	C49,5.935,44.064,1,38,1z M48,38c0,5.514-4.486,10-10,10H12C6.486,48,2,43.514,2,38V12C2,6.486,6.486,2,12,2h26
	c5.514,0,10,4.486,10,10V38z"/>
</svg>
