<?xml version="1.0" encoding="utf-8"?>
<!-- Generator: Adobe Illustrator 16.0.0, SVG Export Plug-In . SVG Version: 6.00 Build 0)  -->
<!DOCTYPE svg PUBLIC "-//W3C//DTD SVG 1.1//EN" "http://www.w3.org/Graphics/SVG/1.1/DTD/svg11.dtd">
<svg version="1.1" id="Layer_1" xmlns="http://www.w3.org/2000/svg" xmlns:xlink="http://www.w3.org/1999/xlink" x="0px" y="0px"
	 width="50px" height="50px" viewBox="0 0 50 50" enable-background="new 0 0 50 50" xml:space="preserve">
<path d="M0,0v50h50V0H0z M48.293,49H1.706l9.505-9.505l-0.707-0.707L1,48.293V1.708l9.151,9.15l0.707-0.707L1.706,1h46.587
	l-9.505,9.504l0.708,0.707L49,1.707v46.586l-9.15-9.15l-0.707,0.707L48.293,49z"/>
<path fill="#0000FF" d="M34.807,32.859c2.539-2.139,4.11-5.103,4.11-8.379c0-6.525-6.231-11.814-13.917-11.814
	c-7.686,0-13.917,5.289-13.917,11.814S17.314,36.295,25,36.295c2.166,0,4.208-0.432,6.036-1.182l5.678,3.785L34.807,32.859z"/>
</svg>
