<?xml version="1.0" encoding="utf-8"?>
<!-- Generator: Adobe Illustrator 16.0.0, SVG Export Plug-In . SVG Version: 6.00 Build 0)  -->
<!DOCTYPE svg PUBLIC "-//W3C//DTD SVG 1.1//EN" "http://www.w3.org/Graphics/SVG/1.1/DTD/svg11.dtd">
<svg version="1.1" id="Layer_1" xmlns="http://www.w3.org/2000/svg" xmlns:xlink="http://www.w3.org/1999/xlink" x="0px" y="0px"
	 width="25px" height="25px" viewBox="0 0 25 25" enable-background="new 0 0 25 25" xml:space="preserve">
<g>
	<path fill="#0046BE" d="M17.369,12.936c-0.412,0.121-0.748,0.3-1,0.546c-0.256,0.248-0.385,0.588-0.385,1.021
		c0,0.49,0.146,0.856,0.445,1.104c0.293,0.248,0.741,0.371,1.35,0.371c0.504,0,0.967-0.101,1.385-0.295
		c0.42-0.192,0.805-0.43,1.162-0.705V12.6c-0.439,0.024-0.953,0.063-1.547,0.115C18.186,12.766,17.715,12.839,17.369,12.936z"/>
	<polygon fill="#0046BE" points="6.36,12.607 10.365,12.607 8.366,7.017 	"/>
	<path fill="#0046BE" d="M12.5,0C5.597,0,0,5.597,0,12.5C0,19.402,5.597,25,12.5,25C19.402,25,25,19.402,25,12.5
		C25,5.597,19.402,0,12.5,0z M11.951,17.083l-1.118-3.176H5.9l-1.118,3.176H3.243L7.395,5.691h2.022l4.151,11.392H11.951z
		 M20.328,17.083v-0.91c-0.129,0.088-0.299,0.208-0.516,0.366c-0.217,0.152-0.431,0.277-0.629,0.368
		c-0.24,0.118-0.461,0.202-0.771,0.282c-0.312,0.078-0.682,0.119-1.1,0.119c-0.769,0-1.474-0.242-2.011-0.75
		c-0.534-0.517-0.801-1.16-0.801-1.951c0-0.647,0.138-1.172,0.416-1.572c0.278-0.402,0.674-0.717,1.188-0.945
		c0.519-0.231,1.146-0.386,1.871-0.467c0.729-0.083,1.513-0.144,2.347-0.184v-0.222c0-0.327-0.058-0.598-0.175-0.811
		c-0.11-0.214-0.274-0.383-0.489-0.505c-0.203-0.118-0.447-0.197-0.734-0.237c-0.282-0.042-0.582-0.062-0.896-0.062
		c-0.375,0-0.797,0.05-1.26,0.15c-0.465,0.099-0.942,0.242-1.438,0.431h-0.076V8.724c0.279-0.078,0.688-0.16,1.217-0.252
		c0.525-0.093,1.053-0.139,1.562-0.139c0.604,0,1.125,0.05,1.57,0.15c0.447,0.101,0.832,0.268,1.158,0.508
		c0.319,0.234,0.565,0.54,0.733,0.911c0.168,0.371,0.252,0.834,0.252,1.384v5.797H20.328z"/>
</g>
</svg>
