<?xml version="1.0" encoding="utf-8"?>
<!-- Generator: Adobe Illustrator 16.0.0, SVG Export Plug-In . SVG Version: 6.00 Build 0)  -->
<!DOCTYPE svg PUBLIC "-//W3C//DTD SVG 1.1//EN" "http://www.w3.org/Graphics/SVG/1.1/DTD/svg11.dtd">
<svg version="1.1" id="Livello_1" xmlns="http://www.w3.org/2000/svg" xmlns:xlink="http://www.w3.org/1999/xlink" x="0px" y="0px"
	 width="50px" height="50px" viewBox="38.5 38.639 50 50" enable-background="new 38.5 38.639 50 50" xml:space="preserve">
<g id="Livello_1_1_">
</g>
<path fill="#909090" d="M71.278,53.862c-4.296-4.296-11.26-4.295-15.556,0c-4.296,4.295-4.297,11.26,0,15.557
	c4.296,4.296,11.261,4.295,15.556,0C75.574,65.123,75.574,58.158,71.278,53.862z M68.45,56.69c2.734,2.734,2.734,7.166,0,9.899
	c-2.733,2.733-7.166,2.734-9.899,0c-2.733-2.733-2.733-7.166,0-9.899S65.715,53.957,68.45,56.69z"/>
<path fill="#909090" d="M83.914,82.053c-0.781,0.781-2.047,0.781-2.828,0L69,69.969c-0.781-0.78-0.781-2.047,0-2.828l0,0
	c0.781-0.781,2.047-0.781,2.829,0l12.085,12.085C84.695,80.007,84.695,81.273,83.914,82.053L83.914,82.053z"/>
<g id="arrow_x5F_left_1_">
	<polygon fill="#909090" points="56.5,74.639 63.5,82.639 70.5,74.639 	"/>
</g>
</svg>
