<?xml version="1.0" encoding="utf-8"?>
<!-- Generator: Adobe Illustrator 16.0.0, SVG Export Plug-In . SVG Version: 6.00 Build 0)  -->
<!DOCTYPE svg PUBLIC "-//W3C//DTD SVG 1.1//EN" "http://www.w3.org/Graphics/SVG/1.1/DTD/svg11.dtd">
<svg version="1.1" id="Layer_1" xmlns="http://www.w3.org/2000/svg" xmlns:xlink="http://www.w3.org/1999/xlink" x="0px" y="0px"
	 width="50px" height="50px" viewBox="0 0 50 50" enable-background="new 0 0 50 50" xml:space="preserve">
<g enable-background="new    ">
	<path d="M18.473,24.055h3.594c-0.094-0.854-0.379-1.563-0.855-2.129s-1.124-0.848-1.941-0.848c-0.62,0-1.141,0.172-1.562,0.516
		s-0.719,0.8-0.891,1.367l-2.289-0.523c0.234-1.016,0.751-1.829,1.551-2.441c0.799-0.612,1.84-0.918,3.121-0.918
		c1.667,0,2.969,0.554,3.906,1.66s1.406,2.548,1.406,4.324c0,1.208-0.218,2.247-0.652,3.117c-0.435,0.87-1.033,1.544-1.793,2.023
		c-0.761,0.479-1.677,0.719-2.75,0.719c-2.609,0-4.216-1.227-4.82-3.68l2.32-0.719c0.12,0.828,0.415,1.441,0.887,1.84
		c0.471,0.398,1.035,0.598,1.691,0.598c0.677,0,1.256-0.237,1.738-0.711c0.481-0.474,0.793-1.231,0.934-2.273h-3.594V24.055z"/>
	<path d="M26.395,19.273h9.109v11.453h-2.312v-9.531h-4.484v9.531h-2.312V19.273z"/>
</g>
<path d="M50,0H0v50h50V0z M49,48.293L37.854,37.146l-0.707,0.707L48.293,49H1.707l11.146-11.146l-0.707-0.707L1,48.293V1.708
	l11.146,11.146l0.707-0.707L1.707,1h46.586L37.146,12.146l0.707,0.707L49,1.707V48.293z"/>
</svg>
