<?xml version="1.0" encoding="utf-8"?>
<!-- Generator: Adobe Illustrator 16.0.0, SVG Export Plug-In . SVG Version: 6.00 Build 0)  -->
<!DOCTYPE svg PUBLIC "-//W3C//DTD SVG 1.1//EN" "http://www.w3.org/Graphics/SVG/1.1/DTD/svg11.dtd">
<svg version="1.1" id="Layer_1" xmlns="http://www.w3.org/2000/svg" xmlns:xlink="http://www.w3.org/1999/xlink" x="0px" y="0px"
	 width="120px" height="80px" viewBox="0 0 120 80" enable-background="new 0 0 120 80" xml:space="preserve">
<path d="M85.001,0h-50v50h50V0z M83.294,1L60,24.292L36.707,1H83.294z M36,1.708L59.294,25L36,48.293V1.708z M36.707,49L60,25.707
	L83.294,49H36.707z M84.001,48.293L60.707,25L84,1.707L84.001,48.293L84.001,48.293z"/>
<path d="M0,0v80h120V0H0z M119.001,79h-118V1h118V79z"/>
<g enable-background="new    ">
	<path d="M30.063,62.469h3.594c-0.094-0.854-0.379-1.562-0.855-2.129c-0.476-0.566-1.124-0.848-1.941-0.848
		c-0.62,0-1.141,0.172-1.562,0.516s-0.719,0.801-0.891,1.367l-2.289-0.523c0.234-1.016,0.751-1.828,1.551-2.439
		c0.799-0.612,1.84-0.918,3.121-0.918c1.667,0,2.969,0.554,3.906,1.658c0.937,1.106,1.406,2.55,1.406,4.324
		c0,1.209-0.218,2.248-0.652,3.117c-0.435,0.87-1.033,1.545-1.793,2.023c-0.761,0.479-1.677,0.719-2.75,0.719
		c-2.609,0-4.216-1.227-4.82-3.68l2.32-0.719c0.12,0.828,0.415,1.439,0.887,1.84c0.471,0.396,1.035,0.598,1.691,0.598
		c0.677,0,1.256-0.236,1.738-0.711c0.481-0.475,0.793-1.23,0.934-2.273h-3.594L30.063,62.469L30.063,62.469z"/>
	<path d="M36.79,57.688h2.586l2.672,5.945l2.281-5.945h2.414l-3.867,8.703c-0.422,0.942-0.852,1.66-1.289,2.152
		s-1.003,0.738-1.695,0.738c-0.683,0-1.216-0.045-1.602-0.133V67.43c0.328,0.021,0.625,0.03,0.891,0.03
		c0.536,0,0.92-0.099,1.152-0.293c0.231-0.194,0.454-0.616,0.668-1.262L36.79,57.688z"/>
	<path d="M55.976,72.508h-1.508c-0.797-1.203-1.401-2.453-1.818-3.75s-0.625-2.552-0.625-3.766c0-1.506,0.258-2.93,0.771-4.273
		c0.448-1.167,1.016-2.242,1.703-3.227h1.5c-0.714,1.578-1.203,2.921-1.473,4.027c-0.27,1.104-0.402,2.278-0.402,3.52
		c0,0.854,0.079,1.729,0.238,2.625c0.158,0.896,0.376,1.747,0.652,2.555C55.199,70.75,55.519,71.514,55.976,72.508z"/>
	<path d="M62.812,69.141h-2.193v-8.271c-0.802,0.75-1.747,1.305-2.836,1.664v-1.992c0.573-0.188,1.193-0.543,1.867-1.064
		c0.672-0.523,1.133-1.136,1.383-1.832h1.779V69.141z"/>
	<path d="M73.532,60.492l-2.125,0.234c-0.052-0.438-0.188-0.763-0.406-0.971c-0.218-0.208-0.503-0.312-0.852-0.312
		c-0.465,0-0.854,0.207-1.178,0.625c-0.319,0.416-0.521,1.283-0.604,2.603c0.547-0.646,1.229-0.969,2.039-0.969
		c0.917,0,1.702,0.349,2.354,1.047c0.653,0.698,0.98,1.601,0.98,2.703c0,1.172-0.344,2.11-1.031,2.819
		c-0.687,0.707-1.57,1.062-2.647,1.062c-1.155,0-2.105-0.449-2.853-1.35c-0.746-0.897-1.117-2.369-1.117-4.418
		c0-2.098,0.39-3.61,1.164-4.539c0.776-0.926,1.784-1.391,3.023-1.391c0.87,0,1.59,0.243,2.16,0.73
		C73.011,58.855,73.376,59.564,73.532,60.492z M68.554,65.281c0,0.714,0.164,1.265,0.492,1.652c0.328,0.387,0.703,0.582,1.125,0.582
		c0.406,0,0.745-0.16,1.016-0.479c0.271-0.316,0.406-0.839,0.406-1.562c0-0.746-0.146-1.291-0.438-1.638s-0.656-0.521-1.094-0.521
		c-0.422,0-0.778,0.166-1.07,0.496C68.7,64.146,68.554,64.637,68.554,65.281z"/>
	<path d="M75.399,60.844h2.047v1.219c0.266-0.416,0.625-0.754,1.078-1.016c0.451-0.261,0.955-0.391,1.508-0.391
		c0.963,0,1.779,0.378,2.453,1.133c0.672,0.755,1.008,1.809,1.008,3.156c0,1.386-0.34,2.462-1.018,3.229
		c-0.676,0.77-1.496,1.152-2.461,1.152c-0.457,0-0.873-0.092-1.246-0.271c-0.371-0.184-0.764-0.496-1.176-0.938v4.18h-2.193V60.844
		L75.399,60.844z M77.571,64.852c0,0.935,0.184,1.621,0.555,2.066c0.369,0.445,0.82,0.668,1.352,0.668
		c0.513,0,0.937-0.204,1.273-0.613c0.338-0.408,0.508-1.078,0.508-2.012c0-0.87-0.176-1.516-0.522-1.938s-0.781-0.633-1.297-0.633
		c-0.535,0-0.979,0.207-1.337,0.619C77.747,63.425,77.571,64.039,77.571,64.852z"/>
	<path d="M89.04,60.844v1.75h-1.5v3.344c0,0.679,0.014,1.071,0.043,1.186c0.027,0.111,0.094,0.204,0.195,0.275
		c0.1,0.074,0.225,0.109,0.371,0.109c0.201,0,0.496-0.07,0.883-0.211L89.22,69c-0.512,0.219-1.09,0.328-1.733,0.328
		c-0.396,0-0.752-0.066-1.07-0.199c-0.315-0.133-0.551-0.305-0.698-0.516c-0.146-0.211-0.25-0.496-0.31-0.855
		c-0.047-0.255-0.069-0.771-0.069-1.547v-3.617H84.33v-1.75h1.009v-1.648l2.202-1.279v2.932h1.5L89.04,60.844L89.04,60.844z"/>
	<path d="M89.954,72.508c0.432-0.927,0.736-1.638,0.914-2.133c0.176-0.495,0.34-1.064,0.492-1.711c0.15-0.646,0.262-1.26,0.336-1.84
		c0.072-0.581,0.107-1.176,0.107-1.785c0-1.239-0.133-2.413-0.396-3.52c-0.266-1.107-0.756-2.449-1.471-4.027h1.492
		c0.787,1.119,1.397,2.308,1.832,3.562c0.436,1.254,0.651,2.526,0.651,3.818c0,1.089-0.172,2.255-0.516,3.5
		c-0.392,1.396-1.033,2.771-1.931,4.133L89.954,72.508L89.954,72.508z"/>
</g>
</svg>
