<?xml version="1.0" encoding="utf-8"?>
<!-- Generator: Adobe Illustrator 16.0.0, SVG Export Plug-In . SVG Version: 6.00 Build 0)  -->
<!DOCTYPE svg PUBLIC "-//W3C//DTD SVG 1.1//EN" "http://www.w3.org/Graphics/SVG/1.1/DTD/svg11.dtd">
<svg version="1.1" id="Layer_1" xmlns="http://www.w3.org/2000/svg" xmlns:xlink="http://www.w3.org/1999/xlink" x="0px" y="0px"
	 width="50px" height="50px" viewBox="0 0 50 50" enable-background="new 0 0 50 50" xml:space="preserve">
<g enable-background="new    ">
	<path d="M18.647,24.055h3.594c-0.094-0.854-0.379-1.563-0.854-2.129c-0.477-0.566-1.124-0.848-1.941-0.848
		c-0.62,0-1.141,0.172-1.562,0.516c-0.421,0.344-0.72,0.8-0.892,1.367l-2.289-0.523c0.234-1.016,0.751-1.829,1.552-2.441
		c0.799-0.612,1.84-0.918,3.12-0.918c1.667,0,2.97,0.554,3.906,1.66c0.938,1.106,1.406,2.548,1.406,4.324
		c0,1.208-0.218,2.248-0.652,3.117c-0.435,0.87-1.033,1.545-1.793,2.023c-0.761,0.479-1.677,0.719-2.75,0.719
		c-2.608,0-4.216-1.227-4.819-3.68l2.319-0.719c0.12,0.828,0.415,1.44,0.888,1.84c0.471,0.398,1.034,0.598,1.69,0.598
		c0.677,0,1.256-0.236,1.738-0.711c0.48-0.475,0.793-1.23,0.934-2.273h-3.594L18.647,24.055L18.647,24.055z"/>
	<path d="M25.374,19.273h2.586l2.672,5.945l2.281-5.945h2.414l-3.867,8.704c-0.422,0.941-0.852,1.659-1.289,2.151
		c-0.437,0.492-1.003,0.738-1.695,0.738c-0.683,0-1.217-0.044-1.602-0.134v-1.719c0.328,0.021,0.625,0.031,0.891,0.031
		c0.537,0,0.92-0.098,1.152-0.293c0.23-0.195,0.454-0.615,0.668-1.262L25.374,19.273z"/>
</g>
<path d="M50,0H0v50h50V0z M49,48.293L37.854,37.146l-0.707,0.707L48.293,49H1.707l11.146-11.146l-0.707-0.707L1,48.293V1.708
	l11.146,11.146l0.707-0.707L1.707,1h46.586L37.146,12.146l0.707,0.707L49,1.707V48.293z"/>
</svg>
