<?xml version="1.0" encoding="utf-8"?>
<!-- Generator: Adobe Illustrator 16.0.0, SVG Export Plug-In . SVG Version: 6.00 Build 0)  -->
<!DOCTYPE svg PUBLIC "-//W3C//DTD SVG 1.1//EN" "http://www.w3.org/Graphics/SVG/1.1/DTD/svg11.dtd">
<svg version="1.1" id="Layer_1" xmlns="http://www.w3.org/2000/svg" xmlns:xlink="http://www.w3.org/1999/xlink" x="0px" y="0px"
	 width="150px" height="50px" viewBox="0 0 150 50" enable-background="new 0 0 150 50" xml:space="preserve">
<g>
	<path d="M70.982,26.029l1.961,0.623c-0.301,1.094-0.801,1.906-1.5,2.438c-0.698,0.53-1.586,0.797-2.661,0.797
		c-1.332,0-2.425-0.455-3.282-1.363c-0.857-0.906-1.285-2.149-1.285-3.729c0-1.668,0.431-2.964,1.292-3.888
		c0.86-0.922,1.993-1.384,3.397-1.384c1.225,0,2.221,0.361,2.986,1.087c0.455,0.429,0.797,1.044,1.024,1.846l-2.004,0.479
		c-0.119-0.521-0.365-0.93-0.742-1.229c-0.375-0.299-0.832-0.45-1.37-0.45c-0.742,0-1.347,0.267-1.808,0.799
		c-0.464,0.533-0.694,1.396-0.694,2.593c0,1.267,0.229,2.168,0.684,2.708c0.457,0.535,1.049,0.808,1.777,0.808
		c0.538,0,1-0.171,1.389-0.515C70.536,27.303,70.814,26.764,70.982,26.029z"/>
	<path d="M75.188,22.455h6.434v7.26h-1.914v-5.701h-2.619v3.263c0,0.828-0.096,1.408-0.286,1.746
		c-0.19,0.334-0.403,0.556-0.636,0.658c-0.232,0.104-0.605,0.155-1.121,0.155c-0.305,0-0.709-0.041-1.211-0.123V28.3
		c0.041,0,0.148,0.005,0.322,0.017c0.199,0.014,0.354,0.021,0.465,0.021c0.26,0,0.418-0.087,0.479-0.257
		c0.06-0.172,0.09-0.646,0.09-1.426L75.188,22.455L75.188,22.455z"/>
	<path d="M82.934,25.982c0-0.641,0.155-1.256,0.474-1.854c0.313-0.598,0.76-1.054,1.336-1.367c0.573-0.312,1.219-0.473,1.93-0.473
		c1.101,0,2,0.355,2.701,1.07c0.701,0.713,1.053,1.613,1.053,2.703c0,1.101-0.354,2.01-1.062,2.729
		c-0.709,0.724-1.602,1.084-2.676,1.084c-0.666,0-1.301-0.149-1.903-0.451c-0.604-0.301-1.063-0.741-1.377-1.319
		C83.089,27.523,82.934,26.816,82.934,25.982z M84.9,26.086c0,0.719,0.17,1.271,0.513,1.653c0.342,0.382,0.764,0.573,1.267,0.573
		c0.502,0,0.922-0.19,1.26-0.573c0.34-0.384,0.511-0.938,0.511-1.669c0-0.71-0.171-1.257-0.511-1.641
		c-0.338-0.383-0.76-0.573-1.26-0.573c-0.502,0-0.925,0.19-1.267,0.573C85.07,24.813,84.9,25.365,84.9,26.086z"/>
	<path d="M91.948,22.455h4.204c0.861,0,1.507,0.157,1.935,0.473c0.431,0.313,0.646,0.787,0.646,1.422
		c0,0.404-0.114,0.76-0.354,1.061c-0.232,0.303-0.525,0.501-0.885,0.604c0.502,0.123,0.875,0.354,1.12,0.688
		s0.368,0.706,0.368,1.105c0,0.563-0.207,1.022-0.623,1.377c-0.414,0.354-1.025,0.528-1.838,0.528h-4.572L91.948,22.455
		L91.948,22.455z M93.884,25.469h1.236c0.599,0,1.028-0.074,1.297-0.226c0.267-0.151,0.397-0.388,0.397-0.711
		c0-0.306-0.123-0.522-0.373-0.651c-0.248-0.132-0.688-0.195-1.321-0.195h-1.236V25.469L93.884,25.469z M93.884,28.484h1.519
		c0.548,0,0.945-0.066,1.195-0.198s0.377-0.369,0.377-0.711c0-0.354-0.146-0.601-0.433-0.735c-0.287-0.134-0.847-0.201-1.674-0.201
		h-0.985L93.884,28.484L93.884,28.484z"/>
	<path d="M101.786,24.67l-1.744-0.312c0.196-0.702,0.533-1.223,1.015-1.561c0.479-0.336,1.188-0.506,2.133-0.506
		c0.854,0,1.494,0.102,1.914,0.305c0.42,0.203,0.715,0.461,0.888,0.771c0.172,0.312,0.258,0.887,0.258,1.721l-0.021,2.241
		c0,0.638,0.03,1.108,0.094,1.411c0.062,0.305,0.177,0.628,0.345,0.975h-1.897c-0.051-0.127-0.11-0.314-0.187-0.564
		c-0.03-0.113-0.056-0.188-0.065-0.229c-0.328,0.319-0.683,0.561-1.056,0.719s-0.771,0.238-1.194,0.238
		c-0.748,0-1.336-0.203-1.769-0.605c-0.433-0.404-0.646-0.918-0.646-1.539c0-0.408,0.099-0.773,0.293-1.1
		c0.192-0.318,0.472-0.564,0.822-0.736c0.354-0.172,0.86-0.317,1.526-0.445c0.896-0.169,1.521-0.326,1.864-0.472V24.79
		c0-0.368-0.092-0.632-0.271-0.79c-0.185-0.154-0.524-0.234-1.03-0.234c-0.345,0-0.606,0.066-0.802,0.203
		C102.061,24.096,101.904,24.333,101.786,24.67z M104.355,26.229c-0.246,0.082-0.638,0.182-1.17,0.295
		c-0.533,0.113-0.881,0.227-1.045,0.334c-0.25,0.18-0.377,0.402-0.377,0.679c0,0.271,0.103,0.501,0.301,0.696
		c0.201,0.195,0.457,0.293,0.767,0.293c0.349,0,0.681-0.112,0.992-0.342c0.231-0.174,0.385-0.385,0.456-0.637
		c0.052-0.164,0.076-0.479,0.076-0.938V26.229L104.355,26.229z"/>
	<path d="M108.081,22.455h1.791v1.066c0.229-0.364,0.547-0.661,0.94-0.889c0.396-0.229,0.838-0.344,1.319-0.344
		c0.845,0,1.56,0.33,2.146,0.991c0.588,0.661,0.882,1.581,0.882,2.762c0,1.214-0.296,2.154-0.892,2.827
		c-0.592,0.672-1.312,1.01-2.149,1.01c-0.4,0-0.769-0.08-1.091-0.239c-0.325-0.158-0.672-0.435-1.028-0.82v3.658h-1.922V22.455
		H108.081z M109.98,25.963c0,0.814,0.162,1.418,0.485,1.807c0.322,0.395,0.718,0.588,1.183,0.588c0.447,0,0.817-0.182,1.115-0.537
		c0.297-0.355,0.442-0.943,0.442-1.762c0-0.762-0.151-1.325-0.457-1.692c-0.31-0.369-0.687-0.556-1.136-0.556
		c-0.473,0-0.858,0.184-1.17,0.543C110.137,24.715,109.98,25.251,109.98,25.963z"/>
	<path d="M116.729,22.455h1.92v3.016h1.93c0.758,0,1.338,0.056,1.742,0.164c0.406,0.108,0.742,0.346,1.014,0.707
		s0.4,0.782,0.4,1.264c0,0.699-0.238,1.229-0.721,1.58c-0.479,0.354-1.201,0.529-2.164,0.529h-4.121V22.455L116.729,22.455z
		 M118.648,28.498h1.791c0.562,0,0.92-0.091,1.078-0.273c0.155-0.182,0.233-0.396,0.233-0.646c0-0.354-0.135-0.595-0.405-0.728
		c-0.271-0.133-0.754-0.197-1.445-0.197h-1.252V28.498L118.648,28.498z"/>
</g>
<path d="M0,0v50h150V0H0z M49,48.293L25.707,25L49,1.707V48.293z M48.293,49H1.707L25,25.707L48.293,49z M48.293,1L25,24.292
	L1.707,1H48.293z M1,1.708L24.293,25L1,48.293V1.708z M149,49H50V1h99V49z"/>
</svg>
