<?xml version="1.0" encoding="utf-8"?>
<!-- Generator: Adobe Illustrator 16.0.0, SVG Export Plug-In . SVG Version: 6.00 Build 0)  -->
<!DOCTYPE svg PUBLIC "-//W3C//DTD SVG 1.1//EN" "http://www.w3.org/Graphics/SVG/1.1/DTD/svg11.dtd">
<svg version="1.1" id="Layer_1" xmlns="http://www.w3.org/2000/svg" xmlns:xlink="http://www.w3.org/1999/xlink" x="0px" y="0px"
	 width="50px" height="50px" viewBox="0 0 50 50" enable-background="new 0 0 50 50" xml:space="preserve">
<g>
	<rect x="14" y="15" width="2" height="20"/>
	<polygon points="30.43,18.258 31.844,16.844 40,25 31.844,33.156 30.43,31.742 36.172,26 18,26 18,24 36.172,24 	"/>
</g>
<path d="M50,0H0v50h50V0z M49,48.293L38.088,37.381l-0.707,0.707L48.293,49H1.707l11.068-11.068l-0.707-0.707L1,48.293V1.708
	l11.225,11.224l0.707-0.707L1.707,1h46.586L37.225,12.068l0.707,0.707L49,1.707V48.293z"/>
</svg>
