<?xml version="1.0" encoding="utf-8"?>
<!-- Generator: Adobe Illustrator 16.0.0, SVG Export Plug-In . SVG Version: 6.00 Build 0)  -->
<!DOCTYPE svg PUBLIC "-//W3C//DTD SVG 1.1//EN" "http://www.w3.org/Graphics/SVG/1.1/DTD/svg11.dtd">
<svg version="1.1" id="Layer_1" xmlns="http://www.w3.org/2000/svg" xmlns:xlink="http://www.w3.org/1999/xlink" x="0px" y="0px"
	 width="25px" height="25px" viewBox="0 0 25 25" enable-background="new 0 0 25 25" xml:space="preserve">
<path fill="#0046BE" d="M13.555,24.945c-3.912-1.002-6.818-4.547-6.818-8.77c0-4.298,3.009-7.898,7.029-8.825l-3.468-1.854
	l1.179-2.205l7.343,3.925l-3.969,7.32l-2.199-1.189l1.964-3.625c-3.058,0.559-5.381,3.236-5.381,6.452
	c0,3.618,2.943,6.562,6.562,6.562c2.408,0,6.013-0.498,8.279-5.547C24.668,15.741,25,14.159,25,12.5C25,5.608,19.393,0,12.5,0
	C5.607,0,0,5.608,0,12.5C0,19.393,5.607,25,12.5,25c0.357,0,0.708-0.023,1.059-0.055C13.557,24.945,13.557,24.945,13.555,24.945z"/>
</svg>
