<?xml version="1.0" encoding="utf-8"?>
<!-- Generator: Adobe Illustrator 16.0.0, SVG Export Plug-In . SVG Version: 6.00 Build 0)  -->
<!DOCTYPE svg PUBLIC "-//W3C//DTD SVG 1.1//EN" "http://www.w3.org/Graphics/SVG/1.1/DTD/svg11.dtd">
<svg version="1.1" id="Layer_1" xmlns="http://www.w3.org/2000/svg" xmlns:xlink="http://www.w3.org/1999/xlink" x="0px" y="0px"
	 width="125px" height="53px" viewBox="-12.921 0.001 125 53" enable-background="new -12.921 0.001 125 53" xml:space="preserve">
<path d="M-2.484,26.386c-0.023,0.151-0.065,0.318-0.123,0.496c-0.06,0.179-0.142,0.354-0.247,0.532
	c-0.105,0.177-0.236,0.336-0.395,0.482c-0.158,0.146-0.346,0.264-0.566,0.352c-0.222,0.089-0.477,0.135-0.768,0.137
	c-0.296-0.002-0.553-0.052-0.771-0.148c-0.22-0.098-0.405-0.229-0.558-0.395C-6.065,27.68-6.19,27.494-6.29,27.29
	c-0.099-0.204-0.175-0.415-0.231-0.629c-0.057-0.217-0.099-0.424-0.124-0.623c-0.027-0.2-0.042-0.377-0.048-0.534
	c-0.007-0.155-0.01-0.275-0.008-0.358c0.001-0.538,0.057-0.993,0.163-1.364c0.107-0.372,0.253-0.67,0.438-0.895
	c0.185-0.227,0.396-0.39,0.635-0.492c0.236-0.1,0.488-0.15,0.753-0.148c0.401,0,0.741,0.082,1.018,0.245
	c0.276,0.162,0.505,0.4,0.68,0.713c0.177,0.313,0.313,0.697,0.412,1.151h0.49l-0.15-2.439h-0.48l-0.25,0.399
	c-0.067-0.048-0.153-0.103-0.258-0.165c-0.105-0.06-0.23-0.12-0.377-0.177c-0.145-0.057-0.312-0.103-0.503-0.14
	c-0.19-0.039-0.405-0.057-0.642-0.059c-0.415,0.002-0.791,0.065-1.129,0.187c-0.34,0.122-0.64,0.292-0.901,0.508
	c-0.26,0.218-0.48,0.47-0.657,0.756c-0.178,0.287-0.313,0.595-0.404,0.926C-7.953,24.484-8,24.823-8,25.173
	c0,0.368,0.042,0.73,0.125,1.084c0.084,0.355,0.213,0.688,0.384,1.001c0.172,0.312,0.39,0.588,0.655,0.825
	c0.264,0.237,0.575,0.425,0.935,0.562c0.36,0.135,0.77,0.203,1.229,0.207c0.187,0.002,0.387-0.014,0.6-0.049
	c0.213-0.033,0.428-0.099,0.645-0.193c0.217-0.094,0.421-0.234,0.616-0.416c0.195-0.184,0.365-0.422,0.513-0.719
	c0.147-0.295,0.258-0.66,0.335-1.093h-0.521V26.386z"/>
<path d="M4.305,24.896H1.056v-2.04c-0.001-0.057-0.001-0.111,0.002-0.167c0.003-0.055,0.018-0.105,0.044-0.152
	c0.028-0.045,0.077-0.082,0.147-0.11c0.072-0.026,0.173-0.042,0.307-0.042h0.6v-0.47h-3.359v0.47h0.6
	c0.133,0,0.235,0.015,0.306,0.042c0.07,0.028,0.118,0.065,0.147,0.11c0.026,0.047,0.042,0.097,0.045,0.152
	c0.003,0.055,0.003,0.11,0.001,0.167v4.917c0.002,0.056,0.002,0.111-0.001,0.166c-0.003,0.057-0.019,0.105-0.045,0.152
	c-0.029,0.045-0.077,0.081-0.147,0.109c-0.071,0.027-0.173,0.042-0.306,0.042h-0.6v0.47h3.359v-0.47h-0.6
	c-0.133,0-0.235-0.015-0.307-0.042c-0.07-0.028-0.119-0.064-0.147-0.109c-0.026-0.047-0.042-0.097-0.044-0.152
	c-0.003-0.055-0.003-0.11-0.002-0.166v-2.408h3.249v2.408c0.001,0.056,0.001,0.111-0.002,0.166
	c-0.003,0.057-0.018,0.105-0.045,0.152c-0.028,0.045-0.077,0.081-0.146,0.109c-0.072,0.027-0.173,0.042-0.307,0.042h-0.6v0.47h3.359
	v-0.47h-0.6c-0.135,0-0.24-0.015-0.312-0.042c-0.072-0.028-0.122-0.064-0.15-0.109c-0.026-0.047-0.043-0.097-0.047-0.152
	c-0.001-0.055-0.003-0.11-0.001-0.166v-4.917c-0.002-0.057,0-0.111,0.001-0.167c0.003-0.055,0.021-0.105,0.047-0.152
	c0.028-0.045,0.078-0.082,0.15-0.11c0.072-0.026,0.177-0.042,0.312-0.042h0.6v-0.47H3.205v0.47h0.6c0.133,0,0.235,0.015,0.307,0.042
	c0.07,0.028,0.118,0.065,0.146,0.11c0.027,0.047,0.042,0.097,0.045,0.152s0.003,0.11,0.002,0.167V24.896L4.305,24.896z"/>
<path d="M8.249,28.384h0.179c0.088-0.001,0.185,0.002,0.292,0.011c0.106,0.008,0.213,0.027,0.319,0.06
	c0.106,0.032,0.205,0.082,0.294,0.151c0.089,0.068,0.16,0.164,0.215,0.287c0.054,0.121,0.082,0.274,0.083,0.465
	c-0.001,0.166-0.026,0.311-0.073,0.432c-0.047,0.119-0.111,0.218-0.192,0.293c-0.081,0.077-0.172,0.132-0.273,0.169
	c-0.1,0.036-0.205,0.054-0.313,0.054c-0.104-0.002-0.207-0.017-0.304-0.047c-0.098-0.029-0.187-0.066-0.265-0.113
	c-0.079-0.047-0.141-0.097-0.187-0.147c-0.046-0.052-0.069-0.101-0.07-0.146c0.001-0.035,0.014-0.061,0.038-0.08
	c0.025-0.019,0.054-0.033,0.085-0.043c0.031-0.011,0.059-0.019,0.081-0.024c0.05-0.015,0.095-0.037,0.136-0.065
	c0.041-0.031,0.072-0.068,0.096-0.111s0.036-0.094,0.038-0.148c-0.001-0.104-0.025-0.188-0.068-0.259
	c-0.045-0.07-0.103-0.124-0.173-0.16c-0.07-0.036-0.146-0.056-0.226-0.056c-0.101,0-0.193,0.029-0.275,0.084
	c-0.081,0.054-0.146,0.135-0.194,0.242c-0.049,0.106-0.073,0.24-0.075,0.397c0.001,0.11,0.033,0.226,0.099,0.339
	c0.065,0.114,0.159,0.221,0.283,0.315c0.123,0.098,0.272,0.174,0.447,0.233c0.175,0.059,0.372,0.088,0.592,0.09
	c0.163,0,0.324-0.018,0.481-0.055c0.157-0.035,0.305-0.089,0.442-0.158c0.138-0.069,0.259-0.156,0.364-0.26s0.188-0.221,0.247-0.354
	c0.06-0.133,0.09-0.279,0.091-0.44c-0.001-0.167-0.033-0.313-0.096-0.444c-0.062-0.131-0.146-0.244-0.252-0.336
	c-0.105-0.095-0.225-0.17-0.357-0.226c-0.131-0.056-0.268-0.092-0.409-0.106v-0.039c0.129-0.023,0.255-0.064,0.375-0.123
	c0.121-0.059,0.229-0.131,0.325-0.219c0.097-0.088,0.173-0.188,0.229-0.304c0.058-0.115,0.087-0.241,0.088-0.379
	c0-0.099-0.02-0.198-0.057-0.299c-0.037-0.103-0.095-0.199-0.171-0.293c-0.077-0.094-0.172-0.179-0.288-0.252
	c-0.116-0.074-0.252-0.134-0.407-0.178c-0.157-0.043-0.333-0.064-0.53-0.066c-0.18,0.002-0.35,0.026-0.51,0.078
	c-0.159,0.049-0.298,0.121-0.421,0.213c-0.122,0.092-0.218,0.201-0.287,0.327c-0.07,0.127-0.105,0.267-0.106,0.418
	c0.001,0.089,0.024,0.162,0.068,0.225s0.102,0.109,0.172,0.143c0.071,0.033,0.146,0.051,0.227,0.051
	c0.078-0.002,0.143-0.014,0.195-0.039c0.052-0.026,0.094-0.057,0.124-0.094c0.031-0.039,0.052-0.076,0.065-0.113
	c0.013-0.038,0.019-0.068,0.019-0.094c0.001-0.039-0.003-0.082-0.011-0.129c-0.008-0.049-0.027-0.096-0.053-0.142
	c-0.027-0.046-0.067-0.085-0.122-0.12c-0.02-0.011-0.04-0.021-0.061-0.03c-0.021-0.01-0.038-0.021-0.051-0.033
	c-0.015-0.011-0.021-0.023-0.022-0.039c0-0.025,0.018-0.055,0.052-0.09c0.034-0.035,0.083-0.07,0.147-0.105
	c0.064-0.036,0.141-0.064,0.229-0.088c0.09-0.023,0.19-0.035,0.301-0.037c0.022,0,0.062,0.004,0.119,0.013
	c0.058,0.009,0.122,0.026,0.194,0.056c0.073,0.027,0.143,0.07,0.21,0.127c0.068,0.057,0.125,0.134,0.169,0.229
	c0.045,0.098,0.068,0.218,0.07,0.362c-0.001,0.146-0.026,0.273-0.075,0.379c-0.048,0.104-0.112,0.191-0.191,0.262
	c-0.08,0.067-0.167,0.123-0.262,0.164c-0.095,0.04-0.19,0.07-0.286,0.09c-0.095,0.021-0.183,0.032-0.262,0.039
	c-0.08,0.006-0.144,0.01-0.192,0.008H8.247v0.278H8.249z"/>
<path d="M104.943,28.384h0.179c0.089-0.001,0.187,0.002,0.293,0.011c0.104,0.008,0.213,0.027,0.317,0.06
	c0.106,0.032,0.205,0.082,0.295,0.151c0.089,0.068,0.16,0.164,0.215,0.287c0.054,0.121,0.081,0.274,0.083,0.465
	c-0.002,0.166-0.025,0.311-0.072,0.432c-0.047,0.119-0.11,0.218-0.192,0.293c-0.08,0.077-0.172,0.132-0.271,0.169
	c-0.102,0.036-0.205,0.054-0.314,0.054c-0.104-0.002-0.207-0.017-0.303-0.047c-0.099-0.029-0.188-0.066-0.266-0.113
	s-0.141-0.097-0.186-0.147c-0.048-0.052-0.07-0.101-0.07-0.146c0-0.035,0.014-0.061,0.037-0.08c0.024-0.019,0.055-0.033,0.086-0.043
	c0.031-0.011,0.059-0.019,0.08-0.024c0.051-0.015,0.096-0.037,0.137-0.065c0.041-0.031,0.072-0.068,0.096-0.111
	s0.036-0.094,0.037-0.148c-0.001-0.104-0.023-0.188-0.068-0.259c-0.045-0.07-0.102-0.124-0.172-0.16s-0.146-0.056-0.227-0.056
	c-0.102,0-0.193,0.029-0.275,0.084c-0.08,0.054-0.146,0.135-0.193,0.242c-0.049,0.106-0.073,0.24-0.074,0.397
	c0.001,0.11,0.033,0.226,0.099,0.339c0.065,0.114,0.16,0.221,0.283,0.315c0.123,0.098,0.271,0.174,0.446,0.233
	c0.175,0.059,0.371,0.088,0.593,0.09c0.161,0,0.323-0.018,0.479-0.055c0.156-0.035,0.305-0.089,0.442-0.158s0.259-0.156,0.364-0.26
	c0.104-0.104,0.188-0.221,0.246-0.354c0.061-0.133,0.09-0.279,0.092-0.44c-0.002-0.167-0.033-0.313-0.096-0.444
	c-0.063-0.131-0.146-0.244-0.252-0.336c-0.105-0.095-0.227-0.17-0.357-0.226s-0.268-0.092-0.408-0.106v-0.039
	c0.129-0.023,0.254-0.064,0.375-0.123s0.229-0.131,0.325-0.219s0.173-0.188,0.229-0.304s0.086-0.241,0.088-0.379
	c0-0.099-0.021-0.198-0.058-0.299c-0.037-0.103-0.096-0.199-0.172-0.293c-0.076-0.094-0.172-0.179-0.287-0.252
	c-0.116-0.074-0.252-0.134-0.407-0.178c-0.156-0.043-0.332-0.064-0.529-0.066c-0.18,0.002-0.351,0.026-0.51,0.078
	c-0.158,0.049-0.3,0.121-0.422,0.213c-0.121,0.092-0.218,0.201-0.287,0.327c-0.07,0.127-0.104,0.267-0.105,0.418
	c0.001,0.089,0.023,0.162,0.068,0.225s0.102,0.109,0.172,0.143s0.146,0.051,0.227,0.051c0.078-0.002,0.143-0.014,0.195-0.039
	c0.053-0.026,0.094-0.057,0.123-0.094c0.031-0.039,0.053-0.076,0.066-0.113c0.012-0.038,0.018-0.068,0.018-0.094
	c0.002-0.039-0.002-0.082-0.01-0.129c-0.009-0.049-0.027-0.096-0.054-0.142s-0.067-0.085-0.122-0.12
	c-0.021-0.011-0.039-0.021-0.061-0.03c-0.021-0.009-0.038-0.021-0.053-0.033c-0.015-0.011-0.021-0.023-0.021-0.039
	c0-0.025,0.019-0.055,0.052-0.09c0.034-0.035,0.084-0.07,0.147-0.105c0.063-0.036,0.141-0.064,0.229-0.088
	c0.09-0.023,0.188-0.035,0.301-0.037c0.021,0,0.062,0.004,0.119,0.013c0.057,0.009,0.121,0.026,0.192,0.056
	c0.072,0.027,0.144,0.07,0.21,0.127c0.068,0.057,0.125,0.134,0.169,0.229c0.045,0.098,0.068,0.218,0.07,0.362
	c-0.002,0.146-0.025,0.273-0.074,0.379s-0.112,0.191-0.19,0.262c-0.08,0.067-0.168,0.123-0.263,0.164
	c-0.096,0.04-0.19,0.07-0.286,0.09c-0.095,0.021-0.183,0.032-0.262,0.039c-0.079,0.006-0.145,0.01-0.191,0.008h-0.115V28.384
	L104.943,28.384z"/>
<line fill="none" stroke="#231F20" stroke-width="0.5995" stroke-miterlimit="22.9256" x1="78.652" y1="25.002" x2="86.852" y2="25.002"/>
<line fill="none" stroke="#231F20" stroke-width="0.5995" stroke-miterlimit="22.9256" x1="73.253" y1="30.402" x2="73.253" y2="37.202"/>
<line fill="none" stroke="#231F20" stroke-width="0.5995" stroke-miterlimit="22.9256" x1="73.253" y1="20.202" x2="73.253" y2="13.402"/>
<path d="M46.663,26.472c-0.022,0.152-0.063,0.318-0.122,0.497c-0.062,0.18-0.143,0.354-0.246,0.531
	c-0.105,0.177-0.238,0.337-0.396,0.482c-0.158,0.147-0.347,0.265-0.567,0.353c-0.221,0.089-0.476,0.136-0.768,0.138
	c-0.297-0.002-0.553-0.053-0.771-0.149c-0.22-0.097-0.405-0.229-0.559-0.394c-0.153-0.164-0.278-0.35-0.378-0.553
	c-0.098-0.205-0.175-0.415-0.231-0.63c-0.057-0.217-0.098-0.424-0.124-0.623c-0.026-0.2-0.042-0.377-0.048-0.534
	c-0.007-0.155-0.01-0.275-0.009-0.358c0.002-0.538,0.057-0.993,0.164-1.365s0.253-0.67,0.438-0.895
	c0.185-0.227,0.396-0.39,0.635-0.492c0.237-0.1,0.489-0.15,0.753-0.148c0.401,0,0.741,0.082,1.019,0.245
	c0.276,0.162,0.505,0.4,0.68,0.713c0.176,0.313,0.313,0.697,0.413,1.152h0.488l-0.148-2.439h-0.48l-0.25,0.4
	c-0.066-0.049-0.153-0.104-0.258-0.165c-0.105-0.06-0.23-0.12-0.377-0.177c-0.145-0.056-0.312-0.103-0.504-0.14
	c-0.189-0.039-0.404-0.057-0.641-0.058c-0.415,0.001-0.792,0.065-1.13,0.187c-0.34,0.122-0.64,0.292-0.902,0.508
	c-0.26,0.218-0.48,0.47-0.657,0.757c-0.178,0.286-0.313,0.595-0.405,0.926c-0.09,0.332-0.137,0.672-0.137,1.022
	c0,0.368,0.042,0.729,0.125,1.084c0.085,0.355,0.213,0.688,0.385,1.002c0.172,0.312,0.39,0.586,0.655,0.824
	c0.263,0.238,0.575,0.426,0.935,0.562c0.36,0.135,0.77,0.203,1.23,0.207c0.187,0,0.387-0.014,0.6-0.049
	c0.214-0.033,0.429-0.1,0.645-0.193c0.217-0.096,0.422-0.235,0.618-0.417c0.194-0.183,0.364-0.421,0.514-0.718
	c0.146-0.295,0.258-0.66,0.334-1.094H46.663L46.663,26.472z"/>
<path d="M75.744,26.472c-0.023,0.152-0.064,0.318-0.123,0.497c-0.061,0.18-0.143,0.354-0.247,0.531s-0.235,0.337-0.396,0.482
	c-0.158,0.147-0.347,0.265-0.566,0.353c-0.223,0.089-0.477,0.136-0.768,0.138c-0.297-0.002-0.555-0.053-0.772-0.149
	c-0.22-0.097-0.404-0.229-0.558-0.394s-0.278-0.35-0.379-0.553c-0.099-0.205-0.176-0.415-0.231-0.63
	c-0.058-0.217-0.099-0.424-0.123-0.623c-0.026-0.2-0.042-0.377-0.049-0.534c-0.007-0.155-0.011-0.275-0.009-0.358
	c0.002-0.538,0.058-0.993,0.164-1.365c0.105-0.372,0.252-0.67,0.438-0.895c0.186-0.227,0.396-0.39,0.635-0.492
	c0.236-0.1,0.488-0.15,0.754-0.148c0.401,0,0.741,0.082,1.019,0.245c0.276,0.162,0.505,0.4,0.681,0.713s0.312,0.697,0.411,1.152
	h0.489l-0.149-2.439h-0.479l-0.25,0.4c-0.066-0.049-0.152-0.104-0.258-0.165c-0.104-0.06-0.229-0.12-0.377-0.177
	c-0.146-0.056-0.312-0.103-0.504-0.14c-0.189-0.039-0.404-0.057-0.642-0.058c-0.415,0.001-0.792,0.065-1.13,0.187
	c-0.34,0.122-0.641,0.292-0.902,0.508c-0.26,0.218-0.479,0.47-0.656,0.757c-0.178,0.286-0.312,0.595-0.404,0.926
	c-0.09,0.332-0.137,0.672-0.137,1.022c0,0.368,0.041,0.729,0.125,1.084s0.213,0.688,0.385,1.002
	c0.173,0.312,0.391,0.586,0.654,0.824s0.575,0.426,0.937,0.562c0.358,0.135,0.771,0.203,1.229,0.207c0.188,0,0.387-0.014,0.6-0.049
	c0.214-0.033,0.429-0.1,0.646-0.193c0.218-0.094,0.423-0.235,0.617-0.417c0.194-0.183,0.365-0.421,0.513-0.718
	c0.146-0.295,0.26-0.66,0.336-1.094H75.744L75.744,26.472z"/>
<path d="M93.941,26.472c-0.022,0.152-0.064,0.318-0.123,0.497c-0.061,0.18-0.143,0.354-0.246,0.531
	c-0.105,0.177-0.237,0.337-0.396,0.482c-0.158,0.147-0.347,0.265-0.566,0.353c-0.221,0.089-0.477,0.136-0.769,0.138
	c-0.297-0.002-0.554-0.053-0.771-0.149c-0.221-0.097-0.405-0.229-0.56-0.394c-0.153-0.164-0.278-0.35-0.378-0.553
	c-0.099-0.205-0.175-0.415-0.23-0.63c-0.059-0.217-0.1-0.424-0.125-0.623c-0.025-0.2-0.041-0.377-0.047-0.534
	c-0.008-0.155-0.012-0.275-0.01-0.358c0.002-0.538,0.057-0.993,0.163-1.365c0.107-0.372,0.255-0.67,0.438-0.895
	c0.186-0.227,0.396-0.39,0.636-0.492c0.235-0.1,0.487-0.15,0.753-0.148c0.4,0,0.742,0.082,1.02,0.245
	c0.275,0.162,0.504,0.4,0.68,0.713c0.177,0.313,0.312,0.697,0.412,1.152h0.488l-0.148-2.439h-0.48l-0.25,0.4
	c-0.065-0.049-0.152-0.104-0.258-0.165c-0.105-0.06-0.23-0.12-0.377-0.177c-0.146-0.056-0.312-0.103-0.503-0.14
	c-0.19-0.039-0.405-0.057-0.642-0.058c-0.416,0.001-0.793,0.065-1.131,0.187c-0.34,0.122-0.641,0.292-0.901,0.508
	c-0.261,0.218-0.479,0.47-0.656,0.757c-0.179,0.286-0.313,0.595-0.405,0.926c-0.09,0.332-0.137,0.672-0.137,1.022
	c0,0.368,0.042,0.729,0.125,1.084c0.085,0.355,0.214,0.688,0.385,1.002c0.172,0.312,0.392,0.586,0.655,0.824
	c0.265,0.238,0.575,0.426,0.935,0.562c0.36,0.135,0.771,0.203,1.23,0.207c0.188,0,0.387-0.014,0.6-0.049
	c0.215-0.033,0.43-0.1,0.646-0.193s0.422-0.235,0.615-0.417c0.195-0.183,0.365-0.421,0.515-0.718
	c0.146-0.295,0.259-0.66,0.335-1.094H93.941L93.941,26.472z"/>
<path d="M100.73,24.981h-3.25v-2.04c-0.002-0.057-0.002-0.111,0.002-0.167c0.002-0.056,0.019-0.105,0.045-0.151
	c0.027-0.045,0.076-0.082,0.146-0.11c0.072-0.026,0.175-0.042,0.308-0.042h0.601v-0.47h-3.36v0.47h0.602
	c0.133,0,0.234,0.015,0.307,0.042c0.069,0.028,0.118,0.065,0.146,0.11c0.025,0.046,0.041,0.096,0.045,0.151
	c0.003,0.055,0.003,0.11,0.002,0.167v4.918c0.001,0.057,0.001,0.113-0.002,0.168c-0.004,0.056-0.02,0.104-0.045,0.152
	c-0.028,0.045-0.077,0.08-0.146,0.108c-0.072,0.026-0.174,0.042-0.307,0.042h-0.602v0.47h3.359v-0.47h-0.6
	c-0.133,0-0.234-0.016-0.308-0.042c-0.069-0.028-0.118-0.063-0.146-0.108c-0.026-0.048-0.043-0.098-0.045-0.152
	c-0.004-0.055-0.004-0.111-0.002-0.166v-2.41h3.25v2.408c0.002,0.057,0.002,0.113-0.002,0.168c-0.004,0.056-0.019,0.104-0.045,0.152
	c-0.029,0.045-0.076,0.08-0.146,0.108c-0.071,0.026-0.173,0.042-0.307,0.042H99.63v0.47h3.359v-0.47h-0.601
	c-0.135,0-0.24-0.016-0.312-0.042c-0.071-0.028-0.122-0.063-0.15-0.108c-0.026-0.048-0.043-0.098-0.046-0.152
	c-0.002-0.055-0.004-0.111-0.002-0.166v-4.92c-0.002-0.057,0-0.111,0.002-0.167c0.003-0.055,0.02-0.105,0.046-0.151
	c0.028-0.045,0.079-0.082,0.15-0.11c0.071-0.026,0.177-0.042,0.312-0.042h0.601v-0.47H99.63v0.47h0.601
	c0.133,0,0.234,0.015,0.307,0.042c0.07,0.028,0.117,0.065,0.146,0.11c0.026,0.046,0.041,0.096,0.045,0.151s0.004,0.11,0.002,0.167
	V24.981L100.73,24.981z"/>
<path d="M75.744,9.472c-0.023,0.152-0.064,0.318-0.123,0.497c-0.061,0.178-0.143,0.355-0.247,0.532
	c-0.104,0.176-0.235,0.336-0.396,0.483c-0.158,0.147-0.347,0.264-0.566,0.352c-0.223,0.088-0.477,0.135-0.768,0.137
	c-0.297-0.002-0.555-0.052-0.772-0.15c-0.22-0.097-0.404-0.229-0.558-0.394c-0.153-0.164-0.278-0.349-0.379-0.552
	c-0.099-0.205-0.176-0.415-0.231-0.63c-0.058-0.217-0.099-0.423-0.123-0.623c-0.026-0.2-0.042-0.377-0.049-0.534
	c-0.007-0.155-0.011-0.275-0.009-0.358c0.002-0.538,0.058-0.993,0.164-1.365c0.105-0.372,0.252-0.67,0.438-0.895
	c0.186-0.227,0.396-0.39,0.635-0.492c0.236-0.1,0.488-0.15,0.754-0.148c0.401,0,0.741,0.082,1.019,0.245
	c0.276,0.162,0.505,0.4,0.681,0.713c0.176,0.314,0.312,0.697,0.411,1.152h0.489l-0.149-2.439h-0.479l-0.25,0.4
	c-0.066-0.049-0.152-0.104-0.258-0.165c-0.104-0.06-0.229-0.12-0.377-0.177c-0.146-0.057-0.312-0.104-0.504-0.14
	c-0.189-0.039-0.404-0.057-0.642-0.058c-0.415,0.001-0.792,0.065-1.13,0.187c-0.34,0.122-0.641,0.292-0.902,0.508
	c-0.26,0.218-0.479,0.47-0.656,0.757s-0.312,0.595-0.404,0.926c-0.09,0.332-0.137,0.672-0.137,1.022c0,0.368,0.041,0.73,0.125,1.084
	c0.084,0.355,0.213,0.688,0.385,1.002c0.173,0.312,0.391,0.587,0.654,0.825c0.264,0.239,0.575,0.425,0.937,0.562
	c0.358,0.135,0.771,0.203,1.229,0.207c0.188,0.002,0.387-0.013,0.6-0.048c0.214-0.033,0.429-0.099,0.646-0.193
	c0.218-0.094,0.423-0.235,0.617-0.417c0.194-0.183,0.365-0.422,0.513-0.718c0.146-0.295,0.26-0.66,0.336-1.094L75.744,9.472
	L75.744,9.472z"/>
<path d="M75.857,43.918c-0.023,0.15-0.064,0.318-0.123,0.497c-0.062,0.178-0.143,0.354-0.248,0.53
	c-0.104,0.178-0.235,0.338-0.395,0.484c-0.158,0.146-0.347,0.264-0.566,0.352c-0.221,0.088-0.477,0.135-0.769,0.137
	c-0.297-0.002-0.554-0.052-0.771-0.148c-0.221-0.098-0.405-0.229-0.56-0.395c-0.153-0.164-0.278-0.35-0.378-0.552
	c-0.099-0.205-0.176-0.415-0.232-0.63c-0.057-0.217-0.098-0.424-0.123-0.623c-0.025-0.2-0.041-0.377-0.047-0.534
	c-0.008-0.155-0.012-0.274-0.01-0.358c0.002-0.537,0.057-0.992,0.163-1.363c0.107-0.373,0.255-0.672,0.438-0.896
	c0.186-0.227,0.396-0.391,0.635-0.491c0.236-0.101,0.488-0.149,0.754-0.147c0.4,0,0.741,0.08,1.02,0.244
	c0.275,0.162,0.504,0.399,0.68,0.713c0.177,0.313,0.312,0.697,0.41,1.152h0.49l-0.149-2.439h-0.479l-0.25,0.4
	c-0.065-0.05-0.152-0.104-0.258-0.166c-0.105-0.061-0.23-0.119-0.377-0.177c-0.146-0.057-0.312-0.104-0.504-0.141
	c-0.189-0.038-0.404-0.058-0.643-0.058c-0.414,0-0.791,0.063-1.129,0.187c-0.34,0.121-0.641,0.291-0.901,0.508
	c-0.261,0.22-0.479,0.472-0.657,0.757c-0.178,0.287-0.312,0.596-0.404,0.928c-0.09,0.332-0.137,0.672-0.137,1.021
	c0,0.368,0.041,0.729,0.125,1.085c0.085,0.355,0.213,0.688,0.385,1.002c0.172,0.312,0.392,0.587,0.655,0.824
	c0.265,0.238,0.575,0.426,0.935,0.562c0.36,0.135,0.771,0.202,1.23,0.205c0.188,0.002,0.387-0.013,0.6-0.048
	c0.215-0.032,0.43-0.099,0.646-0.192c0.217-0.095,0.421-0.235,0.615-0.418c0.195-0.183,0.365-0.422,0.515-0.717
	c0.146-0.296,0.259-0.66,0.335-1.095L75.857,43.918L75.857,43.918z"/>
<path d="M82.533,7.982h-3.25v-2.04c-0.002-0.057-0.002-0.112,0.002-0.167c0.003-0.055,0.018-0.105,0.045-0.151
	c0.027-0.045,0.076-0.082,0.146-0.11c0.071-0.026,0.172-0.042,0.307-0.042h0.6v-0.47h-3.359v0.47h0.601
	c0.134,0,0.235,0.015,0.308,0.042c0.069,0.028,0.117,0.065,0.146,0.11c0.026,0.046,0.042,0.097,0.046,0.151
	c0.003,0.055,0.003,0.11,0.001,0.167v4.919c0.002,0.055,0.002,0.112-0.001,0.167c-0.004,0.055-0.02,0.105-0.046,0.151
	c-0.028,0.045-0.076,0.082-0.146,0.11c-0.072,0.026-0.174,0.042-0.308,0.042h-0.601v0.47h3.359v-0.47h-0.6
	c-0.135,0-0.234-0.015-0.307-0.042c-0.07-0.029-0.119-0.065-0.146-0.11c-0.027-0.046-0.042-0.097-0.045-0.151
	c-0.004-0.055-0.004-0.112-0.002-0.167v-2.41h3.25v2.41c0.002,0.055,0.002,0.112-0.002,0.167c-0.004,0.055-0.02,0.105-0.045,0.151
	c-0.028,0.045-0.076,0.082-0.146,0.11c-0.07,0.026-0.174,0.042-0.307,0.042h-0.6v0.47h3.358v-0.47h-0.601
	c-0.135,0-0.239-0.015-0.312-0.042c-0.071-0.029-0.122-0.065-0.149-0.11c-0.026-0.046-0.043-0.097-0.047-0.151
	c-0.002-0.055-0.004-0.112-0.002-0.167V5.942c-0.002-0.057,0-0.112,0.002-0.167c0.004-0.055,0.021-0.105,0.047-0.151
	c0.027-0.045,0.078-0.082,0.149-0.11c0.071-0.026,0.177-0.042,0.312-0.042h0.601v-0.47h-3.358v0.47h0.6
	c0.133,0,0.234,0.015,0.307,0.042c0.07,0.028,0.118,0.065,0.146,0.11c0.025,0.046,0.041,0.097,0.045,0.151
	c0.004,0.055,0.004,0.11,0.002,0.167V7.982L82.533,7.982z"/>
<path d="M82.646,42.428h-3.25v-2.039c-0.002-0.057-0.002-0.111,0.002-0.166c0.002-0.056,0.019-0.105,0.045-0.152
	c0.027-0.045,0.076-0.081,0.146-0.109c0.071-0.025,0.174-0.042,0.307-0.042h0.601v-0.47h-3.36v0.47h0.602
	c0.133,0,0.234,0.017,0.307,0.042c0.07,0.028,0.118,0.064,0.146,0.109c0.025,0.047,0.041,0.098,0.045,0.152s0.004,0.109,0.002,0.166
	v4.92c0.002,0.056,0.002,0.111-0.002,0.166s-0.02,0.105-0.045,0.151c-0.028,0.046-0.076,0.082-0.146,0.11
	c-0.072,0.025-0.174,0.041-0.307,0.041h-0.602v0.471h3.36v-0.471h-0.601c-0.133,0-0.234-0.016-0.307-0.041
	c-0.07-0.028-0.119-0.064-0.146-0.11c-0.026-0.046-0.043-0.097-0.045-0.151c-0.004-0.054-0.004-0.11-0.002-0.166v-2.41h3.25v2.41
	c0.002,0.056,0.002,0.111-0.002,0.166s-0.019,0.105-0.045,0.151c-0.027,0.046-0.076,0.082-0.146,0.11
	c-0.072,0.025-0.175,0.041-0.308,0.041h-0.601v0.471h3.358v-0.471h-0.6c-0.135,0-0.24-0.016-0.312-0.041
	c-0.071-0.028-0.122-0.064-0.15-0.11c-0.026-0.046-0.043-0.097-0.046-0.151c-0.002-0.055-0.004-0.11-0.002-0.166v-4.92
	c-0.002-0.057,0-0.111,0.002-0.166c0.003-0.056,0.02-0.105,0.046-0.152c0.028-0.045,0.079-0.081,0.15-0.109
	c0.071-0.025,0.177-0.042,0.312-0.042h0.6v-0.47h-3.358v0.47h0.601c0.133,0,0.234,0.017,0.308,0.042
	c0.069,0.028,0.118,0.064,0.146,0.109c0.026,0.047,0.041,0.098,0.045,0.152s0.004,0.109,0.002,0.166V42.428L82.646,42.428z"/>
<path d="M86.475,11.471h0.178c0.09-0.001,0.188,0.002,0.293,0.01c0.106,0.009,0.214,0.029,0.318,0.06
	c0.107,0.032,0.205,0.082,0.295,0.152c0.088,0.069,0.16,0.165,0.215,0.287s0.082,0.276,0.084,0.465
	c-0.002,0.167-0.026,0.311-0.073,0.432c-0.048,0.119-0.11,0.217-0.191,0.293c-0.081,0.077-0.172,0.132-0.272,0.168
	c-0.1,0.037-0.205,0.053-0.313,0.053c-0.104-0.001-0.207-0.016-0.304-0.046c-0.1-0.03-0.188-0.067-0.266-0.114
	s-0.141-0.096-0.187-0.148c-0.046-0.051-0.069-0.1-0.069-0.146c0-0.034,0.014-0.06,0.037-0.079c0.024-0.019,0.053-0.034,0.086-0.044
	c0.03-0.01,0.059-0.018,0.08-0.024c0.051-0.015,0.096-0.037,0.137-0.067c0.039-0.03,0.071-0.067,0.096-0.111
	c0.023-0.042,0.037-0.093,0.037-0.148c0-0.103-0.024-0.189-0.067-0.259c-0.045-0.07-0.103-0.124-0.173-0.16
	c-0.07-0.037-0.146-0.055-0.227-0.055c-0.103,0-0.193,0.027-0.275,0.082c-0.081,0.054-0.146,0.135-0.193,0.243
	c-0.05,0.107-0.074,0.24-0.074,0.398c0,0.112,0.032,0.225,0.1,0.339c0.064,0.114,0.158,0.22,0.281,0.316
	c0.123,0.097,0.272,0.174,0.447,0.233c0.176,0.059,0.373,0.089,0.592,0.091c0.164,0,0.324-0.018,0.48-0.054
	c0.157-0.037,0.307-0.09,0.443-0.159c0.138-0.071,0.259-0.157,0.363-0.26c0.104-0.102,0.188-0.221,0.248-0.353
	c0.06-0.134,0.088-0.281,0.09-0.442c-0.002-0.167-0.032-0.314-0.097-0.446c-0.062-0.13-0.146-0.243-0.252-0.336
	c-0.104-0.094-0.225-0.168-0.356-0.224c-0.131-0.055-0.269-0.092-0.408-0.108v-0.038c0.129-0.025,0.255-0.065,0.376-0.124
	c0.12-0.058,0.229-0.13,0.325-0.217c0.097-0.088,0.173-0.19,0.229-0.304c0.059-0.115,0.086-0.241,0.087-0.378
	c0-0.099-0.02-0.198-0.057-0.3c-0.037-0.103-0.095-0.199-0.17-0.293c-0.077-0.094-0.173-0.179-0.288-0.252
	c-0.116-0.074-0.252-0.133-0.408-0.177c-0.156-0.042-0.332-0.065-0.529-0.066c-0.181,0.001-0.351,0.025-0.51,0.077
	c-0.158,0.05-0.299,0.122-0.422,0.213c-0.122,0.093-0.218,0.202-0.287,0.327c-0.07,0.127-0.105,0.267-0.105,0.419
	c0,0.087,0.023,0.162,0.067,0.224c0.046,0.062,0.103,0.11,0.173,0.142c0.07,0.033,0.146,0.05,0.227,0.05
	c0.078-0.001,0.144-0.014,0.195-0.04c0.053-0.025,0.094-0.057,0.123-0.094c0.031-0.039,0.053-0.076,0.065-0.113
	c0.013-0.037,0.019-0.068,0.019-0.093c0.002-0.039-0.002-0.082-0.011-0.13c-0.008-0.047-0.026-0.094-0.053-0.14
	S86.555,9.918,86.5,9.882c-0.021-0.011-0.039-0.021-0.061-0.031c-0.021-0.01-0.037-0.021-0.053-0.032
	c-0.015-0.012-0.021-0.024-0.021-0.04c0-0.025,0.019-0.055,0.053-0.09S86.5,9.62,86.564,9.585c0.063-0.035,0.142-0.064,0.229-0.087
	s0.188-0.035,0.302-0.036c0.021-0.001,0.062,0.003,0.117,0.012c0.059,0.008,0.121,0.026,0.194,0.056
	c0.071,0.027,0.143,0.07,0.21,0.127c0.068,0.057,0.125,0.134,0.169,0.229c0.045,0.097,0.067,0.218,0.069,0.363
	c-0.002,0.147-0.025,0.274-0.074,0.378s-0.112,0.192-0.19,0.261c-0.08,0.069-0.168,0.125-0.263,0.165
	c-0.096,0.04-0.189,0.07-0.286,0.091c-0.095,0.019-0.183,0.032-0.261,0.038c-0.08,0.005-0.146,0.009-0.192,0.007h-0.114V11.471
	L86.475,11.471z"/>
<path d="M86.587,45.917h0.181c0.088-0.001,0.186,0.002,0.291,0.01c0.106,0.009,0.215,0.028,0.319,0.06
	c0.106,0.033,0.204,0.082,0.294,0.152c0.089,0.068,0.16,0.164,0.215,0.286c0.055,0.121,0.082,0.276,0.084,0.466
	c-0.002,0.166-0.025,0.312-0.072,0.433c-0.049,0.118-0.111,0.217-0.192,0.293c-0.081,0.075-0.172,0.132-0.272,0.168
	s-0.205,0.054-0.313,0.054c-0.104-0.002-0.207-0.016-0.304-0.046c-0.099-0.03-0.188-0.067-0.266-0.114s-0.141-0.096-0.188-0.148
	c-0.045-0.051-0.068-0.1-0.069-0.146c0.001-0.034,0.015-0.061,0.038-0.079c0.023-0.02,0.054-0.033,0.086-0.044
	c0.03-0.011,0.059-0.019,0.081-0.024c0.05-0.014,0.095-0.036,0.135-0.066c0.041-0.029,0.073-0.066,0.097-0.111
	c0.024-0.041,0.037-0.093,0.037-0.146c0-0.104-0.023-0.189-0.067-0.26c-0.046-0.07-0.103-0.125-0.173-0.159
	c-0.07-0.037-0.146-0.056-0.228-0.056c-0.101,0-0.192,0.027-0.274,0.082c-0.08,0.055-0.146,0.135-0.193,0.244
	c-0.049,0.105-0.073,0.239-0.075,0.396c0.002,0.111,0.033,0.227,0.101,0.339c0.064,0.114,0.158,0.222,0.281,0.315
	c0.123,0.098,0.272,0.175,0.447,0.233c0.176,0.06,0.372,0.089,0.592,0.091c0.163,0,0.324-0.019,0.481-0.055
	c0.155-0.036,0.305-0.09,0.442-0.158c0.138-0.07,0.26-0.156,0.363-0.26c0.105-0.104,0.188-0.221,0.247-0.354s0.09-0.28,0.091-0.441
	c-0.001-0.166-0.033-0.314-0.096-0.445c-0.062-0.13-0.146-0.242-0.252-0.336s-0.227-0.169-0.357-0.225
	c-0.131-0.055-0.268-0.092-0.408-0.107v-0.037c0.129-0.025,0.256-0.065,0.375-0.125c0.121-0.058,0.229-0.13,0.326-0.218
	c0.098-0.088,0.172-0.188,0.229-0.304c0.058-0.115,0.086-0.241,0.088-0.379c0-0.1-0.02-0.198-0.057-0.301
	c-0.039-0.103-0.096-0.199-0.172-0.293s-0.172-0.179-0.287-0.252c-0.116-0.074-0.252-0.133-0.407-0.177
	c-0.157-0.043-0.333-0.065-0.53-0.065c-0.181,0-0.35,0.024-0.51,0.076c-0.159,0.051-0.299,0.121-0.422,0.213
	c-0.121,0.094-0.217,0.203-0.286,0.328c-0.07,0.127-0.104,0.268-0.106,0.42c0.002,0.086,0.023,0.162,0.067,0.224
	c0.045,0.062,0.103,0.11,0.173,0.142c0.07,0.033,0.146,0.051,0.227,0.051c0.078,0,0.144-0.014,0.195-0.039
	c0.053-0.025,0.094-0.058,0.123-0.095c0.031-0.038,0.053-0.075,0.064-0.112c0.015-0.037,0.021-0.067,0.021-0.094
	c0.001-0.039-0.004-0.082-0.011-0.13c-0.01-0.047-0.025-0.094-0.055-0.14c-0.025-0.047-0.066-0.085-0.121-0.12
	c-0.021-0.011-0.039-0.021-0.062-0.031c-0.02-0.01-0.036-0.021-0.051-0.032s-0.021-0.023-0.022-0.039
	c0-0.024,0.019-0.056,0.054-0.09c0.032-0.035,0.083-0.07,0.146-0.105c0.064-0.035,0.141-0.064,0.229-0.088
	c0.09-0.023,0.19-0.035,0.301-0.036c0.022-0.001,0.062,0.003,0.118,0.012c0.058,0.009,0.122,0.026,0.193,0.056
	c0.073,0.027,0.144,0.07,0.211,0.129c0.067,0.057,0.125,0.134,0.17,0.229c0.045,0.098,0.067,0.218,0.068,0.361
	c-0.001,0.147-0.025,0.275-0.074,0.38s-0.111,0.192-0.19,0.261c-0.08,0.068-0.168,0.124-0.263,0.165
	c-0.096,0.04-0.189,0.069-0.285,0.091c-0.096,0.02-0.184,0.031-0.262,0.038c-0.08,0.005-0.145,0.009-0.192,0.007h-0.115V45.917
	L86.587,45.917z"/>
<line fill="none" stroke="#231F20" stroke-width="0.5995" stroke-miterlimit="22.9256" x1="30.806" y1="25.002" x2="39.005" y2="25.002"/>
<line fill="none" stroke="#231F20" stroke-width="0.5995" stroke-miterlimit="22.9256" x1="60.807" y1="25.002" x2="69.006" y2="25.002"/>
<line fill="none" stroke="#231F20" stroke-width="0.5995" stroke-miterlimit="22.9256" x1="11.806" y1="25.002" x2="20.005" y2="25.002"/>
<line fill="none" stroke="#231F20" stroke-width="0.5995" stroke-miterlimit="22.9256" x1="25.407" y1="30.402" x2="25.407" y2="37.202"/>
<line fill="none" stroke="#231F20" stroke-width="0.5995" stroke-miterlimit="22.9256" x1="25.407" y1="20.202" x2="25.407" y2="13.402"/>
<path d="M27.898,26.472c-0.023,0.152-0.064,0.318-0.123,0.497c-0.061,0.18-0.143,0.354-0.247,0.531s-0.235,0.337-0.396,0.482
	c-0.158,0.147-0.347,0.265-0.566,0.353c-0.223,0.089-0.477,0.136-0.768,0.138c-0.297-0.002-0.555-0.053-0.772-0.149
	c-0.22-0.097-0.404-0.229-0.558-0.394s-0.278-0.35-0.379-0.553c-0.099-0.205-0.176-0.415-0.231-0.63
	c-0.058-0.217-0.099-0.424-0.123-0.623c-0.026-0.2-0.042-0.377-0.049-0.534c-0.007-0.155-0.011-0.275-0.009-0.358
	c0.002-0.538,0.058-0.993,0.164-1.365c0.105-0.372,0.252-0.67,0.438-0.895c0.186-0.227,0.396-0.39,0.635-0.492
	c0.236-0.1,0.488-0.15,0.754-0.148c0.401,0,0.741,0.082,1.019,0.245c0.276,0.162,0.505,0.4,0.681,0.713s0.312,0.697,0.411,1.152
	h0.489l-0.149-2.439h-0.479l-0.25,0.4c-0.066-0.049-0.152-0.104-0.258-0.165c-0.104-0.06-0.229-0.12-0.377-0.177
	c-0.146-0.056-0.312-0.103-0.504-0.14c-0.189-0.039-0.404-0.057-0.642-0.058c-0.415,0.001-0.792,0.065-1.13,0.187
	c-0.34,0.122-0.641,0.292-0.902,0.508c-0.26,0.218-0.479,0.47-0.656,0.757c-0.178,0.286-0.312,0.595-0.404,0.926
	c-0.09,0.332-0.137,0.672-0.137,1.022c0,0.368,0.041,0.729,0.125,1.084s0.213,0.688,0.385,1.002
	c0.173,0.312,0.391,0.586,0.654,0.824s0.575,0.426,0.937,0.562c0.358,0.135,0.771,0.203,1.229,0.207c0.188,0,0.387-0.014,0.6-0.049
	c0.214-0.033,0.429-0.1,0.646-0.193c0.218-0.094,0.423-0.235,0.617-0.417c0.194-0.183,0.365-0.421,0.513-0.718
	c0.146-0.295,0.26-0.66,0.336-1.094H27.898L27.898,26.472z"/>
<path d="M27.898,9.472c-0.023,0.152-0.064,0.318-0.123,0.497c-0.061,0.178-0.143,0.355-0.247,0.532
	c-0.104,0.176-0.235,0.336-0.396,0.483c-0.158,0.147-0.347,0.264-0.566,0.352c-0.223,0.088-0.477,0.135-0.768,0.137
	c-0.297-0.002-0.555-0.052-0.772-0.15c-0.22-0.097-0.404-0.229-0.558-0.394c-0.153-0.164-0.278-0.349-0.379-0.552
	c-0.099-0.205-0.176-0.415-0.231-0.63C23.8,9.53,23.759,9.324,23.735,9.124c-0.026-0.2-0.042-0.377-0.049-0.534
	c-0.007-0.155-0.011-0.275-0.009-0.358c0.002-0.538,0.058-0.993,0.164-1.365c0.105-0.372,0.252-0.67,0.438-0.895
	c0.186-0.227,0.396-0.39,0.635-0.492c0.236-0.1,0.488-0.15,0.754-0.148c0.401,0,0.741,0.082,1.019,0.245
	c0.276,0.162,0.505,0.4,0.681,0.713c0.176,0.314,0.312,0.697,0.411,1.152h0.489l-0.149-2.439h-0.479l-0.25,0.4
	c-0.066-0.049-0.152-0.104-0.258-0.165c-0.104-0.06-0.229-0.12-0.377-0.177c-0.146-0.057-0.312-0.104-0.504-0.14
	c-0.189-0.039-0.404-0.057-0.642-0.058c-0.415,0.001-0.792,0.065-1.13,0.187c-0.34,0.122-0.641,0.292-0.902,0.508
	c-0.26,0.218-0.479,0.47-0.656,0.757s-0.312,0.595-0.404,0.926c-0.09,0.332-0.137,0.672-0.137,1.022c0,0.368,0.041,0.73,0.125,1.084
	c0.084,0.355,0.213,0.688,0.385,1.002c0.173,0.312,0.391,0.587,0.654,0.825c0.264,0.239,0.575,0.425,0.937,0.562
	c0.358,0.135,0.771,0.203,1.229,0.207c0.188,0.002,0.387-0.013,0.6-0.048c0.214-0.033,0.429-0.099,0.646-0.193
	c0.218-0.094,0.423-0.235,0.617-0.417c0.194-0.183,0.365-0.422,0.513-0.718c0.146-0.295,0.26-0.66,0.336-1.094L27.898,9.472
	L27.898,9.472z"/>
<path d="M28.011,43.918c-0.023,0.15-0.064,0.318-0.123,0.497c-0.062,0.178-0.143,0.354-0.248,0.53
	c-0.104,0.178-0.235,0.338-0.395,0.484c-0.158,0.146-0.347,0.264-0.566,0.352c-0.221,0.088-0.477,0.135-0.769,0.137
	c-0.297-0.002-0.554-0.052-0.771-0.148c-0.221-0.098-0.405-0.229-0.56-0.395c-0.153-0.164-0.278-0.35-0.378-0.552
	c-0.099-0.205-0.176-0.415-0.232-0.63c-0.057-0.217-0.098-0.424-0.123-0.623c-0.025-0.2-0.041-0.377-0.047-0.534
	c-0.008-0.155-0.012-0.274-0.01-0.358c0.002-0.537,0.057-0.992,0.163-1.363c0.107-0.373,0.255-0.672,0.438-0.896
	c0.186-0.227,0.396-0.391,0.635-0.491c0.236-0.101,0.488-0.149,0.754-0.147c0.4,0,0.741,0.08,1.02,0.244
	c0.275,0.162,0.504,0.399,0.68,0.713c0.177,0.313,0.312,0.697,0.41,1.152h0.49l-0.149-2.439h-0.479l-0.25,0.4
	c-0.065-0.05-0.152-0.104-0.258-0.166c-0.105-0.061-0.23-0.119-0.377-0.177c-0.146-0.057-0.312-0.104-0.504-0.141
	c-0.189-0.038-0.404-0.058-0.643-0.058c-0.414,0-0.791,0.063-1.129,0.187c-0.34,0.121-0.641,0.291-0.901,0.508
	c-0.261,0.22-0.479,0.472-0.657,0.757c-0.178,0.287-0.312,0.596-0.404,0.928c-0.09,0.332-0.137,0.672-0.137,1.021
	c0,0.368,0.041,0.729,0.125,1.085c0.085,0.355,0.213,0.688,0.385,1.002c0.172,0.312,0.392,0.587,0.655,0.824
	c0.265,0.238,0.575,0.426,0.935,0.562c0.36,0.135,0.771,0.202,1.23,0.205c0.188,0.002,0.387-0.013,0.6-0.048
	c0.215-0.032,0.43-0.099,0.646-0.192c0.217-0.095,0.421-0.235,0.615-0.418c0.195-0.183,0.365-0.422,0.515-0.717
	c0.146-0.296,0.259-0.66,0.335-1.095L28.011,43.918L28.011,43.918z"/>
<path d="M34.687,7.982h-3.25v-2.04c-0.002-0.057-0.002-0.112,0.002-0.167c0.003-0.055,0.018-0.105,0.045-0.151
	c0.027-0.045,0.076-0.082,0.146-0.11c0.071-0.026,0.172-0.042,0.307-0.042h0.6v-0.47h-3.359v0.47h0.601
	c0.134,0,0.235,0.015,0.308,0.042c0.069,0.028,0.117,0.065,0.146,0.11c0.026,0.046,0.042,0.097,0.046,0.151
	c0.003,0.055,0.003,0.11,0.001,0.167v4.919c0.002,0.055,0.002,0.112-0.001,0.167c-0.004,0.055-0.02,0.105-0.046,0.151
	c-0.028,0.045-0.076,0.082-0.146,0.11c-0.072,0.026-0.174,0.042-0.308,0.042h-0.601v0.47h3.359v-0.47h-0.6
	c-0.135,0-0.234-0.015-0.307-0.042c-0.07-0.029-0.119-0.065-0.146-0.11c-0.027-0.046-0.042-0.097-0.045-0.151
	c-0.004-0.055-0.004-0.112-0.002-0.167v-2.41h3.25v2.41c0.002,0.055,0.002,0.112-0.002,0.167c-0.004,0.055-0.02,0.105-0.045,0.151
	c-0.028,0.045-0.076,0.082-0.146,0.11c-0.07,0.026-0.174,0.042-0.307,0.042h-0.6v0.47h3.358v-0.47h-0.601
	c-0.135,0-0.239-0.015-0.312-0.042c-0.071-0.029-0.122-0.065-0.149-0.11c-0.026-0.046-0.043-0.097-0.047-0.151
	c-0.002-0.055-0.004-0.112-0.002-0.167V5.942c-0.002-0.057,0-0.112,0.002-0.167c0.004-0.055,0.021-0.105,0.047-0.151
	c0.027-0.045,0.078-0.082,0.149-0.11c0.071-0.026,0.177-0.042,0.312-0.042h0.601v-0.47h-3.358v0.47h0.6
	c0.133,0,0.234,0.015,0.307,0.042c0.07,0.028,0.118,0.065,0.146,0.11c0.025,0.046,0.041,0.097,0.045,0.151
	c0.004,0.055,0.004,0.11,0.002,0.167V7.982L34.687,7.982z"/>
<path d="M34.8,42.428h-3.25v-2.039c-0.002-0.057-0.002-0.111,0.002-0.166c0.002-0.056,0.019-0.105,0.045-0.152
	c0.027-0.045,0.076-0.081,0.146-0.109c0.071-0.025,0.174-0.042,0.307-0.042h0.601v-0.47h-3.36v0.47h0.602
	c0.133,0,0.234,0.017,0.307,0.042c0.07,0.028,0.118,0.064,0.146,0.109c0.025,0.047,0.041,0.098,0.045,0.152s0.004,0.109,0.002,0.166
	v4.92c0.002,0.056,0.002,0.111-0.002,0.166s-0.02,0.105-0.045,0.151c-0.028,0.046-0.076,0.082-0.146,0.11
	c-0.072,0.025-0.174,0.041-0.307,0.041h-0.602v0.471h3.36v-0.471H32.05c-0.133,0-0.234-0.016-0.307-0.041
	c-0.07-0.028-0.119-0.064-0.146-0.11c-0.026-0.046-0.043-0.097-0.045-0.151c-0.004-0.054-0.004-0.11-0.002-0.166v-2.41h3.25v2.41
	c0.002,0.056,0.002,0.111-0.002,0.166s-0.019,0.105-0.045,0.151c-0.027,0.046-0.076,0.082-0.146,0.11
	c-0.072,0.025-0.175,0.041-0.308,0.041H33.7v0.471h3.358v-0.471h-0.6c-0.135,0-0.24-0.016-0.312-0.041
	c-0.071-0.028-0.122-0.064-0.15-0.11c-0.026-0.046-0.043-0.097-0.046-0.151c-0.002-0.055-0.004-0.11-0.002-0.166v-4.92
	c-0.002-0.057,0-0.111,0.002-0.166c0.003-0.056,0.02-0.105,0.046-0.152c0.028-0.045,0.079-0.081,0.15-0.109
	c0.071-0.025,0.177-0.042,0.312-0.042h0.6v-0.47H33.7v0.47H34.3c0.133,0,0.234,0.017,0.308,0.042
	c0.069,0.028,0.118,0.064,0.146,0.109c0.026,0.047,0.041,0.098,0.045,0.152s0.004,0.109,0.002,0.166V42.428L34.8,42.428z"/>
<g>
	<path d="M53.404,24.981h-3.25v-2.039c0-0.057,0-0.112,0.002-0.167c0.003-0.055,0.019-0.105,0.045-0.151
		c0.027-0.045,0.076-0.082,0.146-0.11c0.072-0.027,0.174-0.042,0.307-0.042h0.601v-0.47h-3.36v0.47h0.601
		c0.133,0,0.235,0.015,0.307,0.042c0.07,0.028,0.118,0.065,0.146,0.11c0.026,0.046,0.042,0.097,0.045,0.151
		c0.003,0.055,0.003,0.11,0.001,0.167v4.919c0.002,0.055,0.002,0.112-0.001,0.167s-0.019,0.105-0.045,0.152
		c-0.028,0.045-0.077,0.082-0.146,0.109c-0.071,0.027-0.174,0.042-0.307,0.042h-0.601v0.47h3.36v-0.47h-0.601
		c-0.133,0-0.234-0.015-0.307-0.042c-0.07-0.027-0.119-0.064-0.146-0.109c-0.026-0.047-0.042-0.098-0.045-0.152
		c-0.004-0.055-0.004-0.112-0.002-0.167v-2.41h3.25v2.41c0.002,0.055,0.002,0.112-0.002,0.167c-0.002,0.055-0.018,0.105-0.045,0.152
		c-0.027,0.045-0.076,0.082-0.146,0.109c-0.071,0.027-0.173,0.042-0.308,0.042h-0.6v0.47h3.36v-0.47h-0.601
		c-0.135,0-0.239-0.015-0.312-0.042c-0.071-0.027-0.122-0.064-0.149-0.109c-0.027-0.047-0.043-0.098-0.047-0.152
		c-0.002-0.055-0.002-0.112-0.002-0.167v-4.92c0-0.057,0-0.112,0.002-0.167c0.004-0.055,0.021-0.105,0.047-0.151
		c0.027-0.045,0.078-0.082,0.149-0.11c0.072-0.027,0.177-0.042,0.312-0.042h0.601v-0.47h-3.36v0.47h0.6
		c0.134,0,0.236,0.015,0.308,0.042c0.07,0.028,0.118,0.065,0.146,0.11c0.027,0.046,0.043,0.097,0.045,0.151
		c0.004,0.055,0.004,0.11,0.002,0.167V24.981L53.404,24.981z"/>
	<path d="M59.157,29.787v0.115c0,0.139-0.015,0.252-0.042,0.34c-0.028,0.088-0.065,0.158-0.113,0.207s-0.104,0.084-0.164,0.104
		c-0.061,0.021-0.125,0.034-0.191,0.041c-0.066,0.004-0.133,0.006-0.199,0.004h-1.28c0.002-0.008,0.013-0.031,0.028-0.068
		c0.018-0.037,0.052-0.089,0.102-0.155c0.049-0.065,0.124-0.147,0.223-0.245c0.1-0.098,0.23-0.212,0.396-0.344
		c0.145-0.109,0.29-0.215,0.439-0.314c0.149-0.099,0.293-0.201,0.433-0.303c0.139-0.102,0.262-0.214,0.374-0.334
		c0.109-0.121,0.197-0.257,0.261-0.41c0.065-0.152,0.099-0.328,0.099-0.525c0-0.178-0.027-0.333-0.08-0.465
		c-0.051-0.133-0.123-0.246-0.213-0.338c-0.09-0.094-0.194-0.168-0.312-0.225c-0.116-0.059-0.24-0.1-0.37-0.125
		c-0.131-0.025-0.262-0.039-0.394-0.039c-0.184,0.001-0.348,0.023-0.498,0.07c-0.149,0.046-0.282,0.109-0.397,0.188
		c-0.114,0.079-0.212,0.17-0.291,0.271c-0.079,0.101-0.139,0.208-0.18,0.32c-0.041,0.111-0.062,0.224-0.062,0.334
		c0.002,0.121,0.023,0.223,0.067,0.306c0.044,0.084,0.104,0.147,0.179,0.192c0.076,0.043,0.162,0.065,0.26,0.065
		c0.09-0.002,0.168-0.022,0.229-0.065s0.106-0.097,0.14-0.162c0.03-0.064,0.047-0.131,0.047-0.201c0-0.063-0.016-0.121-0.043-0.174
		s-0.066-0.099-0.115-0.133c-0.051-0.033-0.108-0.053-0.176-0.059c-0.021-0.001-0.043-0.003-0.064-0.004s-0.04-0.006-0.053-0.016
		c-0.014-0.01-0.021-0.026-0.022-0.051c0-0.05,0.019-0.106,0.054-0.172c0.035-0.064,0.088-0.129,0.16-0.191
		c0.069-0.062,0.157-0.114,0.262-0.155c0.104-0.042,0.225-0.063,0.363-0.063c0.094,0,0.188,0.016,0.276,0.047
		c0.089,0.032,0.171,0.082,0.241,0.148c0.072,0.066,0.13,0.15,0.171,0.255c0.042,0.103,0.063,0.226,0.065,0.368
		c-0.002,0.186-0.022,0.346-0.063,0.484c-0.043,0.139-0.103,0.262-0.177,0.367c-0.075,0.108-0.164,0.207-0.264,0.295
		c-0.1,0.092-0.207,0.18-0.324,0.269c-0.115,0.087-0.234,0.181-0.359,0.28c-0.124,0.1-0.247,0.214-0.369,0.34
		c-0.124,0.127-0.242,0.273-0.355,0.441s-0.219,0.363-0.313,0.588v0.256h2.892v-1.36H59.157L59.157,29.787z"/>
</g>
<path d="M38.475,11.471h0.178c0.09-0.001,0.188,0.002,0.293,0.01c0.106,0.009,0.214,0.029,0.318,0.06
	c0.107,0.032,0.205,0.082,0.295,0.152c0.088,0.069,0.16,0.165,0.215,0.287s0.082,0.276,0.084,0.465
	c-0.002,0.167-0.026,0.311-0.073,0.432c-0.048,0.119-0.11,0.217-0.191,0.293c-0.081,0.077-0.172,0.132-0.272,0.168
	c-0.1,0.037-0.205,0.053-0.313,0.053c-0.104-0.001-0.207-0.016-0.304-0.046c-0.1-0.03-0.188-0.067-0.266-0.114
	s-0.141-0.096-0.187-0.148c-0.046-0.051-0.069-0.1-0.069-0.146c0-0.034,0.014-0.06,0.037-0.079c0.024-0.019,0.053-0.034,0.086-0.044
	c0.03-0.01,0.059-0.018,0.08-0.024c0.051-0.015,0.096-0.037,0.137-0.067c0.039-0.03,0.071-0.067,0.096-0.111
	c0.023-0.042,0.037-0.093,0.037-0.148c0-0.103-0.024-0.189-0.067-0.259c-0.045-0.07-0.103-0.124-0.173-0.16
	c-0.07-0.037-0.146-0.055-0.227-0.055c-0.103,0-0.193,0.027-0.275,0.082c-0.081,0.054-0.146,0.135-0.193,0.243
	c-0.05,0.107-0.074,0.24-0.074,0.398c0,0.112,0.032,0.225,0.1,0.339c0.064,0.114,0.158,0.22,0.281,0.316
	c0.123,0.097,0.272,0.174,0.447,0.233c0.176,0.059,0.373,0.089,0.592,0.091c0.164,0,0.324-0.018,0.48-0.054
	c0.157-0.037,0.307-0.09,0.443-0.159c0.138-0.071,0.259-0.157,0.363-0.26c0.104-0.102,0.188-0.221,0.248-0.353
	c0.06-0.134,0.088-0.281,0.09-0.442c-0.002-0.167-0.032-0.314-0.097-0.446c-0.062-0.13-0.146-0.243-0.252-0.336
	c-0.104-0.094-0.225-0.168-0.356-0.224c-0.131-0.055-0.269-0.092-0.408-0.108v-0.038c0.129-0.025,0.255-0.065,0.376-0.124
	c0.12-0.058,0.229-0.13,0.325-0.217c0.097-0.088,0.173-0.19,0.229-0.304c0.059-0.115,0.086-0.241,0.087-0.378
	c0-0.099-0.02-0.198-0.057-0.3c-0.037-0.103-0.095-0.199-0.17-0.293c-0.077-0.094-0.173-0.179-0.288-0.252
	c-0.116-0.074-0.252-0.133-0.408-0.177c-0.156-0.042-0.332-0.065-0.529-0.066c-0.181,0.001-0.351,0.025-0.51,0.077
	c-0.158,0.05-0.299,0.122-0.422,0.213c-0.122,0.093-0.218,0.202-0.287,0.327c-0.07,0.127-0.105,0.267-0.105,0.419
	c0,0.087,0.023,0.162,0.067,0.224c0.046,0.062,0.103,0.11,0.173,0.142c0.07,0.033,0.146,0.05,0.227,0.05
	c0.078-0.001,0.144-0.014,0.195-0.04c0.053-0.025,0.094-0.057,0.123-0.094c0.031-0.039,0.053-0.076,0.065-0.113
	c0.013-0.037,0.019-0.068,0.019-0.093c0.002-0.039-0.002-0.082-0.011-0.13c-0.008-0.047-0.026-0.094-0.053-0.14
	S38.555,9.918,38.5,9.882c-0.021-0.011-0.039-0.021-0.061-0.031c-0.021-0.01-0.037-0.021-0.053-0.032
	c-0.015-0.012-0.021-0.024-0.021-0.04c0-0.025,0.019-0.055,0.053-0.09S38.5,9.62,38.564,9.585c0.063-0.035,0.142-0.064,0.229-0.087
	s0.188-0.035,0.302-0.036c0.021-0.001,0.062,0.003,0.117,0.012c0.059,0.008,0.121,0.026,0.194,0.056
	c0.071,0.027,0.143,0.07,0.21,0.127c0.068,0.057,0.125,0.134,0.169,0.229c0.045,0.097,0.067,0.218,0.069,0.363
	c-0.002,0.147-0.025,0.274-0.074,0.378s-0.112,0.192-0.19,0.261c-0.08,0.069-0.168,0.125-0.263,0.165
	c-0.096,0.04-0.189,0.07-0.286,0.091c-0.095,0.019-0.183,0.032-0.261,0.038c-0.08,0.005-0.146,0.009-0.192,0.007h-0.114V11.471
	L38.475,11.471z"/>
<path d="M38.587,45.917h0.181c0.088-0.001,0.186,0.002,0.291,0.01c0.106,0.009,0.215,0.028,0.319,0.06
	c0.106,0.033,0.204,0.082,0.294,0.152c0.089,0.068,0.16,0.164,0.215,0.286c0.055,0.121,0.082,0.276,0.084,0.466
	c-0.002,0.166-0.025,0.312-0.072,0.433c-0.049,0.118-0.111,0.217-0.192,0.293c-0.081,0.075-0.172,0.132-0.272,0.168
	s-0.205,0.054-0.313,0.054c-0.104-0.002-0.207-0.016-0.304-0.046c-0.099-0.03-0.188-0.067-0.266-0.114s-0.141-0.096-0.188-0.148
	c-0.045-0.051-0.068-0.1-0.069-0.146c0.001-0.034,0.015-0.061,0.038-0.079c0.023-0.02,0.054-0.033,0.086-0.044
	c0.03-0.011,0.059-0.019,0.081-0.024c0.05-0.014,0.095-0.036,0.135-0.066c0.041-0.029,0.073-0.066,0.097-0.111
	c0.024-0.041,0.037-0.093,0.037-0.146c0-0.104-0.023-0.189-0.067-0.26c-0.046-0.07-0.103-0.125-0.173-0.159
	c-0.07-0.037-0.146-0.056-0.228-0.056c-0.101,0-0.192,0.027-0.274,0.082c-0.08,0.055-0.146,0.135-0.193,0.244
	c-0.049,0.105-0.073,0.239-0.075,0.396c0.002,0.111,0.033,0.227,0.101,0.339c0.064,0.114,0.158,0.222,0.281,0.315
	c0.123,0.098,0.272,0.175,0.447,0.233c0.176,0.06,0.372,0.089,0.592,0.091c0.163,0,0.324-0.019,0.481-0.055
	c0.155-0.036,0.305-0.09,0.442-0.158c0.138-0.07,0.26-0.156,0.363-0.26c0.105-0.104,0.188-0.221,0.247-0.354s0.09-0.28,0.091-0.441
	c-0.001-0.166-0.033-0.314-0.096-0.445c-0.062-0.13-0.146-0.242-0.252-0.336s-0.227-0.169-0.357-0.225
	c-0.131-0.055-0.268-0.092-0.408-0.107v-0.037c0.129-0.025,0.256-0.065,0.375-0.125c0.121-0.058,0.229-0.13,0.326-0.218
	c0.098-0.088,0.172-0.188,0.229-0.304c0.058-0.115,0.086-0.241,0.088-0.379c0-0.1-0.02-0.198-0.057-0.301
	c-0.039-0.103-0.096-0.199-0.172-0.293s-0.172-0.179-0.287-0.252c-0.116-0.074-0.252-0.133-0.407-0.177
	c-0.157-0.043-0.333-0.065-0.53-0.065c-0.181,0-0.35,0.024-0.51,0.076c-0.159,0.051-0.299,0.121-0.422,0.213
	c-0.121,0.094-0.217,0.203-0.286,0.328c-0.07,0.127-0.104,0.268-0.106,0.42c0.002,0.086,0.023,0.162,0.067,0.224
	c0.045,0.062,0.103,0.11,0.173,0.142c0.07,0.033,0.146,0.051,0.227,0.051c0.078,0,0.144-0.014,0.195-0.039
	c0.053-0.025,0.094-0.058,0.123-0.095c0.031-0.038,0.053-0.075,0.064-0.112c0.015-0.037,0.021-0.067,0.021-0.094
	c0.001-0.039-0.004-0.082-0.011-0.13c-0.01-0.047-0.025-0.094-0.055-0.14c-0.025-0.047-0.066-0.085-0.121-0.12
	c-0.021-0.011-0.039-0.021-0.062-0.031c-0.02-0.01-0.036-0.021-0.051-0.032s-0.021-0.023-0.022-0.039
	c0-0.024,0.019-0.056,0.054-0.09c0.032-0.035,0.083-0.07,0.146-0.105c0.064-0.035,0.141-0.064,0.229-0.088
	c0.09-0.023,0.19-0.035,0.301-0.036c0.022-0.001,0.062,0.003,0.118,0.012c0.058,0.009,0.122,0.026,0.193,0.056
	c0.073,0.027,0.144,0.07,0.211,0.129c0.067,0.057,0.125,0.134,0.17,0.229c0.045,0.098,0.067,0.218,0.068,0.361
	c-0.001,0.147-0.025,0.275-0.074,0.38s-0.111,0.192-0.19,0.261c-0.08,0.068-0.168,0.124-0.263,0.165
	c-0.096,0.04-0.189,0.069-0.285,0.091c-0.096,0.02-0.184,0.031-0.262,0.038c-0.08,0.005-0.145,0.009-0.192,0.007h-0.115V45.917
	L38.587,45.917z"/>
</svg>
