<?xml version="1.0" encoding="utf-8"?>
<!-- Generator: Adobe Illustrator 16.0.0, SVG Export Plug-In . SVG Version: 6.00 Build 0)  -->
<!DOCTYPE svg PUBLIC "-//W3C//DTD SVG 1.1//EN" "http://www.w3.org/Graphics/SVG/1.1/DTD/svg11.dtd">
<svg version="1.1" id="Layer_1" xmlns="http://www.w3.org/2000/svg" xmlns:xlink="http://www.w3.org/1999/xlink" x="0px" y="0px"
	 width="50px" height="50px" viewBox="0 0 50 50" enable-background="new 0 0 50 50" xml:space="preserve">
<path fill="#231F20" d="M43.453,8.136C38.727,2.965,31.994,0,24.985,0C18.732,0,12.743,2.325,8.124,6.545
	c-10.176,9.3-10.89,25.145-1.589,35.32C11.259,47.035,17.99,50,25,50c6.252,0,12.245-2.326,16.861-6.545
	c4.933-4.504,7.813-10.658,8.113-17.328C50.273,19.453,47.959,13.066,43.453,8.136z M47.994,26.035
	c-0.279,6.143-2.93,11.808-7.471,15.957c-4.254,3.886-9.77,6.025-15.526,6.025c-6.453,0-12.65-2.731-17.001-7.492
	c-8.561-9.367-7.905-23.958,1.466-32.52c4.253-3.886,9.767-6.025,15.523-6.025c6.455,0,12.654,2.73,17.003,7.49
	C46.137,14.011,48.27,19.894,47.994,26.035z"/>
<polygon fill="#231F20" points="38.323,23.5 17.419,23.5 27.775,13.145 25.654,11.023 11.676,25 25.654,38.977 27.775,36.855 
	17.419,26.5 38.323,26.5 "/>
</svg>
