<?xml version="1.0" encoding="utf-8"?>
<!-- Generator: Adobe Illustrator 15.1.0, SVG Export Plug-In . SVG Version: 6.00 Build 0)  -->
<!DOCTYPE svg PUBLIC "-//W3C//DTD SVG 1.1//EN" "http://www.w3.org/Graphics/SVG/1.1/DTD/svg11.dtd">
<svg version="1.1" id="Layer_1" xmlns="http://www.w3.org/2000/svg" xmlns:xlink="http://www.w3.org/1999/xlink" x="0px" y="0px"
	 width="100px" height="300px" viewBox="0 0 100 300" enable-background="new 0 0 100 300" xml:space="preserve">
<polygon opacity="0.1" fill="#0064C8" enable-background="new    " points="14.549,25 0,33.129 65.297,150 0,266.869 14.549,275 
	84.389,150 "/>
<path opacity="0.2" fill="#0064C8" d="M65.297,150L0,266.869L14.549,275l69.84-125L14.549,25L0,33.129L65.297,150z M66.17,150.488
	v-0.976L1.36,33.514l12.804-7.153L83.243,150L14.164,273.641L1.36,266.484L66.17,150.488z"/>
</svg>
