{
  "config": {
    "dir": "{{dir}}",
    "title": "{{title}}",
    "title_clean": "{{title_clean}}",
    "preview": "{{preview}}",
    "course_id": "{{course_id}}",
    "course_code": "{{course_code}}",
    "bg_hat": "{{bg_hat}}",
    "catalogue_preview": "{{catalogue_preview}}",
    "cover": "{{cover}}",
    "working_programm_files": "{{working_programm_files}}",
    "colontitle_logo": "{{colontitle_logo}}",
    "colontitle_slogan": "{{colontitle_slogan}}",
    "theme": "{{theme}}",
    "is_inclusive": "{{is_inclusive}}"
  },
  "lastViewedPage": {
    "section": "eapp",
    "parent": 0,
    "id": 999
  },
  "nav": {
    "ebook": [],
    "eapp": {{eapp}}
  },
  "vocabulary": {{vocabulary}},
  "languagePack": {
    "ihelp": "Помощь",
    "sresources": "Ресурсы",
    "iresources_app": "Ресурсы",
    "sShow_journal": "Показать",
    "iw_SortByContents": "По@содержанию",
    "ij_SortByResult": "Успеваемость",
    "ij_SortByContents": "Содержание",
    "sall": "Все",
    "iabout-menu": "О@продукте",
    "ihide": "Скрыть",
    "vj_Export": "Экспорт",
    "ij_SortByDate": "Дата",
    "iglossary_app": "Словарь",
    "vebook-menu": "Учебник",
    "vwork-Clear": "Очистить",
    "iw_SortByDate": "По@дате",
    "sselected": "Выделенное",
    "vj_Clear": "Очистить",
    "ilinks_app": "Ссылки",
    "ijouirnal_app": "Журнал",
    "idelete": "Удалить",
    "seu": "ЭУ",
    "vwork-Print": "Печать",
    "sno_Search": "По@вашему@запросу@ничего@не@найдено",
    "ifavourites": "Заметки",
    "sbookmarks": "Закладки",
    "iview-menu": "Внешний@вид",
    "vj_Print": "Печать",
    "iadd_l": "Дополнительно",
    "veapp-mebu": "Приложение",
    "vsearch-Start": "Поиск",
    "isave": "Сохранить",
    "snotes": "Комментарии",
    "iaccount-menu": "Ваш@профиль",
    "sShow": "Показать",
    "sall_journal": "Все",
    "sep": "ЭП",
    "vsearchField": "Поиск@по@содержанию"
  },
  "hrefs": {
    "1": {
      "title": "АЛХИМИК",
      "href": "http://www.alhimik.ru",
      "description": "Химические новости, полезная информация о химических веществах и явлениях",
      "img": null
    }
  },
  "workMenu": {
    "bookmarks": [],
    "notes": [],
    "sels": []
  }
}