<?xml version="1.0" encoding="utf-8"?>
<!-- Generator: Adobe Illustrator 15.1.0, SVG Export Plug-In . SVG Version: 6.00 Build 0)  -->
<!DOCTYPE svg PUBLIC "-//W3C//DTD SVG 1.1//EN" "http://www.w3.org/Graphics/SVG/1.1/DTD/svg11.dtd">
<svg version="1.1" id="Layer_1" xmlns="http://www.w3.org/2000/svg" xmlns:xlink="http://www.w3.org/1999/xlink" x="0px" y="0px"
	 width="50px" height="50px" viewBox="0 0 50 50" enable-background="new 0 0 50 50" xml:space="preserve">
<polygon opacity="0.2" enable-background="new    " points="33.29,15.162 28.34,10.212 13.551,25 18.5,29.95 28.339,39.789 
	33.289,34.839 23.451,25 "/>
<path opacity="0.3" enable-background="new    " d="M33.29,15.162l-4.95-4.95l-9.839,9.839L13.551,25l14.787,14.789l4.95-4.95
	L23.451,25L33.29,15.162z M31.875,34.839l-3.536,3.536L14.965,25L28.34,11.625l3.536,3.536L22.037,25L31.875,34.839z"/>
</svg>
