<?xml version="1.0" encoding="utf-8"?>
<!-- Generator: Adobe Illustrator 15.1.0, SVG Export Plug-In . SVG Version: 6.00 Build 0)  -->
<!DOCTYPE svg PUBLIC "-//W3C//DTD SVG 1.1//EN" "http://www.w3.org/Graphics/SVG/1.1/DTD/svg11.dtd">
<svg version="1.1" id="Layer_1" xmlns="http://www.w3.org/2000/svg" xmlns:xlink="http://www.w3.org/1999/xlink" x="0px" y="0px"
	 width="137px" height="128px" viewBox="0 0 137 128" enable-background="new 0 0 137 128" xml:space="preserve">
<g>
	<path fill="#BF3D3D" d="M310.883,115.395v39.486c0,1.756-1.106,3.316-2.759,3.896c-2.339,0.82-5.16,1.256-8.164,1.256l0,0
		c-8.638,0-17.929-3.545-17.929-11.328V98.18c-0.195-3.47,1.016-9.601,6.828-12.918c2.697-1.541,16.862-10.65,23.978-15.253
		c1.27-0.821,2.888-0.88,4.219-0.161c1.329,0.729,2.156,2.119,2.156,3.631v5.982c0,2.28-1.851,4.131-4.131,4.131
		c-1.777,0-3.292-1.119-3.875-2.697c-6.429,4.131-15.897,10.195-18.248,11.539c-2.115,1.211-2.574,3.435-2.665,4.64
		c0,1.354,0.294,2.421,0.822,3.004c1.467,1.598,6.354,0.604,11.688-2.601c5.123-3.074,30.392-19.896,30.642-20.064
		c1.276-0.848,2.904-0.926,4.237-0.202c1.349,0.72,2.188,2.119,2.188,3.646v0.471c0,1.38-0.689,2.668-1.836,3.438
		c0,0-17.541,11.709-19.094,12.703C312.994,101.291,310.883,105.984,310.883,115.395z M372.918,95.458v53.631
		c0,1.418-0.73,2.739-1.934,3.495c0,0-24.086,18.707-28.975,21.678c-2.568,1.565-5.841,2.391-9.455,2.391
		c-8.59,0-17.476-4.646-17.476-12.416v-50.055v-1.211c0-0.018,0.013-0.033,0.013-0.054c0.082-3.024,0.789-7.342,6.411-11.489
		c3.372-2.488,23.449-16.178,24.301-16.757c1.271-0.858,2.908-0.95,4.256-0.239c1.354,0.715,2.202,2.118,2.202,3.651v5.981
		c0,2.281-1.848,4.131-4.132,4.131c-1.707,0-3.174-1.032-3.803-2.512c-6.405,4.385-15.813,10.84-17.92,12.391
		c-2.661,1.966-3.017,3.263-3.063,4.929c0.009,1.235,0.343,2.177,1.021,2.796c2.105,1.93,7.778,1.12,13.373-2.234
		c4.14-2.486,21.978-16.262,28.496-21.357c1.252-0.968,2.938-1.146,4.358-0.455C372.018,92.441,372.918,93.875,372.918,95.458z
		 M364.654,113.867L344,129.893v8.263l20.654-16.025V113.867z"/>
</g>
<path opacity="0.39" fill="#FFFFFF" enable-background="new    " d="M368.494,98.801c7.742,16.151,0.928,35.521-15.223,43.262
	c-16.152,7.744-35.521,0.92-43.263-15.229c-7.74-16.146-0.924-35.518,15.228-43.258C341.386,75.834,360.755,82.652,368.494,98.801z"
	/>
<circle opacity="0.84" fill="#FFFFFF" enable-background="new    " cx="347.781" cy="91.465" r="8.563"/>
<path fill="#64C65C" d="M219.818-101.275c-22.834,0-41.406,18.575-41.406,41.406s18.574,41.407,41.406,41.407
	s41.408-18.575,41.408-41.406S242.65-101.275,219.818-101.275z"/>
<g>
	<path fill="#64C65C" fill-opacity="0.4" d="M174.412-59.868c0-7.362,1.771-14.313,4.896-20.469
		c-10.254,1.493-18.139,10.295-18.139,20.962c0,10.858,8.164,19.796,18.688,21.046C176.387-44.742,174.412-52.079,174.412-59.868z"
		/>
</g>
<g>
	<path fill="#64C65C" fill-opacity="0.7" d="M259.92-81.14c3.383,6.35,5.307,13.589,5.307,21.272c0,8.13-2.158,15.762-5.916,22.371
		c10.402-1.854,18.309-10.939,18.309-21.877C277.613-70.097,270.02-79.046,259.92-81.14z"/>
</g>
<path fill="#64C65C" fill-opacity="0.26" d="M161.17-59.375c0-4.94,1.703-9.478,4.537-13.083c-0.676-0.107-1.365-0.17-2.07-0.17
	c-7.318,0-13.254,5.934-13.254,13.253s5.936,13.253,13.254,13.253c0.705,0,1.396-0.063,2.07-0.17
	C162.873-49.897,161.17-54.435,161.17-59.375z"/>
<g>
	<path fill="#64C65C" fill-opacity="0.45" d="M178.766-40.49c-8.883-1.698-15.623-9.515-15.623-18.885
		c0-9.196,6.492-16.897,15.131-18.785c0.326-0.736,0.672-1.462,1.035-2.177c-10.254,1.492-18.139,10.295-18.139,20.962
		c0,10.858,8.165,19.799,18.688,21.048C179.475-39.036,179.111-39.759,178.766-40.49z"/>
</g>
<path opacity="0.39" fill="#FFFFFF" enable-background="new    " d="M254.117-68.478c0,16.768-13.592,30.362-30.357,30.362
	c-16.771,0-30.359-13.596-30.359-30.362s13.594-30.358,30.359-30.358S254.117-85.242,254.117-68.478z"/>
<circle opacity="0.84" fill="#FFFFFF" enable-background="new    " cx="239.6" cy="-83.052" r="8.016"/>
<polygon fill="#FFFFFF" points="207.02,-81.874 245.986,-59.378 207.02,-36.874 "/>
<path fill="#64C65C" d="M206.176-35.412v-47.924l41.5,23.958L206.176-35.412z M207.863-80.412v42.077l36.435-21.043L207.863-80.412z
	"/>
<path fill="#64C65C" fill-opacity="0.46" d="M164.41-48.144c-0.258,0.021-0.514,0.047-0.773,0.047
	c-6.221,0-11.279-5.059-11.279-11.275c0-6.219,5.063-11.278,11.279-11.278c0.264,0,0.521,0.027,0.773,0.047
	c0.4-0.641,0.831-1.258,1.297-1.852c-0.676-0.107-1.365-0.17-2.07-0.17c-7.318,0-13.254,5.934-13.254,13.253
	c0,7.316,5.936,13.253,13.254,13.253c0.705,0,1.396-0.063,2.07-0.17C165.241-46.884,164.811-47.503,164.41-48.144z"/>
<g>
	<path fill="#64C65C" fill-opacity="0.64" d="M259.92-81.14c0.407,0.765,0.789,1.545,1.153,2.336
		c8.407,2.466,14.567,10.235,14.567,19.429c0,9.386-6.43,17.278-15.104,19.567c-0.392,0.779-0.802,1.551-1.229,2.309
		c10.399-1.855,18.303-10.939,18.303-21.876C277.613-70.097,270.02-79.046,259.92-81.14z"/>
</g>
<g>
	<g>
		<path d="M-122.556-103.178c-4.715-5.899-16.96-15.883-32.953-15.883c-10.694,0-20.87,4.471-30.244,13.288
			c-0.017,0.015-0.032,0.031-0.047,0.047c-9.142,9.404-7.948,18.092-6.435,29.097c0.093,0.676,0.188,1.362,0.281,2.06
			c0.25,1.869-1.386,4.754-2.969,7.545c-2.379,4.191-4.839,8.528-1.834,10.576c5.135,3.498,6.027,10.386,6.891,17.05
			c0.205,1.585,0.417,3.219,0.683,4.812c0.457,2.744,2.773,4.08,7.08,4.08c1.916,0,3.96-0.237,5.939-0.466
			c1.697-0.196,3.298-0.381,4.581-0.381c0.717,0,1.278,0.058,1.712,0.174c5.175,1.402,9.695,11.867,11.33,18.132
			c0.133,0.508,0.524,0.908,1.03,1.052c0.134,0.038,0.271,0.058,0.406,0.058c0.375,0,0.744-0.144,1.024-0.411l26.523-25.313
			c0.409-0.392,0.56-0.982,0.388-1.523c-2.341-7.327,2.525-14.479,6.82-20.791c1.874-2.755,3.644-5.356,4.854-7.917
			C-111.912-79.712-115.936-94.895-122.556-103.178z"/>
		<g>
			<path fill="#FFFFFF" d="M-150.792-68.256l-1.431-2.268c-1.057,0.295-2.135,0.479-3.215,0.551l-0.595,2.616
				c-0.211,0.938-1.146,1.525-2.083,1.313l-5.479-1.245c-0.938-0.211-1.525-1.146-1.313-2.084l0.595-2.616
				c-0.945-0.527-1.837-1.157-2.663-1.884l-2.268,1.43c-0.815,0.515-1.893,0.268-2.404-0.548l-2.994-4.751
				c-0.513-0.814-0.268-1.888,0.547-2.403l2.266-1.43c-0.295-1.058-0.479-2.137-0.549-3.213l-2.615-0.591
				c-0.939-0.217-1.525-1.151-1.314-2.09l1.245-5.477c0.214-0.939,1.147-1.525,2.086-1.314l2.615,0.596
				c0.527-0.943,1.158-1.837,1.883-2.664l-1.427-2.268c-0.516-0.815-0.27-1.89,0.544-2.404l4.752-2.994
				c0.814-0.512,1.89-0.268,2.406,0.548l1.427,2.266c1.06-0.295,2.135-0.479,3.216-0.551l0.591-2.615
				c0.215-0.938,1.147-1.525,2.089-1.313l5.473,1.245c0.941,0.211,1.529,1.147,1.317,2.084l-0.594,2.616
				c0.942,0.527,1.834,1.158,2.662,1.884l2.267-1.43c0.814-0.515,1.892-0.267,2.406,0.548l2.991,4.751
				c0.515,0.814,0.271,1.888-0.544,2.403l-2.268,1.43c0.295,1.059,0.479,2.137,0.549,3.213l2.613,0.596
				c0.938,0.211,1.529,1.146,1.314,2.084l-1.243,5.477c-0.215,0.938-1.146,1.525-2.085,1.314l-2.614-0.595
				c-0.529,0.941-1.16,1.836-1.885,2.663l1.428,2.269c0.515,0.814,0.269,1.888-0.546,2.403l-4.751,2.994
				C-149.204-67.197-150.281-67.441-150.792-68.256z"/>
			<circle cx="-156.5" cy="-85.852" r="5.626"/>
		</g>
	</g>
</g>
<g opacity="0.8">
	<g>
		<g id="Search__x28_and_thou_shall_find_x29_">
			<g>
				<path fill="#278EB9" d="M299.571,319.574l-34.215-21.363c1.743-4.287,2.243-9.139,1.11-14
					c-2.901-12.438-15.281-20.186-27.648-17.301s-20.042,15.31-17.141,27.748c2.9,12.439,15.281,20.187,27.647,17.301
					c4.833-1.127,8.935-3.724,11.983-7.195l34.216,21.361c0.901,0.563,1.942,0.709,2.901,0.484c0.957-0.224,1.828-0.814,2.385-1.719
					C301.93,323.082,301.374,320.701,299.571,319.574z M259.295,295.705l-1.056,2.594l-1.847,2.103
					c-2.273,2.591-5.236,4.371-8.563,5.146c-8.833,2.062-17.705-3.491-19.776-12.375c-2.072-8.885,3.428-17.788,12.261-19.848
					c8.833-2.062,17.706,3.491,19.776,12.375C260.873,289.043,260.598,292.502,259.295,295.705z"/>
			</g>
		</g>
	</g>
</g>
<g>
	<rect x="22.004" y="22.159" fill="#FFFFFF" width="56.112" height="73.359"/>
	<g opacity="0.8">
		<g>
			<g id="Layer_5_86_">
				<path fill="#278EB9" d="M93.492,45.061c-0.813,0.56-9.421,6.492-10.189,7.019c-0.764,0.527-9.953,6.856-10.659,7.343
					c-0.731,0.506-1.734,0.321-2.238-0.412L56.218,38.416c-1.512-2.195-4.517-2.748-6.711-1.237
					c-2.196,1.511-2.75,4.518-1.238,6.712c19.802,28.823,19.802,28.823,21.442,31.21c0.619,0.901,1.97,2.822,1.758,3.446
					c-0.176,0.515-0.885,0.513-2.006,0.128c-2.544-0.869-6.393-2.388-9.083-3.323c-2.547-0.887-5.963-1.399-7.431,1.51
					c-1.396,2.77,0.387,6.171,3.32,7.184c0,0,19.736,7.644,26.54,10.341c3.981,1.579,5.149,2.145,6.491,2.64
					c5.105,1.891,6.624,1.016,10.781-1.851c4.49-3.09,17.24-11.874,17.24-11.874c9.276-6.388,1.692-17.396-1.544-22.094
					l-12.406-18.008C101.057,39.836,94.304,44.504,93.492,45.061z"/>
			</g>
		</g>
	</g>
	<path opacity="0.6" fill="#278EB9" d="M83.303,48.079c0.123-0.084,0.462-0.317,0.922-0.634V18.124c0-3.542-2.495-6.124-6.033-6.124
		H21.923c-3.547,0-6.698,2.581-6.698,6.124v49.835v1.34v39.879c0,3.532,3.151,6.822,6.698,6.822h56.269
		c3.536,0,6.033-3.288,6.033-6.822V98.563C83.795,98.389,71.412,93,71.412,93H22.225V68.947v-2.488V19h56v32.578
		C80.612,49.933,82.935,48.333,83.303,48.079z M50.057,99.026c3.014,0,5.465,2.446,5.465,5.467c0,3.017-2.452,5.458-5.465,5.458
		c-3.02,0-5.463-2.441-5.463-5.458C44.594,101.473,47.037,99.026,50.057,99.026z"/>
</g>
<g>
	<path opacity="0.6" fill="#278EB9" d="M-186.033,100.5h-56.269c-3.547,0-6.698,2.581-6.698,6.123v91.055
		c0,3.532,3.151,6.822,6.698,6.822h56.269c3.536,0,6.033-3.288,6.033-6.822v-91.055C-180,103.081-182.495,100.5-186.033,100.5z
		 M-214.167,198.451c-3.02,0-5.463-2.441-5.463-5.458c0-3.021,2.443-5.467,5.463-5.467c3.014,0,5.465,2.446,5.465,5.467
		C-208.702,196.01-211.154,198.451-214.167,198.451z M-186,181.5h-56v-74h56V181.5z"/>
	<g opacity="0.8">
		<g>
			<g id="Layer_5_1_">
				<path fill="#278EB9" d="M-170.732,133.561c-0.813,0.56-9.421,6.492-10.189,7.019c-0.764,0.527-9.953,6.856-10.659,7.343
					c-0.731,0.506-1.734,0.321-2.238-0.411l-14.188-20.595c-1.512-2.195-4.517-2.748-6.711-1.236
					c-2.196,1.511-2.75,4.518-1.238,6.712c19.802,28.823,19.802,28.823,21.442,31.21c0.619,0.901,1.97,2.822,1.758,3.446
					c-0.176,0.515-0.885,0.513-2.006,0.128c-2.544-0.869-6.393-2.388-9.083-3.323c-2.547-0.887-5.963-1.399-7.431,1.51
					c-1.396,2.77,0.387,6.171,3.32,7.184c0,0,19.736,7.644,26.54,10.341c3.981,1.579,5.149,2.145,6.491,2.64
					c5.105,1.891,6.624,1.016,10.781-1.851c4.49-3.09,17.24-11.874,17.24-11.874c9.276-6.388,1.692-17.396-1.544-22.095
					l-12.406-18.008C-163.168,128.336-169.921,133.004-170.732,133.561z"/>
			</g>
		</g>
	</g>
	<g opacity="0.8">
		<g>
			<path fill="#278EB9" d="M-252,201.748v-21.33c0-3.685-0.677-5.631-0.677-5.631s3.53-2.753,4.791-3.545
				c2.697-1.695,5.59-2.587,9.425-2.967c10.688-1.06,11.813-11.452,6.153-11.452c-4.417,0-5.774,0.571-14.663,0.845
				c-4.792,0.146-12.763,1.722-15.379,4.176c-4.19,3.931-2.715,24.912-4.256,32.056l-9.945,15.105l23.22,14.24
				c6.951-10.682,16.894-15.745,16.894-15.745s-7.485,0-9.248,0C-250.349,207.5-252,204.147-252,201.748z"/>
		</g>
	</g>
</g>
</svg>
