<?xml version="1.0" encoding="utf-8"?>
<!-- Generator: Adobe Illustrator 16.0.0, SVG Export Plug-In . SVG Version: 6.00 Build 0)  -->
<!DOCTYPE svg PUBLIC "-//W3C//DTD SVG 1.1//EN" "http://www.w3.org/Graphics/SVG/1.1/DTD/svg11.dtd">
<svg version="1.1" id="Layer_1" xmlns="http://www.w3.org/2000/svg" xmlns:xlink="http://www.w3.org/1999/xlink" x="0px" y="0px"
	 width="50px" height="50px" viewBox="0 0 50 50" enable-background="new 0 0 50 50" xml:space="preserve">
<path d="M0,0v50h50V0H0z M48.293,49H1.706l9.505-9.505l-0.707-0.707L1,48.293V1.708l9.151,9.15l0.707-0.707L1.706,1h46.587
	l-9.505,9.504l0.708,0.707L49,1.707v46.586l-9.15-9.15l-0.707,0.707L48.293,49z"/>
<rect x="5.782" y="24.367" transform="matrix(0.7071 0.7071 -0.7071 0.7071 24.7053 -4.9121)" width="25" height="5.999"/>
<rect x="19.217" y="24.367" transform="matrix(-0.7071 0.7071 -0.7071 -0.7071 73.495 24.2909)" width="25" height="5.999"/>
</svg>
