<?xml version="1.0" encoding="utf-8"?>
<!-- Generator: Adobe Illustrator 16.0.0, SVG Export Plug-In . SVG Version: 6.00 Build 0)  -->
<!DOCTYPE svg PUBLIC "-//W3C//DTD SVG 1.1//EN" "http://www.w3.org/Graphics/SVG/1.1/DTD/svg11.dtd">
<svg version="1.1" id="Layer_1" xmlns="http://www.w3.org/2000/svg" xmlns:xlink="http://www.w3.org/1999/xlink" x="0px" y="0px"
	 width="20px" height="25px" viewBox="0 0 20 25" enable-background="new 0 0 20 25" xml:space="preserve">
<path enable-background="new    " d="M20,25H0V0h20V25z M1,24h18V1H1V24z"/>
<rect x="3" y="3.5" enable-background="new    " width="14" height="2"/>
<rect x="3" y="7.5" enable-background="new    " width="14" height="2"/>
<rect x="3" y="11.5" enable-background="new    " width="14" height="2"/>
<rect x="3" y="15.501" enable-background="new    " width="10" height="2.001"/>
</svg>
