<?xml version="1.0" encoding="utf-8"?>
<!-- Generator: Adobe Illustrator 16.0.0, SVG Export Plug-In . SVG Version: 6.00 Build 0)  -->
<!DOCTYPE svg PUBLIC "-//W3C//DTD SVG 1.1//EN" "http://www.w3.org/Graphics/SVG/1.1/DTD/svg11.dtd">
<svg version="1.1" id="Layer_1" xmlns="http://www.w3.org/2000/svg" xmlns:xlink="http://www.w3.org/1999/xlink" x="0px" y="0px"
	 width="180px" height="84px" viewBox="0 0 180 84" enable-background="new 0 0 180 84" xml:space="preserve">
<path fill="#FFFFFF" d="M174.262,76.688l-5.881-17.53c-0.146-0.404-0.219-0.699-0.219-1.029c0-0.59,0.293-0.954,0.955-1.252v-0.512
	h-4.483h-3.198v0.512c0.662,0.298,0.994,0.662,0.994,1.252c0,0.293-0.074,0.625-0.223,1.029l-5.954,16.612
	c-0.881,2.461-1.433,4.117-3.646,4.595v0.514h7.209v-0.514c-1.25-0.111-1.799-0.697-1.799-1.875c0-0.625,0.183-1.434,0.514-2.428
	l2.134-6.1c1.478,0.169,2.804,0.494,3.969,0.947c3.661,1.434,5.694,4.135,5.694,7.174c0,1.177-0.439,1.875-1.508,2.281v0.512h8.234
	v-0.512C175.477,80.254,175.034,79.004,174.262,76.688z M164.634,68.639c-1.021-0.307-2.126-0.467-3.346-0.548l2.978-8.638
	l0.368,1.094l3.345,9.968C166.956,69.593,165.855,69.009,164.634,68.639z M89.969,58.899c-1.553-1.104-3.332-1.834-5.367-2.216
	c-1.143-0.213-2.365-0.318-3.676-0.318h-9.333v0.512c2.13,0.187,2.276,1.363,2.276,4.082v15.326c0,2.722-0.146,3.896-2.276,4.08
	v0.514h11.687c0.457,0,0.897-0.008,1.322-0.022c3.084-0.124,5.441-0.748,7.571-2.623c2.315-2.021,3.528-4.852,3.528-8.048
	C95.701,65.591,93.605,61.472,89.969,58.899z M84.602,78.851c-0.832,0.196-1.742,0.301-2.719,0.301
	c-3.785,0-3.822-0.478-3.822-3.491V61.547c0-2.354,0.441-3.418,3.015-3.418c1.222,0,2.413,0.275,3.526,0.773
	c3.715,1.672,6.543,5.854,6.543,10.805C91.145,74.461,88.814,77.857,84.602,78.851z M67.988,76.688l-5.881-17.53
	c-0.146-0.404-0.219-0.699-0.219-1.029c0-0.59,0.293-0.954,0.955-1.252v-0.512h-4.484h-3.194v0.512
	c0.66,0.298,0.991,0.662,0.991,1.252c0,0.293-0.075,0.625-0.222,1.029l-5.956,16.612c-0.88,2.461-1.432,4.117-3.644,4.595v0.514
	h7.212v-0.514c-1.253-0.111-1.802-0.697-1.802-1.875c0-0.625,0.183-1.434,0.514-2.428l2.133-6.1
	c1.479,0.169,2.804,0.494,3.968,0.947c3.664,1.434,5.696,4.135,5.696,7.174c0,1.177-0.438,1.875-1.506,2.281v0.512h8.235v-0.512
	C69.203,80.254,68.762,79.004,67.988,76.688z M58.359,68.639c-1.02-0.307-2.126-0.467-3.344-0.548l2.979-8.638l0.365,1.094
	l3.346,9.968C60.683,69.593,59.584,69.009,58.359,68.639z M24.6,76.688l-5.881-17.53c-0.149-0.404-0.224-0.699-0.224-1.029
	c0-0.59,0.295-0.954,0.958-1.252v-0.512h-4.484h-3.198v0.512c0.662,0.298,0.993,0.662,0.993,1.252c0,0.293-0.074,0.625-0.22,1.029
	L6.59,75.771c-0.882,2.461-1.435,4.117-3.645,4.595v0.514h7.207v-0.514c-1.25-0.111-1.799-0.697-1.799-1.875
	c0-0.625,0.184-1.434,0.515-2.428l2.132-6.1c1.479,0.169,2.805,0.494,3.969,0.951c3.664,1.43,5.696,4.131,5.696,7.17
	c0,1.177-0.441,1.875-1.506,2.281v0.512h8.233v-0.512C25.812,80.254,25.37,79.004,24.6,76.688z M14.969,68.639
	c-1.02-0.307-2.126-0.467-3.345-0.548l2.978-8.638l0.367,1.094l3.344,9.968C17.291,69.593,16.192,69.009,14.969,68.639z
	 M156.883,59.431c-2.354-0.117-2.354-2.356-2.354-4.595V34.359l-6.717,0.944v0.272c2.512,0.275,2.512,2.637,2.512,4.752v14.508
	c0,2.074,0,4.478-2.512,4.595v0.496h9.069L156.883,59.431L156.883,59.431z M148.229,29.688c0,1.979,1.379,3.456,3.496,3.456
	c2.119,0,3.354-1.797,3.354-3.594c0-1.658-1.428-3.316-3.354-3.316C149.46,26.233,148.229,27.707,148.229,29.688z M47.529,73.379
	c-1.835,4.009-3.438,5.92-6.856,5.92c-6.174,0-10.804-5.514-10.804-12.276c0-5.512,3.307-9.114,8.157-9.114
	c3.455,0,6.141,1.691,7.684,5h0.513l-1.652-7.279c-0.734,0.479-1.323,0.625-2.06,0.625c-1.396,0-3.159-0.4-5.364-0.4
	c-7.24,0-11.469,4.227-11.469,11.539c0,8.489,5.183,14.045,14.005,14.045c1.506,0,2.151-0.257,3.77-0.257
	c0.331,0,0.883,0,1.652,0.071l3.014-7.87h-0.589V73.379z M107.338,79.187c-3.564,0-3.786-1.137-3.786-3.748V65.074h2.097
	c3.307,0,4.594,0.993,5.771,4.301h0.516l-1.36-8.524h-0.513c-0.332,1.983-1.287,2.313-3.86,2.313h-2.646v-2.17
	c0-2.274,0.438-2.826,2.899-2.826c4.155,0,7.499,2.13,8.97,5.476h0.516l-1.91-8.015c-0.441,0.518-1.176,0.736-2.24,0.736H97.088
	v0.512c2.133,0.149,2.277,1.511,2.277,4.266v14.961c0,2.757-0.146,4.114-2.277,4.266v0.512h15.768c0.734,0,1.435,0,2.133,0.41
	l3.052-9.562h-0.479C115.167,76.688,111.639,79.187,107.338,79.187z M137.682,56.884c0.514,0.183,0.771,0.551,0.771,0.956
	c0,0.258-0.12,0.634-0.341,1.285l-5.346,14.052l-4.847-14.052c-0.219-0.635-0.353-0.992-0.353-1.285
	c0-0.405,0.257-0.773,0.771-0.956v-0.517h-9.039v0.517c2.132,0.147,2.315,1.507,2.315,4.263v14.957c0,2.756-0.184,4.116-2.315,4.266
	v0.515h6.981v-0.515c-2.133-0.147-2.279-1.506-2.279-4.266V59.492l7.796,21.184l8.457-21.477v16.904
	c0,2.756-0.183,4.116-2.315,4.266v0.515h8.785v-0.515c-2.131-0.147-2.313-1.506-2.313-4.266V61.146c0-2.756,0.185-4.115,2.313-4.263
	v-0.517h-9.041V56.884L137.682,56.884z M156.461,21.884L90.754,2.562L25.792,21.884l65.707,20.108L156.461,21.884z M50.26,35.041
	v17.541l81.734-0.053V35.041L91.266,47.804L50.26,35.041z"/>
</svg>
