<?xml version="1.0" encoding="utf-8"?>
<!-- Generator: Adobe Illustrator 15.1.0, SVG Export Plug-In . SVG Version: 6.00 Build 0)  -->
<!DOCTYPE svg PUBLIC "-//W3C//DTD SVG 1.1//EN" "http://www.w3.org/Graphics/SVG/1.1/DTD/svg11.dtd">
<svg version="1.1" id="Layer_1" xmlns="http://www.w3.org/2000/svg" xmlns:xlink="http://www.w3.org/1999/xlink" x="0px" y="0px"
	 width="50px" height="50px" viewBox="0 0 50 50" enable-background="new 0 0 50 50" xml:space="preserve">
<path d="M0,0v50h50V0H0z M48.293,49H1.706l9.505-9.505l-0.707-0.707L1,48.293V1.708l9.151,9.15l0.707-0.707L1.706,1h46.587
	l-9.505,9.504l0.708,0.707L49,1.707v46.586l-9.15-9.15l-0.707,0.707L48.293,49z"/>
<g>
	<path d="M14.369,18.545c0.954-0.162,2.088-0.27,3.331-0.27c2.251,0,3.854,0.54,4.916,1.512c1.099,0.991,1.729,2.395,1.729,4.357
		c0,1.98-0.63,3.602-1.747,4.717c-1.152,1.135-3.025,1.747-5.383,1.747c-1.134,0-2.053-0.054-2.845-0.144V18.545z M15.936,29.275
		c0.396,0.055,0.972,0.072,1.584,0.072c3.367,0,5.167-1.872,5.167-5.149c0.018-2.863-1.603-4.682-4.916-4.682
		c-0.81,0-1.422,0.072-1.836,0.162V29.275z"/>
	<path d="M27.257,26.432c0.036,2.143,1.386,3.024,2.989,3.024c1.134,0,1.836-0.198,2.412-0.45l0.288,1.135
		c-0.558,0.252-1.53,0.559-2.917,0.559c-2.683,0-4.285-1.783-4.285-4.412c0-2.628,1.549-4.681,4.088-4.681
		c2.862,0,3.601,2.484,3.601,4.087c0,0.324-0.019,0.559-0.054,0.738H27.257z M31.902,25.297c0.018-0.99-0.414-2.557-2.197-2.557
		c-1.62,0-2.305,1.458-2.43,2.557H31.902z"/>
	<path d="M35.393,17.717h1.584V30.5h-1.584V17.717z"/>
</g>
</svg>
