<?xml version="1.0" encoding="utf-8"?>
<!-- Generator: Adobe Illustrator 15.1.0, SVG Export Plug-In . SVG Version: 6.00 Build 0)  -->
<!DOCTYPE svg PUBLIC "-//W3C//DTD SVG 1.1//EN" "http://www.w3.org/Graphics/SVG/1.1/DTD/svg11.dtd">
<svg version="1.1" id="Layer_1" xmlns="http://www.w3.org/2000/svg" xmlns:xlink="http://www.w3.org/1999/xlink" x="0px" y="0px"
	 width="800px" height="90px" viewBox="0 0 800 90" enable-background="new 0 0 800 90" xml:space="preserve">
<rect x="0" fill="#FAFAFA" width="800" height="90"/>
<path fill="#FAF5B4" d="M800,84c0,0-232.729-77.733-551.059-77.733C85.5,6.267,0,16.985,0,16.985V0h800V84z"/>
<path fill="#825A00" d="M0,14.506v6.38c0,0,67.983-13.823,248.941-13.823C567.268,7.063,800,90,800,90V75.113
	C800,75.113,567.27,6,248.941,6C80.242,6,0,14.506,0,14.506z"/>
</svg>
