<?xml version="1.0" encoding="utf-8"?>
<!-- Generator: Adobe Illustrator 15.1.0, SVG Export Plug-In . SVG Version: 6.00 Build 0)  -->
<!DOCTYPE svg PUBLIC "-//W3C//DTD SVG 1.1//EN" "http://www.w3.org/Graphics/SVG/1.1/DTD/svg11.dtd">
<svg version="1.1" id="Layer_1" xmlns="http://www.w3.org/2000/svg" xmlns:xlink="http://www.w3.org/1999/xlink" x="0px" y="0px"
	 width="100px" height="100px" viewBox="0 0 100 100" enable-background="new 0 0 100 100" xml:space="preserve">
<g>
	<ellipse fill="none" stroke="#821928" stroke-width="3" stroke-miterlimit="10" cx="49.999" cy="50" rx="19.667" ry="42.833"/>
	
		<ellipse transform="matrix(-0.866 -0.5 0.5 -0.866 68.2995 118.3013)" fill="none" stroke="#821928" stroke-width="3" stroke-miterlimit="10" cx="50" cy="50" rx="42.833" ry="19.666"/>
	
		<ellipse transform="matrix(-0.866 0.5 -0.5 -0.866 118.3029 68.302)" fill="none" stroke="#821928" stroke-width="3" stroke-miterlimit="10" cx="50" cy="50.001" rx="42.833" ry="19.667"/>
	<circle fill="#8A1928" stroke="#6E1928" stroke-width="3" stroke-miterlimit="10" cx="49.999" cy="50" r="8"/>
</g>
</svg>
