<?xml version="1.0" encoding="utf-8"?>
<!-- Generator: Adobe Illustrator 16.2.0, SVG Export Plug-In . SVG Version: 6.00 Build 0)  -->
<!DOCTYPE svg PUBLIC "-//W3C//DTD SVG 1.1//EN" "http://www.w3.org/Graphics/SVG/1.1/DTD/svg11.dtd">
<svg version="1.1" id="Layer_1" xmlns="http://www.w3.org/2000/svg" xmlns:xlink="http://www.w3.org/1999/xlink" x="0px" y="0px"
	 width="25px" height="70px" viewBox="0 0 25 70" enable-background="new 0 0 25 70" xml:space="preserve">
<path fill="#0064C8" d="M0,52.458c0,2.763,2.238,5,5,5h23.916c2.761,0,5-2.237,5-5V5c0-2.761-2.239-5-5-5H5C2.238,0,0,2.239,0,5
	V52.458z"/>
<g opacity="0.1">
	<path d="M28.916,1c2.206,0,4,1.794,4,4v47.458c0,2.207-1.794,4-4,4H5c-2.206,0-4-1.793-4-4V5c0-2.206,1.794-4,4-4H28.916 M28.916,0
		H5C2.238,0,0,2.239,0,5v47.458c0,2.763,2.238,5,5,5h23.916c2.761,0,5-2.237,5-5V5C33.916,2.239,31.677,0,28.916,0L28.916,0z"/>
</g>
<g>
	<polygon fill="#FFFFFF" points="6.57,37.684 15.82,28.737 6.661,19.276 5.224,20.667 12.991,28.69 5.18,36.245 	"/>
	<g opacity="0.1">
		<path d="M6.661,19.276l9.159,9.461l-9.25,8.945l-1.39-1.437l7.812-7.555l-7.768-8.023L6.661,19.276 M6.684,17.862l-0.718,0.696
			l-1.438,1.391L3.81,20.645l0.695,0.719l7.072,7.304l-7.093,6.859l-0.719,0.695l0.695,0.719l1.391,1.438l0.695,0.719l0.719-0.695
			l9.25-8.94l0.719-0.695l-0.695-0.719L7.38,18.581L6.684,17.862L6.684,17.862z"/>
	</g>
</g>
</svg>
