<?xml version="1.0" encoding="utf-8"?>
<!-- Generator: Adobe Illustrator 15.1.0, SVG Export Plug-In . SVG Version: 6.00 Build 0)  -->
<!DOCTYPE svg PUBLIC "-//W3C//DTD SVG 1.1//EN" "http://www.w3.org/Graphics/SVG/1.1/DTD/svg11.dtd">
<svg version="1.1" xmlns="http://www.w3.org/2000/svg" xmlns:xlink="http://www.w3.org/1999/xlink" x="0px" y="0px" width="50px"
	 height="50px" viewBox="-486.5 409.5 50 50" enable-background="new -486.5 409.5 50 50" xml:space="preserve">
<g id="Layer_2_1_">
	<circle fill="#231F20" cx="-469.113" cy="428.242" r="2.274"/>
</g>
<g id="Layer_1">
	<linearGradient id="SVGID_1_" gradientUnits="userSpaceOnUse" x1="-476.7446" y1="437.7656" x2="-459.9165" y2="437.7656">
		<stop  offset="0" style="stop-color:#EDF5FF"/>
		<stop  offset="1" style="stop-color:#8CCFFA"/>
	</linearGradient>
	<path fill="url(#SVGID_1_)" d="M-459.917,440.417c0-5.523-4.477-10-10-10c-2.644,0-5.04,1.033-6.828,2.708l2.729,10.182
		c0.284,1.064,1.253,1.809,2.354,1.809c0.212,0,0.425-0.029,0.632-0.082l10.962-2.938
		C-459.976,441.549-459.917,440.99-459.917,440.417z"/>
	<path fill="#231F20" d="M-461.117,435.664l-0.965,1.672l-5.568-3.215l-4.824,8.354l0.098,0.367l0.007,0.023
		c0.104,0.389,0.507,0.621,0.897,0.518l11.55-3.095C-459.944,438.616-460.371,437.042-461.117,435.664z"/>
	<path fill="#231F20" d="M-459.975,441.481l-11.205,3.003c-0.997,0.266-2.021-0.324-2.288-1.322l-2.454-9.154l-0.305-1.137
		l-0.047-0.175c-0.333,0.275-0.641,0.578-0.937,0.894l2.643,9.863c0.43,1.602,2.082,2.557,3.682,2.125l10.693-2.864
		C-460.097,442.311-460.019,441.901-459.975,441.481z"/>
	<g id="Layer_5">
	</g>
	<g id="Layer_2">
	</g>
	<g id="Layer_1_1_">
	</g>
	<linearGradient id="SVGID_2_" gradientUnits="userSpaceOnUse" x1="-476.5894" y1="427.166" x2="-446.2949" y2="427.166">
		<stop  offset="0" style="stop-color:#EDF5FF"/>
		<stop  offset="1" style="stop-color:#8CCFFA"/>
	</linearGradient>
	<path fill="url(#SVGID_2_)" d="M-446.368,432.596l-4.067-15.179c-0.301-1.116-1.508-1.812-2.625-1.513l-21.94,5.877
		c-1.141,0.308-1.821,1.484-1.515,2.625l1.922,7.175c1.396-0.741,2.986-1.164,4.677-1.164c4.866,0,8.916,3.477,9.812,8.08
		l12.221-3.274C-446.744,434.917-446.063,433.738-446.368,432.596z"/>
	<rect x="-486.5" y="409.5" fill="none" width="50" height="50"/>
	<g>
		<circle fill="#231F20" cx="-468.136" cy="426.331" r="2"/>
		<path fill="#231F20" d="M-447.818,432.984l-0.609-2.275l-8.573-4.951l-4.95,8.574l-0.074-0.043
			c0.643,0.827,1.156,1.757,1.516,2.762l12.236-3.279C-447.932,433.68-447.727,433.326-447.818,432.984z"/>
	</g>
	<linearGradient id="SVGID_3_" gradientUnits="userSpaceOnUse" x1="-469.9165" y1="432.1875" x2="-469.9165" y2="450.494">
		<stop  offset="0" style="stop-color:#EDF5FF"/>
		<stop  offset="1" style="stop-color:#8CCFFA"/>
	</linearGradient>
	<circle opacity="0.2" fill="url(#SVGID_3_)" cx="-469.917" cy="440.417" r="10"/>
	<path fill="#231F20" d="M-445.887,432.467l-4.066-15.179c-0.377-1.407-1.83-2.247-3.238-1.87l-21.938,5.881
		c-1.408,0.377-2.247,1.828-1.87,3.236l1.958,7.307c0.292-0.176,0.594-0.336,0.905-0.481l-0.256-0.956l-1.641-6.125
		c-0.235-0.879,0.285-1.779,1.162-2.016l21.94-5.877c0.877-0.236,1.777,0.285,2.014,1.161l4.066,15.179
		c0.233,0.879-0.285,1.778-1.162,2.014l-12.207,3.271c0.08,0.321,0.143,0.648,0.191,0.981l12.273-3.289
		C-446.348,435.326-445.51,433.873-445.887,432.467z"/>
	<path fill="#231F20" d="M-469.917,429.917c-5.799,0-10.5,4.7-10.5,10.5c0,5.799,4.701,10.5,10.5,10.5s10.5-4.701,10.5-10.5
		C-459.417,434.617-464.117,429.917-469.917,429.917z M-469.917,449.917c-5.247,0-9.5-4.254-9.5-9.5c0-5.247,4.253-9.5,9.5-9.5
		s9.5,4.253,9.5,9.5C-460.417,445.663-464.669,449.917-469.917,449.917z"/>
	<path d="M-445.509,447.582l-14.632-5.068c-0.213,1-0.578,1.941-1.065,2.807l14.715,5.097c0.783,0.271,1.637-0.145,1.908-0.927
		C-444.312,448.708-444.726,447.854-445.509,447.582z"/>
</g>
</svg>
