<?xml version="1.0" encoding="utf-8"?>
<!-- Generator: Adobe Illustrator 16.0.0, SVG Export Plug-In . SVG Version: 6.00 Build 0)  -->
<!DOCTYPE svg PUBLIC "-//W3C//DTD SVG 1.1//EN" "http://www.w3.org/Graphics/SVG/1.1/DTD/svg11.dtd">
<svg version="1.1" id="Layer_1" xmlns="http://www.w3.org/2000/svg" xmlns:xlink="http://www.w3.org/1999/xlink" x="0px" y="0px"
	 width="50px" height="50px" viewBox="0 0 50 50" enable-background="new 0 0 50 50" xml:space="preserve">
<path d="M50,0H0v50h50V0z M49,48.293L37.854,37.146l-0.707,0.707L48.293,49H1.707l11.146-11.146l-0.707-0.707L1,48.293V1.708
	l11.146,11.146l0.707-0.707L1.707,1h46.586L37.146,12.146l0.707,0.707L49,1.707V48.293z"/>
<polygon points="33,19 17,19 25,35 "/>
</svg>
